…
`data` 是一个数据框，`contvar` 是一个连续变量，而 `catvar` 是一个分类变量。以下是一个使用 `mpg` 数据集中 2008 年汽车的高速油耗的例子。高速油耗按车型平均：

```
library(ggplot2)
library(dplyr)
plotdata <- mpg %>%
  filter(year == "2008") %>%
  group_by(model) %>%
  summarize(meanHwy=mean(hwy))

> plotdata

# A tibble: 38 x 2
   model              meanHwy
   *<chr>*                *<dbl>*
 1 4runner 4wd           18.5
 2 a4                    29.3
 3 a4 quattro            26.2
 4 a6 quattro            24  
 5 altima                29  
 6 c1500 suburban 2wd    18  
 7 camry                 30  
 8 camry solara          29.7
 9 caravan 2wd           22.2
10 civic                 33.8
# ... with 28 more rows
…
