…
您也可以通过指定组件编号或双括号内的名称来指定列表的元素。在这个例子中，`mylist[[2]]` 和 `mylist [["ages"]]` 都指向同一个包含四个元素的数值向量。对于命名组件，`mylist$ages` 也会起作用。列表是重要的 R 结构，原因有两个。首先，它们允许您以简单的方式组织和回忆不同的信息。其次，许多 R 函数的结果返回列表。分析员需要提取所需的组件。您将在后面的章节中看到许多返回列表的函数的例子。

### 2.2.7 Tibbles

在继续之前，值得提一下 tibbles，它们是具有专门行为的数据框，旨在使它们更有用。它们可以通过 `tibble()` 或 `as_tibble()` 函数从 `tibble` 包中创建。要安装 `tibble` 包，请使用 `install.packages("tibble")`。以下是一些它们吸引人的特性描述。

Tibbles 打印的格式比标准数据框更紧凑。此外，变量标签描述了每列的数据类型：

```
library(tibble)
mtcars <- as_tibble(mtcars)
mtcars

# A tibble: 32 x 11
     mpg   cyl  disp    hp  drat    wt  qsec    vs    am  gear  carb
 * <dbl> <dbl> <dbl> <dbl> <dbl> <dbl> <dbl> <dbl> <dbl> <dbl> <dbl>
 1  21       6  160    110  3.9   2.62  16.5     0     1     4     4
 2  21       6  160    110  3.9   2.88  17.0     0     1     4     4
 3  22.8     4  108     93  3.85  2.32  18.6     1     1     4     1
 4  21.4     6  258    110  3.08  3.22  19.4     1     0     3     1
 5  18.7     8  360    175  3.15  3.44  17.0     0     0     3     2
 6  18.1     6  225    105  2.76  3.46  20.2     1     0     3     1
 7  14.3     8  360   245  3.21  3.57  15.8     0     0     3     4
 8  24.4     4  147\.   62  3.69  3.19  20       1     0     4     2
 9  22.8     4  141\.   95  3.92  3.15  22.9     1     0     4     2
10  19.2     6  168\.  123  3.92  3.44  18.3     1     0     4     4
# ... with 22 more rows
```
…
