…
```py
> print(diamonds)
```

但 `print()` 函数在特定情况下是不必要的，比如在 `for` 循环内。与 Jupyter 笔记本类似，你可以直接执行对象名称，例如：

```py
> diamonds
```

这将把对象打印到控制台。我们不会在这里复制它，但如果你执行上面的命令，你会注意到这不是一个好的输出！确实，人们会想知道为什么默认输出在交互模式下允许如此多的内容打印到控制台。现在尝试使用`read_csv()`读取的数据帧：

```py
> diamonds_2
# A tibble: 53,940 x 10
   carat cut       color clarity depth table price     x     y     z
   <dbl> <chr>     <chr> <chr>   <dbl> <dbl> <dbl> <dbl> <dbl> <dbl>
 1 0.23  Ideal     E     SI2      61.5    55   326  3.95  3.98  2.43
 2 0.21  Premium   E     SI1      59.8    61   326  3.89  3.84  2.31
 3 0.23  Good      E     VS1      56.9    65   327  4.05  4.07  2.31
 4 0.290 Premium   I     VS2      62.4    58   334  4.2   4.23  2.63
 5 0.31  Good      J     SI2      63.3    58   335  4.34  4.35  2.75
 6 0.24  Very Good J     VVS2     62.8    57   336  3.94  3.96  2.48
 7 0.24  Very Good I     VVS1     62.3    57   336  3.95  3.98  2.47
 8 0.26  Very Good H     SI1      61.9    55   337  4.07  4.11  2.53
 9 0.22  Fair      E     VS2      65.1    61   337  3.87  3.78  2.49
10 0.23  Very Good H     VS1      59.4    61   338  4     4.05  2.39
# … with 53,930 more rows
```

哇！这比默认的基本 R 版本要好得多。我们有一个整齐的小表，第一行是列名，下面是`<>`中的数据类型的 3 个字母代码。我们只看到前 10 行，然后有一个告诉我们有多少行未显示的注释。如果我们的屏幕有太多列，我们将在底部看到它们列出来。试试吧，将你的控制台输出设置得非常窄，然后再次执行命令：

```py
# A tibble: 53,940 x 10
   carat cut     color clarity
   <dbl> <chr>   <chr> <chr>
 1 0.23  Ideal   E     SI2
 2 0.21  Premium E     SI1
 3 0.23  Good    E     VS1
 4 0.290 Premium I     VS2
 5 0.31  Good    J     SI2
 6 0.24  Very G… J     VVS2
 7 0.24  Very G… I     VVS1
 8 0.26  Very G… H     SI1
 9 0.22  Fair    E     VS2
10 0.23  Very G… H     VS1
# … with 53,930 more rows,
#   and 6 more variables:
#   depth <dbl>, table <dbl>,
#   price <dbl>, x <dbl>,
#   y <dbl>, z <dbl>
```
…
