…
要总结多个变量，您需要等到“修改多列”部分，那里您将学习如何使用[`across()`](https://dplyr.tidyverse.org/reference/across.xhtml)。

另一个流行的[`summarize()`](https://dplyr.tidyverse.org/reference/summarise.xhtml)辅助函数是[`count()`](https://dplyr.tidyverse.org/reference/count.xhtml)的一个版本，还计算比例：

```
# https://twitter.com/Diabb6/status/1571635146658402309
count_prop <- function(df, var, sort = FALSE) {
  df |>
    count({{ var }}, sort = sort) |>
    mutate(prop = n / sum(n))
}

diamonds |> count_prop(clarity)
#> # A tibble: 8 × 3
#>   clarity     n   prop
#>   <ord>   <int>  <dbl>
#> 1 I1        741 0.0137
#> 2 SI2      9194 0.170 
#> 3 SI1     13065 0.242 
#> 4 VS2     12258 0.227 
#> 5 VS1      8171 0.151 
#> 6 VVS2     5066 0.0939
#> # … with 2 more rows
```
此函数有三个参数：`df`、`var`和`sort`。只需拥抱`var`，因为它传递给[`count()`](https://dplyr.tidyverse.org/reference/count.xhtml)，该函数对所有变量使用数据屏蔽。请注意，我们对`sort`使用默认值，因此如果用户未提供自己的值，它将默认为`FALSE`。

或者，您可能希望查找变量的排序唯一值，用于数据子集。而不是提供一个变量和一个值来进行过滤，我们允许用户提供一个条件：

```
unique_where <- function(df, condition, var) {
  df |> 
    filter({{ condition }}) |> 
    distinct({{ var }}) |> 
    arrange({{ var }})
}

# Find all the destinations in December
flights |> unique_where(month == 12, dest)
#> # A tibble: 96 × 1
#>   dest 
#>   <chr>
#> 1 ABQ 
#> 2 ALB 
#> 3 ATL 
#> 4 AUS 
#> 5 AVL 
#> 6 BDL 
#> # … with 90 more rows
```
…
这不起作用，因为[`group_by()`](https://dplyr.tidyverse.org/reference/group_by.xhtml) 使用的是数据屏蔽，而不是整洁选择。我们可以通过使用方便的[`pick()`](https://dplyr.tidyverse.org/reference/pick.xhtml) 函数来解决这个问题，该函数允许您在数据屏蔽函数内部使用整洁选择：

```
count_missing <- function(df, group_vars, x_var) {
  df |> 
    group_by(pick({{ group_vars }})) |> 
    summarize(
      n_miss = sum(is.na({{ x_var }})),
      .groups = "drop"
  )
}

flights |> 
  count_missing(c(year, month, day), dep_time)
#> # A tibble: 365 × 4
#>    year month   day n_miss
#>   <int> <int> <int>  <int>
#> 1  2013     1     1      4
#> 2  2013     1     2      8
#> 3  2013     1     3     10
#> 4  2013     1     4      6
#> 5  2013     1     5      3
#> 6  2013     1     6      1
#> # … with 359 more rows
```
…
```
# https://twitter.com/pollicipes/status/1571606508944719876
count_wide <- function(data, rows, cols) {
  data |> 
    count(pick(c({{ rows }}, {{ cols }}))) |> 
    pivot_wider(
      names_from = {{ cols }}, 
      values_from = n,
      names_sort = TRUE,
      values_fill = 0
    )
}

diamonds |> count_wide(c(clarity, color), cut)
#> # A tibble: 56 × 7
#>   clarity color  Fair  Good `Very Good` Premium Ideal
#>   <ord>   <ord> <int> <int>       <int>   <int> <int>
#> 1 I1      D         4     8           5      12    13
#> 2 I1      E         9    23          22      30    18
#> 3 I1      F        35    19          13      34    42
#> 4 I1      G        53    19          16      46    16
#> 5 I1      H        52    14          12      46    38
#> 6 I1      I        34     9           8      24    17
#> # … with 50 more rows
```
…
