…
当字符串包含你想要忽略的非数值文本时，请使用[`parse_number()`](https://readr.tidyverse.org/reference/parse_number.xhtml)。这对货币数据和百分比特别有用：

```
x <- c("$1,234", "USD 3,513", "59%")
parse_number(x)
#> [1] 1234 3513   59
```

# 计数

仅仅通过计数和一点基本算术，你可以做多少数据科学工作，所以 dplyr 致力于通过[`count()`](https://dplyr.tidyverse.org/reference/count.xhtml)尽可能地简化计数。这个函数非常适合在分析过程中进行快速探索和检查：

```
flights |> count(dest)
#> # A tibble: 105 × 2
#>   dest      n
#>   <chr> <int>
#> 1 ABQ     254
#> 2 ACK     265
#> 3 ALB     439
#> 4 ANC       8
#> 5 ATL   17215
#> 6 AUS    2439
#> # … with 99 more rows
```

（尽管在第四章中的建议中，我们通常将[`count()`](https://dplyr.tidyverse.org/reference/count.xhtml)放在单行上，因为它通常用于控制台，用于快速检查计算是否按预期工作。）

如果您想查看最常见的值，请添加`sort = TRUE`：

```
flights |> count(dest, sort = TRUE)
#> # A tibble: 105 × 2
#>   dest      n
#>   <chr> <int>
#> 1 ORD   17283
#> 2 ATL   17215
#> 3 LAX   16174
#> 4 BOS   15508
#> 5 MCO   14082
#> 6 CLT   14064
#> # … with 99 more rows
```

要记住的是，如果想查看所有的值，可以使用`|> View()`或`|> print(n = Inf)`。

您可以使用[`group_by()`](https://dplyr.tidyverse.org/reference/group_by.xhtml)、[`summarize()`](https://dplyr.tidyverse.org/reference/summarise.xhtml)和[`n()`](https://dplyr.tidyverse.org/reference/context.xhtml)手动执行相同的计算。这很有用，因为它允许您同时计算其他摘要信息：

```
flights |> 
  group_by(dest) |> 
  summarize(
    n = n(),
    delay = mean(arr_delay, na.rm = TRUE)
  )
#> # A tibble: 105 × 3
#>   dest      n delay
#>   <chr> <int> <dbl>
#> 1 ABQ     254  4.38
#> 2 ACK     265  4.85
#> 3 ALB     439 14.4 
#> 4 ANC       8 -2.5 
#> 5 ATL   17215 11.3 
#> 6 AUS    2439  6.02
#> # … with 99 more rows
```
…
[`n()`](https://dplyr.tidyverse.org/reference/context.xhtml)和[`count()`](https://dplyr.tidyverse.org/reference/count.xhtml)有几个变体可能对您有用：

+   `n_distinct(x)`计算一个或多个变量的不同（唯一）值的数量。例如，我们可以弄清楚哪些目的地由最多的航空公司服务：

    ```
    flights |> 
      group_by(dest) |> 
      summarize(carriers = n_distinct(carrier)) |> 
      arrange(desc(carriers))
    #> # A tibble: 105 × 2
    #>   dest  carriers
    #>   <chr>    <int>
    #> 1 ATL          7
    #> 2 BOS          7
    #> 3 CLT          7
    #> 4 ORD          7
    #> 5 TPA          7
    #> 6 AUS          6
    #> # … with 99 more rows
    ```

+   加权计数是一个总和。例如，您可以“计算”每架飞机飞行的英里数：

    ```
    flights |> 
      group_by(tailnum) |> 
      summarize(miles = sum(distance))
    #> # A tibble: 4,044 × 2
    #>   tailnum  miles
    #>   <chr>    <dbl>
    #> 1 D942DN    3418
    #> 2 N0EGMQ  250866
    #> 3 N10156  115966
    #> 4 N102UW   25722
    #> 5 N103US   24619
    #> 6 N104UW   25157
    #> # … with 4,038 more rows
    ```

    加权计数是一个常见的问题，因此[`count()`](https://dplyr.tidyverse.org/reference/count.xhtml)具有`wt`参数，执行相同的操作：

    ```
    flights |> count(tailnum, wt = distance)
    ```

+   通过组合[`sum()`](https://rdrr.io/r/base/sum.xhtml)和[`is.na()`](https://rdrr.io/r/base/NA.xhtml)，可以统计缺失值。在`flights`数据集中，这表示取消的航班：

    ```
    flights |> 
      group_by(dest) |> 
      summarize(n_cancelled = sum(is.na(dep_time))) 
    #> # A tibble: 105 × 2
    #>   dest  n_cancelled
    #>   <chr>       <int>
    #> 1 ABQ             0
    #> 2 ACK             0
    #> 3 ALB            20
    #> 4 ANC             0
    #> 5 ATL           317
    #> 6 AUS            21
    #> # … with 99 more rows
    ```
…
```
x * c(1, 2)
#> [1]  1  4 10 40
x * c(1, 2, 3)
#> Warning in x * c(1, 2, 3): longer object length is not a multiple of shorter
#> object length
#> [1]  1  4 30 20
```

这些循环规则也适用于逻辑比较（`==`, `<`, `<=`, `>`, `>=`, `!=`），如果你意外地使用 `==` 而不是 `%in%`，并且数据框的行数不恰当，可能会导致令人惊讶的结果。例如，看下这段代码，试图找出所有一月和二月的航班：

```
flights |> 
  filter(month == c(1, 2))
#> # A tibble: 25,977 × 19
#>    year month   day dep_time sched_dep_time dep_delay arr_time sched_arr_time
#>   <int> <int> <int>    <int>          <int>     <dbl>    <int>          <int>
#> 1  2013     1     1      517            515         2      830            819
#> 2  2013     1     1      542            540         2      923            850
#> 3  2013     1     1      554            600        -6      812            837
#> 4  2013     1     1      555            600        -5      913            854
#> 5  2013     1     1      557            600        -3      838            846
#> 6  2013     1     1      558            600        -2      849            851
#> # … with 25,971 more rows, and 11 more variables: arr_delay <dbl>,
#> #   carrier <chr>, flight <int>, tailnum <chr>, origin <chr>, dest <chr>, …
```
…
对于 `flights` 数据集来说，模运算对于解压 `sched_dep_time` 变量为 `hour` 和 `minute` 很方便：

```
flights |> 
  mutate(
    hour = sched_dep_time %/% 100,
    minute = sched_dep_time %% 100,
    .keep = "used"
  )
#> # A tibble: 336,776 × 3
#>   sched_dep_time  hour minute
#>            <int> <dbl>  <dbl>
#> 1            515     5     15
#> 2            529     5     29
#> 3            540     5     40
#> 4            545     5     45
#> 5            600     6      0
#> 6            558     5     58
#> # … with 336,770 more rows
```
…
你可以通过选择适当的 `ties.method` 参数来实现与基础 R 的 [`rank()`](https://rdrr.io/r/base/rank.xhtml) 类似的结果；你可能还希望设置 `na.last = "keep"` 来保留 `NA` 作为 `NA`。

[`row_number()`](https://dplyr.tidyverse.org/reference/row_number.xhtml) 在 dplyr 动词内部没有任何参数时也可以使用。在这种情况下，它将给出“当前”行的编号。与 `%%` 或 `%/%` 结合使用时，这对于将数据分成大小相似的组是一个有用的工具：

```
df <- tibble(id = 1:10)

df |> 
  mutate(
    row0 = row_number() - 1,
    three_groups = row0 %% 3,
    three_in_each_group = row0 %/% 3
  )
#> # A tibble: 10 × 4
#>      id  row0 three_groups three_in_each_group
#>   <int> <dbl>        <dbl>               <dbl>
#> 1     1     0            0                   0
#> 2     2     1            1                   0
#> 3     3     2            2                   0
#> 4     4     3            0                   1
#> 5     5     4            1                   1
#> 6     6     5            2                   1
#> # … with 4 more rows
```
…
你已经计算了每个事件之间的时间，并找出是否存在足够大的间隙来满足条件：

```
events <- events |> 
  mutate(
    diff = time - lag(time, default = first(time)),
    has_gap = diff >= 5
  )
events
#> # A tibble: 14 × 3
#>    time  diff has_gap
#>   <dbl> <dbl> <lgl> 
#> 1     0     0 FALSE 
#> 2     1     1 FALSE 
#> 3     2     1 FALSE 
#> 4     3     1 FALSE 
#> 5     5     2 FALSE 
#> 6    10     5 TRUE 
#> # … with 8 more rows
```

但是，如何将逻辑向量转换为可以 [`group_by()`](https://dplyr.tidyverse.org/reference/group_by.xhtml) 的内容？[`cumsum()`](https://rdrr.io/r/base/cumsum.xhtml)，来自“Cumulative and Rolling Aggregates”，在存在间隙时，即 `has_gap` 为 `TRUE` 时，将组递增一次（“Numeric Summaries of Logical Vectors”](ch12.xhtml#sec-numeric-summaries-of-logicals)）：

```
events |> mutate(
  group = cumsum(has_gap)
)
#> # A tibble: 14 × 4
#>    time  diff has_gap group
#>   <dbl> <dbl> <lgl>   <int>
#> 1     0     0 FALSE       0
#> 2     1     1 FALSE       0
#> 3     2     1 FALSE       0
#> 4     3     1 FALSE       0
#> 5     5     2 FALSE       0
#> 6    10     5 TRUE        1
#> # … with 8 more rows
```
…
```
df <- tibble(
  x = c("a", "a", "a", "b", "c", "c", "d", "e", "a", "a", "b", "b"),
  y = c(1, 2, 3, 2, 4, 1, 3, 9, 4, 8, 10, 199)
)
```

如果你想保留每个重复的`x`的第一行，可以使用[`group_by()`](https://dplyr.tidyverse.org/reference/group_by.xhtml)、[`consecutive_id()`](https://dplyr.tidyverse.org/reference/consecutive_id.xhtml)和[`slice_head()`](https://dplyr.tidyverse.org/reference/slice.xhtml)：

```
df |> 
  group_by(id = consecutive_id(x)) |> 
  slice_head(n = 1)
#> # A tibble: 7 × 3
#> # Groups:   id [7]
#>   x         y    id
#>   <chr> <dbl> <int>
#> 1 a         1     1
#> 2 b         2     2
#> 3 c         4     3
#> 4 d         3     4
#> 5 e         9     5
#> 6 a         4     6
#> # … with 1 more row
```
…
## 最小值、最大值和分位数

如果您对中心以外的位置感兴趣，会怎样？[`min()`](https://rdrr.io/r/base/Extremes.xhtml) 和 [`max()`](https://rdrr.io/r/base/Extremes.xhtml) 将为您提供最大和最小值。另一个强大的工具是 [`quantile()`](https://rdrr.io/r/stats/quantile.xhtml)，它是中位数的一般化：`quantile(x, 0.25)` 将找到大于 25%值的 `x` 值，`quantile(x, 0.5)` 等同于中位数，而 `quantile(x, 0.95)` 将找到大于 95%值的值。

对于`flights`数据，您可能希望查看延误的 95%分位数，而不是最大值，因为它会忽略 5%的最延误航班，这可能相当极端。

```
flights |>
  group_by(year, month, day) |>
  summarize(
    max = max(dep_delay, na.rm = TRUE),
    q95 = quantile(dep_delay, 0.95, na.rm = TRUE),
    .groups = "drop"
  )
#> # A tibble: 365 × 5
#>    year month   day   max   q95
#>   <int> <int> <int> <dbl> <dbl>
#> 1  2013     1     1   853  70.1
#> 2  2013     1     2   379  85 
#> 3  2013     1     3   291  68 
#> 4  2013     1     4   288  60 
#> 5  2013     1     5   327  41 
#> 6  2013     1     6   202  51 
#> # … with 359 more rows
```
…
还有一种最终的汇总类型对于数值向量很有用，但也适用于任何其他类型的值：提取特定位置的值：`first(x)`、`last(x)` 和 `nth(x, n)`。

例如，我们可以找到每天的第一个和最后一个出发时间：

```
flights |> 
  group_by(year, month, day) |> 
  summarize(
    first_dep = first(dep_time, na_rm = TRUE), 
    fifth_dep = nth(dep_time, 5, na_rm = TRUE),
    last_dep = last(dep_time, na_rm = TRUE)
  )
#> `summarise()` has grouped output by 'year', 'month'. You can override using
#> the `.groups` argument.
#> # A tibble: 365 × 6
#> # Groups:   year, month [12]
#>    year month   day first_dep fifth_dep last_dep
#>   <int> <int> <int>     <int>     <int>    <int>
#> 1  2013     1     1       517       554     2356
#> 2  2013     1     2        42       535     2354
#> 3  2013     1     3        32       520     2349
#> 4  2013     1     4        25       531     2358
#> 5  2013     1     5        14       534     2357
#> 6  2013     1     6        16       555     2355
#> # … with 359 more rows
```

（请注意，因为 dplyr 函数使用 `_` 来分隔函数和参数名称的组件，这些函数使用 `na_rm` 而不是 `na.rm`。）

如果您熟悉 ``，我们将在 [“使用 [ 选择多个元素” 中回到它，您可能会想知道是否需要这些函数。有三个理由：`default` 参数允许您在指定的位置不存在时提供默认值，`order_by` 参数允许您在本地覆盖行的顺序，`na_rm` 参数允许您删除缺失值。

在位置值提取与排名过滤互补。过滤会给您所有的变量，每个观察值分别在一行中：

```
flights |> 
  group_by(year, month, day) |> 
  mutate(r = min_rank(sched_dep_time)) |> 
  filter(r %in% c(1, max(r)))
#> # A tibble: 1,195 × 20
#> # Groups:   year, month, day [365]
#>    year month   day dep_time sched_dep_time dep_delay arr_time sched_arr_time
#>   <int> <int> <int>    <int>          <int>     <dbl>    <int>          <int>
#> 1  2013     1     1      517            515         2      830            819
#> 2  2013     1     1     2353           2359        -6      425            445
#> 3  2013     1     1     2353           2359        -6      418            442
#> 4  2013     1     1     2356           2359        -3      425            437
#> 5  2013     1     2       42           2359        43      518            442
#> 6  2013     1     2      458            500        -2      703            650
#> # … with 1,189 more rows, and 12 more variables: arr_delay <dbl>,
#> #   carrier <chr>, flight <int>, tailnum <chr>, origin <chr>, dest <chr>, …
```
…
