…
我们可以开始使用 dplyr 动词处理此数据集，使用[`collect()`](https://dplyr.tidyverse.org/reference/compute.xhtml)强制 Arrow 执行计算并返回一些数据。例如，此代码告诉我们每年的总借阅次数：

```
seattle_csv |> 
  count(CheckoutYear, wt = Checkouts) |> 
  arrange(CheckoutYear) |> 
  collect()
#> # A tibble: 18 × 2
#>   CheckoutYear       n
#>          <int>   <int>
#> 1         2005 3798685
#> 2         2006 6599318
#> 3         2007 7126627
#> 4         2008 8438486
#> 5         2009 9135167
#> 6         2010 8608966
#> # … with 12 more rows
```
…
这需要大约一分钟才能运行；正如我们马上将看到的，这是一个初始投资，通过使未来的操作更快来得到回报。

让我们看看我们刚刚产生的内容：

```
tibble(
  files = list.files(pq_path, recursive = TRUE),
  size_MB = file.size(file.path(pq_path, files)) / 1024²
)
#> # A tibble: 18 × 2
#>   files                            size_MB
#>   <chr>                              <dbl>
#> 1 CheckoutYear=2005/part-0.parquet    109.
#> 2 CheckoutYear=2006/part-0.parquet    164.
#> 3 CheckoutYear=2007/part-0.parquet    178.
#> 4 CheckoutYear=2008/part-0.parquet    195.
#> 5 CheckoutYear=2009/part-0.parquet    214.
#> 6 CheckoutYear=2010/part-0.parquet    222.
#> # … with 12 more rows
```
…
调用 [`collect()`](https://dplyr.tidyverse.org/reference/compute.xhtml) 即可获取结果：

```
query |> collect()
#> # A tibble: 58 × 3
#> # Groups:   CheckoutYear [5]
#>   CheckoutYear CheckoutMonth TotalCheckouts
#>          <int>         <int>          <int>
#> 1         2018             1         355101
#> 2         2018             2         309813
#> 3         2018             3         344487
#> 4         2018             4         330988
#> 5         2018             5         318049
#> 6         2018             6         341825
#> # … with 52 more rows
```
…
