…
这个 tibble 包含六行，每一行都包含一个未命名列表，其中每个列表包含 26 或 30 行。由于这些未命名，我们将使用 [`unnest_longer()`](https://tidyr.tidyverse.org/reference/unnest_longer.xhtml) 将每个子元素放入自己的行中：

```
repos |> 
  unnest_longer(json)
#> # A tibble: 176 × 1
#>   json 
#>   <list> 
#> 1 <named list [68]>
#> 2 <named list [68]>
#> 3 <named list [68]>
#> 4 <named list [68]>
#> 5 <named list [68]>
#> 6 <named list [68]>
#> # … with 170 more rows
```

乍一看，可能会觉得我们没有改进情况：虽然我们有了更多的行（176 行而不是 6 行），但 `json` 的每个元素仍然是一个列表。然而，有一个重要的区别：现在每个元素都是一个 *具名* 列表，所以我们可以使用 [`unnest_wider()`](https://tidyr.tidyverse.org/reference/unnest_wider.xhtml) 将每个元素放入自己的列中：

```
repos |> 
  unnest_longer(json) |> 
  unnest_wider(json) 
#> # A tibble: 176 × 68
#>         id name        full_name         owner        private html_url 
#>      <int> <chr>       <chr>             <list>       <lgl>   <chr> 
#> 1 61160198 after       gaborcsardi/after <named list> FALSE   https://github…
#> 2 40500181 argufy      gaborcsardi/argu… <named list> FALSE   https://github…
#> 3 36442442 ask         gaborcsardi/ask   <named list> FALSE   https://github…
#> 4 34924886 baseimports gaborcsardi/base… <named list> FALSE   https://github…
#> 5 61620661 citest      gaborcsardi/cite… <named list> FALSE   https://github…
#> 6 33907457 clisymbols  gaborcsardi/clis… <named list> FALSE   https://github…
#> # … with 170 more rows, and 62 more variables: description <chr>,
#> #   fork <lgl>, url <chr>, forks_url <chr>, keys_url <chr>, …
```
…
让我们挑几个看起来有趣的出来：

```
repos |> 
  unnest_longer(json) |> 
  unnest_wider(json) |> 
  select(id, full_name, owner, description)
#> # A tibble: 176 × 4
#>         id full_name               owner             description 
#>      <int> <chr>                   <list>            <chr> 
#> 1 61160198 gaborcsardi/after       <named list [17]> Run Code in the Backgro…
#> 2 40500181 gaborcsardi/argufy      <named list [17]> Declarative function ar…
#> 3 36442442 gaborcsardi/ask         <named list [17]> Friendly CLI interactio…
#> 4 34924886 gaborcsardi/baseimports <named list [17]> Do we get warnings for …
#> 5 61620661 gaborcsardi/citest      <named list [17]> Test R package and repo…
#> 6 33907457 gaborcsardi/clisymbols  <named list [17]> Unicode symbols for CLI…
#> # … with 170 more rows
```
…
啊哦，这个列表列还包含一个 `id` 列，而且在同一个数据框中我们不能有两个 `id` 列。建议使用 `names_sep` 来解决这个问题：

```
repos |> 
  unnest_longer(json) |> 
  unnest_wider(json) |> 
  select(id, full_name, owner, description) |> 
  unnest_wider(owner, names_sep = "_")
#> # A tibble: 176 × 20
#>         id full_name               owner_login owner_id owner_avatar_url 
#>      <int> <chr>                   <chr>          <int> <chr> 
#> 1 61160198 gaborcsardi/after       gaborcsardi   660288 https://avatars.gith…
#> 2 40500181 gaborcsardi/argufy      gaborcsardi   660288 https://avatars.gith…
#> 3 36442442 gaborcsardi/ask         gaborcsardi   660288 https://avatars.gith…
#> 4 34924886 gaborcsardi/baseimports gaborcsardi   660288 https://avatars.gith…
#> 5 61620661 gaborcsardi/citest      gaborcsardi   660288 https://avatars.gith…
#> 6 33907457 gaborcsardi/clisymbols  gaborcsardi   660288 https://avatars.gith…
#> # … with 170 more rows, and 15 more variables: owner_gravatar_id <chr>,
#> #   owner_url <chr>, owner_html_url <chr>, owner_followers_url <chr>, …
```

这给了另一个宽数据集，但你可以感觉到 `owner` 包含了关于“拥有”仓库的人的大量额外数据。

## 关系数据

嵌套数据有时用于表示通常分布在多个数据框之间的数据。例如，考虑 `got_chars`，其中包含关于出现在 *权力的游戏* 书籍和电视系列中的角色的数据。像 `gh_repos` 一样，它是一个列表，因此我们首先将其转换为一个 tibble 的列表列：

```
chars <- tibble(json = got_chars)
chars
#> # A tibble: 30 × 1
#>   json 
#>   <list> 
#> 1 <named list [18]>
#> 2 <named list [18]>
#> 3 <named list [18]>
#> 4 <named list [18]>
#> 5 <named list [18]>
#> 6 <named list [18]>
#> # … with 24 more rows
```

`json` 列包含命名元素，因此我们将从扩展它开始：

```
chars |> 
  unnest_wider(json)
#> # A tibble: 30 × 18
#>   url                    id name            gender culture    born 
#>   <chr>               <int> <chr>           <chr>  <chr>      <chr> 
#> 1 https://www.anapio…  1022 Theon Greyjoy   Male   "Ironborn" "In 278 AC or …
#> 2 https://www.anapio…  1052 Tyrion Lannist… Male   ""         "In 273 AC, at…
#> 3 https://www.anapio…  1074 Victarion Grey… Male   "Ironborn" "In 268 AC or …
#> 4 https://www.anapio…  1109 Will            Male   ""         "" 
#> 5 https://www.anapio…  1166 Areo Hotah      Male   "Norvoshi" "In 257 AC or …
#> 6 https://www.anapio…  1267 Chett           Male   ""         "At Hag's Mire"
#> # … with 24 more rows, and 12 more variables: died <chr>, alive <lgl>,
#> #   titles <list>, aliases <list>, father <chr>, mother <chr>, …
```

然后我们选择几列以便阅读更轻松：

```
characters <- chars |> 
  unnest_wider(json) |> 
  select(id, name, gender, culture, born, died, alive)
characters
#> # A tibble: 30 × 7
#>      id name              gender culture    born              died 
#>   <int> <chr>             <chr>  <chr>      <chr>             <chr> 
#> 1  1022 Theon Greyjoy     Male   "Ironborn" "In 278 AC or 27… "" 
#> 2  1052 Tyrion Lannister  Male   ""         "In 273 AC, at C… "" 
#> 3  1074 Victarion Greyjoy Male   "Ironborn" "In 268 AC or be… "" 
#> 4  1109 Will              Male   ""         ""                "In 297 AC, at…
#> 5  1166 Areo Hotah        Male   "Norvoshi" "In 257 AC or be… "" 
#> 6  1267 Chett             Male   ""         "At Hag's Mire"   "In 299 AC, at…
#> # … with 24 more rows, and 1 more variable: alive <lgl>
```

这个数据集还包含许多列表列：

```
chars |> 
  unnest_wider(json) |> 
  select(id, where(is.list))
#> # A tibble: 30 × 8
#>      id titles    aliases    allegiances books     povBooks tvSeries playedBy
#>   <int> <list>    <list>     <list>      <list>    <list>   <list>   <list> 
#> 1  1022 <chr [2]> <chr [4]>  <chr [1]>   <chr [3]> <chr>    <chr>    <chr> 
#> 2  1052 <chr [2]> <chr [11]> <chr [1]>   <chr [2]> <chr>    <chr>    <chr> 
#> 3  1074 <chr [2]> <chr [1]>  <chr [1]>   <chr [3]> <chr>    <chr>    <chr> 
#> 4  1109 <chr [1]> <chr [1]>  <NULL>      <chr [1]> <chr>    <chr>    <chr> 
#> 5  1166 <chr [1]> <chr [1]>  <chr [1]>   <chr [3]> <chr>    <chr>    <chr> 
#> 6  1267 <chr [1]> <chr [1]>  <NULL>      <chr [2]> <chr>    <chr>    <chr> 
#> # … with 24 more rows
```

让我们探索 `titles` 列。它是一个未命名的列表列，因此我们将其展开为行：

```
chars |> 
  unnest_wider(json) |> 
  select(id, titles) |> 
  unnest_longer(titles)
#> # A tibble: 59 × 2
#>      id titles 
#>   <int> <chr> 
#> 1  1022 Prince of Winterfell 
#> 2  1022 Lord of the Iron Islands (by law of the green lands)
#> 3  1052 Acting Hand of the King (former) 
#> 4  1052 Master of Coin (former) 
#> 5  1074 Lord Captain of the Iron Fleet 
#> 6  1074 Master of the Iron Victory 
#> # … with 53 more rows
```

你可能希望看到这些数据在自己的表中，因为可以根据需要轻松地与字符数据连接。我们来做这个，需要进行一些清理：删除包含空字符串的行，并将 `titles` 重命名为 `title`，因为现在每行只包含一个标题。

```
titles <- chars |> 
  unnest_wider(json) |> 
  select(id, titles) |> 
  unnest_longer(titles) |> 
  filter(titles != "") |> 
  rename(title = titles)
titles
#> # A tibble: 52 × 2
#>      id title 
#>   <int> <chr> 
#> 1  1022 Prince of Winterfell 
#> 2  1022 Lord of the Iron Islands (by law of the green lands)
#> 3  1052 Acting Hand of the King (former) 
#> 4  1052 Master of Coin (former) 
#> 5  1074 Lord Captain of the Iron Fleet 
#> 6  1074 Master of the Iron Victory 
#> # … with 46 more rows
```
…
这给我们了 `status` 和 `results`。我们将删除 `status` 列，因为它们都是 `OK`；在实际分析中，你还需要捕获所有 `status != "OK"` 的行，并找出问题所在。`results` 是一个未命名的列表，其中有一个或两个元素（我们很快就会看到原因），所以我们将其展开为行：

```
gmaps_cities |> 
  unnest_wider(json) |> 
  select(-status) |> 
  unnest_longer(results)
#> # A tibble: 7 × 2
#>   city       results 
#>   <chr>      <list> 
#> 1 Houston    <named list [5]>
#> 2 Washington <named list [5]>
#> 3 Washington <named list [5]>
#> 4 New York   <named list [5]>
#> 5 Chicago    <named list [5]>
#> 6 Arlington  <named list [5]>
#> # … with 1 more row
```

现在 `results` 是一个命名列表，因此我们将使用 [`unnest_wider()`](https://tidyr.tidyverse.org/reference/unnest_wider.xhtml)：

```
locations <- gmaps_cities |> 
  unnest_wider(json) |> 
  select(-status) |> 
  unnest_longer(results) |> 
  unnest_wider(results)
locations
#> # A tibble: 7 × 6
#>   city       address_compone…¹ formatted_address geometry     place_id 
#>   <chr>      <list>            <chr>             <list>       <chr> 
#> 1 Houston    <list [4]>        Houston, TX, USA  <named list> ChIJAYWNSLS4QI…
#> 2 Washington <list [2]>        Washington, USA   <named list> ChIJ-bDD5__lhV…
#> 3 Washington <list [4]>        Washington, DC, … <named list> ChIJW-T2Wt7Gt4…
#> 4 New York   <list [3]>        New York, NY, USA <named list> ChIJOwg_06VPwo…
#> 5 Chicago    <list [4]>        Chicago, IL, USA  <named list> ChIJ7cv00DwsDo…
#> 6 Arlington  <list [4]>        Arlington, TX, U… <named list> ChIJ05gI5NJiTo…
#> # … with 1 more row, 1 more variable: types <list>, and abbreviated variable
#> #   name ¹address_components
```

现在我们可以看到为什么两个城市得到了两个结果：Washington 匹配了华盛顿州和华盛顿特区，Arlington 匹配了弗吉尼亚州的阿灵顿和德克萨斯州的阿灵顿。

现在 `geometry` 列中存储的是匹配项的确切位置，我们可以从这里几个不同的地方开始。

```
locations |> 
  select(city, formatted_address, geometry) |> 
  unnest_wider(geometry)
#> # A tibble: 7 × 6
#>   city       formatted_address   bounds           location     location_type
#>   <chr>      <chr>               <list>           <list>       <chr> 
#> 1 Houston    Houston, TX, USA    <named list [2]> <named list> APPROXIMATE 
#> 2 Washington Washington, USA     <named list [2]> <named list> APPROXIMATE 
#> 3 Washington Washington, DC, USA <named list [2]> <named list> APPROXIMATE 
#> 4 New York   New York, NY, USA   <named list [2]> <named list> APPROXIMATE 
#> 5 Chicago    Chicago, IL, USA    <named list [2]> <named list> APPROXIMATE 
#> 6 Arlington  Arlington, TX, USA  <named list [2]> <named list> APPROXIMATE 
#> # … with 1 more row, and 1 more variable: viewport <list>
```

这给我们新的 `bounds`（一个矩形区域）和 `location`（一个点）。我们可以展开 `location` 看到纬度（`lat`）和经度（`lng`）：

```
locations |> 
  select(city, formatted_address, geometry) |> 
  unnest_wider(geometry) |> 
  unnest_wider(location)
#> # A tibble: 7 × 7
#>   city       formatted_address   bounds             lat    lng location_type
#>   <chr>      <chr>               <list>           <dbl>  <dbl> <chr> 
#> 1 Houston    Houston, TX, USA    <named list [2]>  29.8  -95.4 APPROXIMATE 
#> 2 Washington Washington, USA     <named list [2]>  47.8 -121\.  APPROXIMATE 
#> 3 Washington Washington, DC, USA <named list [2]>  38.9  -77.0 APPROXIMATE 
#> 4 New York   New York, NY, USA   <named list [2]>  40.7  -74.0 APPROXIMATE 
#> 5 Chicago    Chicago, IL, USA    <named list [2]>  41.9  -87.6 APPROXIMATE 
#> 6 Arlington  Arlington, TX, USA  <named list [2]>  32.7  -97.1 APPROXIMATE 
#> # … with 1 more row, and 1 more variable: viewport <list>
```

提取边界需要几个步骤：

```
locations |> 
  select(city, formatted_address, geometry) |> 
  unnest_wider(geometry) |> 
  # focus on the variables of interest
  select(!location:viewport) |>
  unnest_wider(bounds)
#> # A tibble: 7 × 4
#>   city       formatted_address   northeast        southwest 
#>   <chr>      <chr>               <list>           <list> 
#> 1 Houston    Houston, TX, USA    <named list [2]> <named list [2]>
#> 2 Washington Washington, USA     <named list [2]> <named list [2]>
#> 3 Washington Washington, DC, USA <named list [2]> <named list [2]>
#> 4 New York   New York, NY, USA   <named list [2]> <named list [2]>
#> 5 Chicago    Chicago, IL, USA    <named list [2]> <named list [2]>
#> 6 Arlington  Arlington, TX, USA  <named list [2]> <named list [2]>
#> # … with 1 more row
```

然后我们重命名 `southwest` 和 `northeast`（矩形的角），这样我们可以使用 `names_sep` 创建简短但富有表现力的名称：

```
locations |> 
  select(city, formatted_address, geometry) |> 
  unnest_wider(geometry) |> 
  select(!location:viewport) |>
  unnest_wider(bounds) |> 
  rename(ne = northeast, sw = southwest) |> 
  unnest_wider(c(ne, sw), names_sep = "_") 
#> # A tibble: 7 × 6
#>   city       formatted_address   ne_lat ne_lng sw_lat sw_lng
#>   <chr>      <chr>                <dbl>  <dbl>  <dbl>  <dbl>
#> 1 Houston    Houston, TX, USA      30.1  -95.0   29.5  -95.8
#> 2 Washington Washington, USA       49.0 -117\.    45.5 -125\. 
#> 3 Washington Washington, DC, USA   39.0  -76.9   38.8  -77.1
#> 4 New York   New York, NY, USA     40.9  -73.7   40.5  -74.3
#> 5 Chicago    Chicago, IL, USA      42.0  -87.5   41.6  -87.9
#> 6 Arlington  Arlington, TX, USA    32.8  -97.0   32.6  -97.2
#> # … with 1 more row
```
…
