…
然而，随着我们开始涵盖更多工具，就不会总是有一个完美的实际示例。因此，我们将开始使用[`c()`](https://rdrr.io/r/base/c.xhtml)创建一些虚拟数据：

```
x <- c(1, 2, 3, 5, 7, 11, 13)
x * 2
#> [1]  2  4  6 10 14 22 26
```

这样做可以更轻松地解释单个函数，但代价是更难看到它如何适用于您的数据问题。只需记住，我们对自由浮动向量进行的任何操作，您都可以通过[`mutate()`](https://dplyr.tidyverse.org/reference/mutate.xhtml)和其伙伴在数据框中对变量执行相同的操作。

```
df <- tibble(x)
df |> 
  mutate(y = x *  2)
#> # A tibble: 7 × 2
#>       x     y
#>   <dbl> <dbl>
#> 1     1     2
#> 2     2     4
#> 3     3     6
#> 4     5    10
#> 5     7    14
#> 6    11    22
#> # … with 1 more row
```

# 比较

创建逻辑向量的常见方法是通过与`<`、`<=`、`>`、`>=`、`!=`和`==`的数字比较。到目前为止，我们主要在[`filter()`](https://dplyr.tidyverse.org/reference/filter.xhtml)内部临时创建逻辑变量——它们被计算、使用，然后丢弃。例如，以下过滤器找到所有准时到达的白天出发航班：

```
flights |> 
  filter(dep_time > 600 & dep_time < 2000 & abs(arr_delay) < 20)
#> # A tibble: 172,286 × 19
#>    year month   day dep_time sched_dep_time dep_delay arr_time sched_arr_time
#>   <int> <int> <int>    <int>          <int>     <dbl>    <int>          <int>
#> 1  2013     1     1      601            600         1      844            850
#> 2  2013     1     1      602            610        -8      812            820
#> 3  2013     1     1      602            605        -3      821            805
#> 4  2013     1     1      606            610        -4      858            910
#> 5  2013     1     1      606            610        -4      837            845
#> 6  2013     1     1      607            607         0      858            915
#> # … with 172,280 more rows, and 11 more variables: arr_delay <dbl>,
#> #   carrier <chr>, flight <int>, tailnum <chr>, origin <chr>, dest <chr>, …
```

了解这是一个快捷方式是有用的，您可以使用[`mutate()`](https://dplyr.tidyverse.org/reference/mutate.xhtml)显式创建底层逻辑变量：

```
flights |> 
  mutate(
    daytime = dep_time > 600 & dep_time < 2000,
    approx_ontime = abs(arr_delay) < 20,
    .keep = "used"
  )
#> # A tibble: 336,776 × 4
#>   dep_time arr_delay daytime approx_ontime
#>      <int>     <dbl> <lgl>   <lgl> 
#> 1      517        11 FALSE   TRUE 
#> 2      533        20 FALSE   FALSE 
#> 3      542        33 FALSE   FALSE 
#> 4      544       -18 FALSE   TRUE 
#> 5      554       -25 FALSE   FALSE 
#> 6      554        12 FALSE   TRUE 
#> # … with 336,770 more rows
```
…
```
is.na(c(TRUE, NA, FALSE))
#> [1] FALSE  TRUE FALSE
is.na(c(1, NA, 3))
#> [1] FALSE  TRUE FALSE
is.na(c("a", NA, "b"))
#> [1] FALSE  TRUE FALSE
```

我们可以使用 [`is.na()`](https://rdrr.io/r/base/NA.xhtml) 找到所有具有缺失 `dep_time` 的行：

```
flights |> 
  filter(is.na(dep_time))
#> # A tibble: 8,255 × 19
#>    year month   day dep_time sched_dep_time dep_delay arr_time sched_arr_time
#>   <int> <int> <int>    <int>          <int>     <dbl>    <int>          <int>
#> 1  2013     1     1       NA           1630        NA       NA           1815
#> 2  2013     1     1       NA           1935        NA       NA           2240
#> 3  2013     1     1       NA           1500        NA       NA           1825
#> 4  2013     1     1       NA            600        NA       NA            901
#> 5  2013     1     2       NA           1540        NA       NA           1747
#> 6  2013     1     2       NA           1620        NA       NA           1746
#> # … with 8,249 more rows, and 11 more variables: arr_delay <dbl>,
#> #   carrier <chr>, flight <int>, tailnum <chr>, origin <chr>, dest <chr>, …
```

[`is.na()`](https://rdrr.io/r/base/NA.xhtml) 在 [`arrange()`](https://dplyr.tidyverse.org/reference/arrange.xhtml) 中也很有用。[`arrange()`](https://dplyr.tidyverse.org/reference/arrange.xhtml) 通常将所有缺失值放在最后，但你可以通过首先按 [`is.na()`](https://rdrr.io/r/base/NA.xhtml) 排序来覆盖此默认行为：

```
flights |> 
  filter(month == 1, day == 1) |> 
  arrange(dep_time)
#> # A tibble: 842 × 19
#>    year month   day dep_time sched_dep_time dep_delay arr_time sched_arr_time
#>   <int> <int> <int>    <int>          <int>     <dbl>    <int>          <int>
#> 1  2013     1     1      517            515         2      830            819
#> 2  2013     1     1      533            529         4      850            830
#> 3  2013     1     1      542            540         2      923            850
#> 4  2013     1     1      544            545        -1     1004           1022
#> 5  2013     1     1      554            600        -6      812            837
#> 6  2013     1     1      554            558        -4      740            728
#> # … with 836 more rows, and 11 more variables: arr_delay <dbl>,
#> #   carrier <chr>, flight <int>, tailnum <chr>, origin <chr>, dest <chr>, …

flights |> 
  filter(month == 1, day == 1) |> 
  arrange(desc(is.na(dep_time)), dep_time)
#> # A tibble: 842 × 19
#>    year month   day dep_time sched_dep_time dep_delay arr_time sched_arr_time
#>   <int> <int> <int>    <int>          <int>     <dbl>    <int>          <int>
#> 1  2013     1     1       NA           1630        NA       NA           1815
#> 2  2013     1     1       NA           1935        NA       NA           2240
#> 3  2013     1     1       NA           1500        NA       NA           1825
#> 4  2013     1     1       NA            600        NA       NA            901
#> 5  2013     1     1      517            515         2      830            819
#> 6  2013     1     1      533            529         4      850            830
#> # … with 836 more rows, and 11 more variables: arr_delay <dbl>,
#> #   carrier <chr>, flight <int>, tailnum <chr>, origin <chr>, dest <chr>, …
```
…
## 操作顺序

注意操作顺序与英语不同。考虑以下代码，找到所有在十一月或十二月出发的航班：

```
flights |> 
   filter(month == 11 | month == 12)
```

你可能会倾向于像用英语说的那样写：“找到所有在十一月或十二月出发的航班”：

```
flights |> 
   filter(month == 11 | 12)
#> # A tibble: 336,776 × 19
#>    year month   day dep_time sched_dep_time dep_delay arr_time sched_arr_time
#>   <int> <int> <int>    <int>          <int>     <dbl>    <int>          <int>
#> 1  2013     1     1      517            515         2      830            819
#> 2  2013     1     1      533            529         4      850            830
#> 3  2013     1     1      542            540         2      923            850
#> 4  2013     1     1      544            545        -1     1004           1022
#> 5  2013     1     1      554            600        -6      812            837
#> 6  2013     1     1      554            558        -4      740            728
#> # … with 336,770 more rows, and 11 more variables: arr_delay <dbl>,
#> #   carrier <chr>, flight <int>, tailnum <chr>, origin <chr>, dest <chr>, …
```

这段代码没有错误，但似乎也没有起作用。出了什么问题？在这里，R 首先评估 `month == 11` 创建一个逻辑向量，我们称之为 `nov`。它计算 `nov | 12`。当你在逻辑运算符中使用一个数字时，除了 0 外的所有内容都会转换为 `TRUE`，因此这相当于 `nov | TRUE`，这将始终为 `TRUE`，因此每一行都将被选中：

```
flights |> 
  mutate(
    nov = month == 11,
    final = nov | 12,
    .keep = "used"
  )
#> # A tibble: 336,776 × 3
#>   month nov   final
#>   <int> <lgl> <lgl>
#> 1     1 FALSE TRUE 
#> 2     1 FALSE TRUE 
#> 3     1 FALSE TRUE 
#> 4     1 FALSE TRUE 
#> 5     1 FALSE TRUE 
#> 6     1 FALSE TRUE 
#> # … with 336,770 more rows
```
…
注意 `%in%` 在处理 `NA` 时与 `==` 有不同的规则，因为 `NA %in% NA` 结果为 `TRUE`。

```
c(1, 2, NA) == NA
#> [1] NA NA NA
c(1, 2, NA) %in% NA
#> [1] FALSE FALSE  TRUE
```

这可以作为一个有用的快捷方式：

```
flights |> 
  filter(dep_time %in% c(NA, 0800))
#> # A tibble: 8,803 × 19
#>    year month   day dep_time sched_dep_time dep_delay arr_time sched_arr_time
#>   <int> <int> <int>    <int>          <int>     <dbl>    <int>          <int>
#> 1  2013     1     1      800            800         0     1022           1014
#> 2  2013     1     1      800            810       -10      949            955
#> 3  2013     1     1       NA           1630        NA       NA           1815
#> 4  2013     1     1       NA           1935        NA       NA           2240
#> 5  2013     1     1       NA           1500        NA       NA           1825
#> 6  2013     1     1       NA            600        NA       NA            901
#> # … with 8,797 more rows, and 11 more variables: arr_delay <dbl>,
#> #   carrier <chr>, flight <int>, tailnum <chr>, origin <chr>, dest <chr>, …
```
…
## 逻辑摘要

主要有两种逻辑摘要：[`any()`](https://rdrr.io/r/base/any.xhtml) 和 [`all()`](https://rdrr.io/r/base/all.xhtml)。`any(x)` 相当于 `|`；如果 `x` 中有任何 `TRUE`，则返回 `TRUE`。`all(x)` 相当于 `&`；只有当 `x` 的所有值都是 `TRUE` 时才返回 `TRUE`。与所有摘要函数一样，如果存在任何缺失值，它们会返回 `NA`，通常你可以通过 `na.rm = TRUE` 来处理缺失值。

例如，我们可以使用 [`all()`](https://rdrr.io/r/base/all.xhtml) 和 [`any()`](https://rdrr.io/r/base/any.xhtml) 来查找是否每次航班的出发都延误不超过一小时，或者是否有航班的到达延误超过五小时。通过 [`group_by()`](https://dplyr.tidyverse.org/reference/group_by.xhtml) 允许我们按天来做到这一点：

```
flights |> 
  group_by(year, month, day) |> 
  summarize(
    all_delayed = all(dep_delay <= 60, na.rm = TRUE),
    any_long_delay = any(arr_delay >= 300, na.rm = TRUE),
    .groups = "drop"
  )
#> # A tibble: 365 × 5
#>    year month   day all_delayed any_long_delay
#>   <int> <int> <int> <lgl>       <lgl> 
#> 1  2013     1     1 FALSE       TRUE 
#> 2  2013     1     2 FALSE       TRUE 
#> 3  2013     1     3 FALSE       FALSE 
#> 4  2013     1     4 FALSE       FALSE 
#> 5  2013     1     5 FALSE       TRUE 
#> 6  2013     1     6 FALSE       FALSE 
#> # … with 359 more rows
```
…
## 逻辑向量的数值摘要

当你在数值上下文中使用逻辑向量时，`TRUE` 变为 1，`FALSE` 变为 0。这使得 [`sum()`](https://rdrr.io/r/base/sum.xhtml) 和 [`mean()`](https://rdrr.io/r/base/mean.xhtml) 在逻辑向量中非常有用，因为 `sum(x)` 给出了 `TRUE` 的数量，`mean(x)` 给出了 `TRUE` 的比例（因为 [`mean()`](https://rdrr.io/r/base/mean.xhtml) 只是 [`sum()`](https://rdrr.io/r/base/sum.xhtml) 除以 [`length()`](https://rdrr.io/r/base/length.xhtml)）。

例如，这使我们可以查看在出发延误不超过一小时的航班中延误比例以及到达延误超过五小时的航班数量：

```
flights |> 
  group_by(year, month, day) |> 
  summarize(
    all_delayed = mean(dep_delay <= 60, na.rm = TRUE),
    any_long_delay = sum(arr_delay >= 300, na.rm = TRUE),
    .groups = "drop"
  )
#> # A tibble: 365 × 5
#>    year month   day all_delayed any_long_delay
#>   <int> <int> <int>       <dbl>          <int>
#> 1  2013     1     1       0.939              3
#> 2  2013     1     2       0.914              3
#> 3  2013     1     3       0.941              0
#> 4  2013     1     4       0.953              0
#> 5  2013     1     5       0.964              1
#> 6  2013     1     6       0.959              0
#> # … with 359 more rows
```
…
逻辑向量在摘要中还有一种最终用途：你可以使用逻辑向量来过滤感兴趣的子集中的单个变量。这利用了基本的 ``（子集）运算符，你可以在 [“使用 `[` 选择多个元素” 中了解更多相关内容。

假设我们想要查看实际延误的航班的平均延误时间。一种方法是首先筛选航班，然后计算平均延误：

```
flights |> 
  filter(arr_delay > 0) |> 
  group_by(year, month, day) |> 
  summarize(
    behind = mean(arr_delay),
    n = n(),
    .groups = "drop"
  )
#> # A tibble: 365 × 5
#>    year month   day behind     n
#>   <int> <int> <int>  <dbl> <int>
#> 1  2013     1     1   32.5   461
#> 2  2013     1     2   32.0   535
#> 3  2013     1     3   27.7   460
#> 4  2013     1     4   28.3   297
#> 5  2013     1     5   22.6   238
#> 6  2013     1     6   24.4   381
#> # … with 359 more rows
```

这有效，但如果我们想要计算提前到达的航班的平均延误呢？我们需要执行一个单独的过滤步骤，然后找出如何将两个数据框合并在一起。³ 相反，您可以使用`[`来执行内联过滤：`arr_delay[arr_delay > 0]`将仅产生正到达延误。

这导致：

```
flights |> 
  group_by(year, month, day) |> 
  summarize(
    behind = mean(arr_delay[arr_delay > 0], na.rm = TRUE),
    ahead = mean(arr_delay[arr_delay < 0], na.rm = TRUE),
    n = n(),
    .groups = "drop"
  )
#> # A tibble: 365 × 6
#>    year month   day behind ahead     n
#>   <int> <int> <int>  <dbl> <dbl> <int>
#> 1  2013     1     1   32.5 -12.5   842
#> 2  2013     1     2   32.0 -14.3   943
#> 3  2013     1     3   27.7 -18.2   914
#> 4  2013     1     4   28.3 -17.0   915
#> 5  2013     1     5   22.6 -14.0   720
#> 6  2013     1     6   24.4 -13.6   832
#> # … with 359 more rows
```
…
```
flights |> 
  mutate(
    status = case_when(
      is.na(arr_delay)      ~ "cancelled",
      arr_delay < -30       ~ "very early",
      arr_delay < -15       ~ "early",
      abs(arr_delay) <= 15  ~ "on time",
      arr_delay < 60        ~ "late",
      arr_delay < Inf       ~ "very late",
    ),
    .keep = "used"
  )
#> # A tibble: 336,776 × 2
#>   arr_delay status 
#>       <dbl> <chr> 
#> 1        11 on time
#> 2        20 late 
#> 3        33 late 
#> 4       -18 early 
#> 5       -25 early 
#> 6        12 on time
#> # … with 336,770 more rows
```
…
