…
```
table1
#> # A tibble: 6 × 4
#>   country      year  cases population
#>   <chr>       <dbl>  <dbl>      <dbl>
#> 1 Afghanistan  1999    745   19987071
#> 2 Afghanistan  2000   2666   20595360
#> 3 Brazil       1999  37737  172006362
#> 4 Brazil       2000  80488  174504898
#> 5 China        1999 212258 1272915272
#> 6 China        2000 213766 1280428583

table2
#> # A tibble: 12 × 4
#>   country      year type           count
#>   <chr>       <dbl> <chr>          <dbl>
#> 1 Afghanistan  1999 cases            745
#> 2 Afghanistan  1999 population  19987071
#> 3 Afghanistan  2000 cases           2666
#> 4 Afghanistan  2000 population  20595360
#> 5 Brazil       1999 cases          37737
#> 6 Brazil       1999 population 172006362
#> # … with 6 more rows
…
1.  -   数据通常是为了促进除了分析以外的某个目标而组织的。例如，数据常常被结构化为便于数据输入，而不是分析。

1.  -   大多数人对整洁数据的原则不熟悉，而且除非你花费大量时间处理数据，否则很难自己推导出它们。

-   这意味着大多数真实分析都需要至少进行一点整理。你将首先确定基础变量和观察对象是什么。有时这很容易；其他时候你可能需要咨询最初生成数据的人。接下来，你将把数据*展开*成整洁形式，变量在列中，观察值在行中。

tidyr 提供了两个用于数据转置的函数：[`pivot_longer()`](https://tidyr.tidyverse.org/reference/pivot_longer.xhtml)和[`pivot_wider()`](https://tidyr.tidyverse.org/reference/pivot_wider.xhtml)。我们将首先从[`pivot_longer()`](https://tidyr.tidyverse.org/reference/pivot_longer.xhtml)开始，因为这是最常见的情况。让我们深入一些示例。

## 列名中的数据

`billboard`数据集记录了 2000 年歌曲的 Billboard 排名：

```
billboard
#> # A tibble: 317 × 79
#>   artist       track               date.entered   wk1   wk2   wk3   wk4   wk5
#>   <chr>        <chr>               <date>       <dbl> <dbl> <dbl> <dbl> <dbl>
#> 1 2 Pac        Baby Don't Cry (Ke… 2000-02-26      87    82    72    77    87
#> 2 2Ge+her      The Hardest Part O… 2000-09-02      91    87    92    NA    NA
#> 3 3 Doors Down Kryptonite          2000-04-08      81    70    68    67    66
#> 4 3 Doors Down Loser               2000-10-21      76    76    72    69    67
#> 5 504 Boyz     Wobble Wobble       2000-04-15      57    34    25    17    17
#> 6 98⁰         Give Me Just One N… 2000-08-19      51    39    34    26    26
#> # … with 311 more rows, and 71 more variables: wk6 <dbl>, wk7 <dbl>,
#> #   wk8 <dbl>, wk9 <dbl>, wk10 <dbl>, wk11 <dbl>, wk12 <dbl>, wk13 <dbl>, …
```

在这个数据集中，每个观察结果是一首歌曲。前三列（`artist`、`track`和`date.entered`）是描述歌曲的变量。然后我们有 76 列（`wk1`-`wk76`），描述了歌曲每周的排名。¹在这里，列名是一个变量（`week`），单元格值是另一个变量（`rank`）。

为了整理这些数据，我们将使用[`pivot_longer()`](https://tidyr.tidyverse.org/reference/pivot_longer.xhtml)：

```
billboard |> 
  pivot_longer(
    cols = starts_with("wk"), 
    names_to = "week", 
    values_to = "rank"
  )
#> # A tibble: 24,092 × 5
#>    artist track                   date.entered week   rank
#>    <chr>  <chr>                   <date>       <chr> <dbl>
#>  1 2 Pac  Baby Don't Cry (Keep... 2000-02-26   wk1      87
#>  2 2 Pac  Baby Don't Cry (Keep... 2000-02-26   wk2      82
#>  3 2 Pac  Baby Don't Cry (Keep... 2000-02-26   wk3      72
#>  4 2 Pac  Baby Don't Cry (Keep... 2000-02-26   wk4      77
#>  5 2 Pac  Baby Don't Cry (Keep... 2000-02-26   wk5      87
#>  6 2 Pac  Baby Don't Cry (Keep... 2000-02-26   wk6      94
#>  7 2 Pac  Baby Don't Cry (Keep... 2000-02-26   wk7      99
#>  8 2 Pac  Baby Don't Cry (Keep... 2000-02-26   wk8      NA
#>  9 2 Pac  Baby Don't Cry (Keep... 2000-02-26   wk9      NA
#> 10 2 Pac  Baby Don't Cry (Keep... 2000-02-26   wk10     NA
#> # … with 24,082 more rows
```
…
指定储存在单元格值中的变量名称；我们将该变量命名为`rank`。

请注意，在代码中`"week"`和`"rank"`被引号引用，因为这些是我们正在创建的新变量；在我们运行[`pivot_longer()`](https://tidyr.tidyverse.org/reference/pivot_longer.xhtml)调用时，它们在数据中尚不存在。

现在让我们转向生成的长数据框。如果一首歌在前 100 名不到 76 周会发生什么？以 2 Pac 的“Baby Don’t Cry”为例。先前的输出表明它只在前 100 名中停留了 7 周，其余的周数都填充了缺失值。这些`NA`实际上并不代表未知的观察结果；它们是由数据集结构强制存在的，²因此我们可以要求[`pivot_longer()`](https://tidyr.tidyverse.org/reference/pivot_longer.xhtml)通过设置`values_drop_na = TRUE`来去除它们：

```
billboard |> 
  pivot_longer(
    cols = starts_with("wk"), 
    names_to = "week", 
    values_to = "rank",
    values_drop_na = TRUE
  )
#> # A tibble: 5,307 × 5
#>   artist track                   date.entered week   rank
#>   <chr>  <chr>                   <date>       <chr> <dbl>
#> 1 2 Pac  Baby Don't Cry (Keep... 2000-02-26   wk1      87
#> 2 2 Pac  Baby Don't Cry (Keep... 2000-02-26   wk2      82
#> 3 2 Pac  Baby Don't Cry (Keep... 2000-02-26   wk3      72
#> 4 2 Pac  Baby Don't Cry (Keep... 2000-02-26   wk4      77
#> 5 2 Pac  Baby Don't Cry (Keep... 2000-02-26   wk5      87
#> 6 2 Pac  Baby Don't Cry (Keep... 2000-02-26   wk6      94
#> # … with 5,301 more rows
```
…
这些数据现在已经整洁了，但通过使用[`mutate()`](https://dplyr.tidyverse.org/reference/mutate.xhtml)和[`readr::parse_number()`](https://readr.tidyverse.org/reference/parse_number.xhtml)，将`week`的值从字符转换为数字，可以使未来的计算更加容易。[`parse_number()`](https://readr.tidyverse.org/reference/parse_number.xhtml)是一个方便的函数，可以从字符串中提取第一个数字，忽略所有其他文本。

```
billboard_longer <- billboard |> 
  pivot_longer(
    cols = starts_with("wk"), 
    names_to = "week", 
    values_to = "rank",
    values_drop_na = TRUE
  ) |> 
  mutate(
    week = parse_number(week)
  )
billboard_longer
#> # A tibble: 5,307 × 5
#>   artist track                   date.entered  week  rank
#>   <chr>  <chr>                   <date>       <dbl> <dbl>
#> 1 2 Pac  Baby Don't Cry (Keep... 2000-02-26       1    87
#> 2 2 Pac  Baby Don't Cry (Keep... 2000-02-26       2    82
#> 3 2 Pac  Baby Don't Cry (Keep... 2000-02-26       3    72
#> 4 2 Pac  Baby Don't Cry (Keep... 2000-02-26       4    77
#> 5 2 Pac  Baby Don't Cry (Keep... 2000-02-26       5    87
#> 6 2 Pac  Baby Don't Cry (Keep... 2000-02-26       6    94
#> # … with 5,301 more rows
```
…
###### 图 5-5\. 值的数量被保留（不重复），但按行展开。

## 列名中的多个变量

当列名中有多个信息塞入，并且希望将它们存储在单独的新变量中时，情况就变得更具挑战性。例如，看看`who2`数据集，`table1`的来源，以及之前看到的朋友们：

```
who2
#> # A tibble: 7,240 × 58
#>   country      year sp_m_014 sp_m_1524 sp_m_2534 sp_m_3544 sp_m_4554
#>   <chr>       <dbl>    <dbl>     <dbl>     <dbl>     <dbl>     <dbl>
#> 1 Afghanistan  1980       NA        NA        NA        NA        NA
#> 2 Afghanistan  1981       NA        NA        NA        NA        NA
#> 3 Afghanistan  1982       NA        NA        NA        NA        NA
#> 4 Afghanistan  1983       NA        NA        NA        NA        NA
#> 5 Afghanistan  1984       NA        NA        NA        NA        NA
#> 6 Afghanistan  1985       NA        NA        NA        NA        NA
#> # … with 7,234 more rows, and 51 more variables: sp_m_5564 <dbl>,
#> #   sp_m_65 <dbl>, sp_f_014 <dbl>, sp_f_1524 <dbl>, sp_f_2534 <dbl>, …
```

这个由世界卫生组织收集的数据集记录了关于结核病诊断的信息。有两列已经是变量并且容易解释：`country`和`year`。接下来是 56 列，如`sp_m_014`，`ep_m_4554`和`rel_m_3544`。如果你仔细看这些列足够长时间，你会注意到有一个模式。每个列名由三个由`_`分隔的部分组成。第一部分，`sp`/`rel`/`ep`，描述了诊断方法；第二部分，`m`/`f`，是性别（在这个数据集中编码为二进制变量）；第三部分，`014`/`1524`/`2534`/`3544`/`4554`/`65`，是年龄范围（例如`014`代表 0-14 岁）。

因此，在这种情况下，我们在`who2`中记录了六个信息片段：国家和年份（已经是列）；诊断方法、性别类别和年龄范围类别（包含在其他列名中）；以及该类别中的患者计数（单元格值）。为了将这六个信息片段组织成六个单独的列，我们使用[`pivot_longer()`](https://tidyr.tidyverse.org/reference/pivot_longer.xhtml)，其中包含`names_to`的列名向量和用于将原始变量名拆分为`names_sep`片段的指示符的列名：

```
who2 |> 
  pivot_longer(
    cols = !(country:year),
    names_to = c("diagnosis", "gender", "age"), 
    names_sep = "_",
    values_to = "count"
  )
#> # A tibble: 405,440 × 6
#>   country      year diagnosis gender age   count
#>   <chr>       <dbl> <chr>     <chr>  <chr> <dbl>
#> 1 Afghanistan  1980 sp        m      014      NA
#> 2 Afghanistan  1980 sp        m      1524     NA
#> 3 Afghanistan  1980 sp        m      2534     NA
#> 4 Afghanistan  1980 sp        m      3544     NA
#> 5 Afghanistan  1980 sp        m      4554     NA
#> 6 Afghanistan  1980 sp        m      5564     NA
#> # … with 405,434 more rows
```
…
这个数据集包含了五个家庭的数据，包括最多两个孩子的姓名和出生日期。这个数据集的新挑战在于列名包含两个变量的名称（`dob`，`name`），以及另一个变量（`child`，取值为 1 或 2）的值。为了解决这个问题，我们再次需要向`names_to`提供一个向量，但这次我们使用特殊的`".value"`标记；这不是一个变量名，而是告诉[`pivot_longer()`](https://tidyr.tidyverse.org/reference/pivot_longer.xhtml)要做一些不同的事情。这会覆盖通常的`values_to`参数，以使用旋转后的列名的第一个组件作为输出中的变量名。

```
household |> 
  pivot_longer(
    cols = !family, 
    names_to = c(".value", "child"), 
    names_sep = "_", 
    values_drop_na = TRUE
  )
#> # A tibble: 9 × 4
#>   family child  dob        name 
#>    <int> <chr>  <date>     <chr>
#> 1      1 child1 1998-11-26 Susan
#> 2      1 child2 2000-01-29 Jose 
#> 3      2 child1 1996-06-22 Mark 
#> 4      3 child1 2002-07-11 Sam 
#> 5      3 child2 2004-04-05 Seth 
#> 6      4 child1 2004-10-10 Craig
#> # … with 3 more rows
```
…
###### 图 5-7\. 使用`names_to = c(".value", "num")`进行轴向变换将列名分为两个部分：第一部分确定输出列名（`x`或`y`），第二部分确定`num`列的值。

# 数据扩展

到目前为止，我们已经使用[`pivot_longer()`](https://tidyr.tidyverse.org/reference/pivot_longer.xhtml)解决了常见的问题类别，即值最终出现在列名中。接下来我们将（哈哈）转向[`pivot_wider()`](https://tidyr.tidyverse.org/reference/pivot_wider.xhtml)，这将通过增加列和减少行使数据集变得更*宽*，在处理一个观察跨越多行时非常有用。在野外似乎较少见，但在处理政府数据时确实经常遇到。

我们将从 Centers for Medicare and Medicaid Services 的`cms_patient_experience`数据集开始，该数据集收集有关患者体验的数据：

```
cms_patient_experience
#> # A tibble: 500 × 5
#>   org_pac_id org_nm                     measure_cd   measure_title   prf_rate
#>   <chr>      <chr>                      <chr>        <chr>              <dbl>
#> 1 0446157747 USC CARE MEDICAL GROUP INC CAHPS_GRP_1  CAHPS for MIPS…       63
#> 2 0446157747 USC CARE MEDICAL GROUP INC CAHPS_GRP_2  CAHPS for MIPS…       87
#> 3 0446157747 USC CARE MEDICAL GROUP INC CAHPS_GRP_3  CAHPS for MIPS…       86
#> 4 0446157747 USC CARE MEDICAL GROUP INC CAHPS_GRP_5  CAHPS for MIPS…       57
#> 5 0446157747 USC CARE MEDICAL GROUP INC CAHPS_GRP_8  CAHPS for MIPS…       85
#> 6 0446157747 USC CARE MEDICAL GROUP INC CAHPS_GRP_12 CAHPS for MIPS…       24
#> # … with 494 more rows
```
…
这两列都不会成为特别好的变量名称：`measure_cd`不提示变量的含义，而`measure_title`是一个包含空格的长句子。我们暂时将使用`measure_cd`作为新列名的来源，但在实际分析中，您可能希望创建既简短又有意义的自定义变量名称。

[`pivot_wider()`](https://tidyr.tidyverse.org/reference/pivot_wider.xhtml)与[`pivot_longer()`](https://tidyr.tidyverse.org/reference/pivot_longer.xhtml)接口相反：我们需要提供定义数值（`values_from`）和列名（`names_from`）的现有列，而不是选择新的列名。

```
cms_patient_experience |> 
  pivot_wider(
    names_from = measure_cd,
    values_from = prf_rate
  )
#> # A tibble: 500 × 9
#>   org_pac_id org_nm                   measure_title   CAHPS_GRP_1 CAHPS_GRP_2
#>   <chr>      <chr>                    <chr>                 <dbl>       <dbl>
#> 1 0446157747 USC CARE MEDICAL GROUP … CAHPS for MIPS…          63          NA
#> 2 0446157747 USC CARE MEDICAL GROUP … CAHPS for MIPS…          NA          87
#> 3 0446157747 USC CARE MEDICAL GROUP … CAHPS for MIPS…          NA          NA
#> 4 0446157747 USC CARE MEDICAL GROUP … CAHPS for MIPS…          NA          NA
#> 5 0446157747 USC CARE MEDICAL GROUP … CAHPS for MIPS…          NA          NA
#> 6 0446157747 USC CARE MEDICAL GROUP … CAHPS for MIPS…          NA          NA
#> # … with 494 more rows, and 4 more variables: CAHPS_GRP_3 <dbl>,
#> #   CAHPS_GRP_5 <dbl>, CAHPS_GRP_8 <dbl>, CAHPS_GRP_12 <dbl>
```

输出看起来不太对；我们似乎仍然对每个组织有多行。这是因为我们还需要告诉[`pivot_wider()`](https://tidyr.tidyverse.org/reference/pivot_wider.xhtml)，哪些列包含唯一标识每行的值；在这种情况下，这些变量以`"org"`开头：

```
cms_patient_experience |> 
  pivot_wider(
    id_cols = starts_with("org"),
    names_from = measure_cd,
    values_from = prf_rate
  )
#> # A tibble: 95 × 8
#>   org_pac_id org_nm           CAHPS_GRP_1 CAHPS_GRP_2 CAHPS_GRP_3 CAHPS_GRP_5
#>   <chr>      <chr>                  <dbl>       <dbl>       <dbl>       <dbl>
#> 1 0446157747 USC CARE MEDICA…          63          87          86          57
#> 2 0446162697 ASSOCIATION OF …          59          85          83          63
#> 3 0547164295 BEAVER MEDICAL …          49          NA          75          44
#> 4 0749333730 CAPE PHYSICIANS…          67          84          85          65
#> 5 0840104360 ALLIANCE PHYSIC…          66          87          87          64
#> 6 0840109864 REX HOSPITAL INC          73          87          84          67
#> # … with 89 more rows, and 2 more variables: CAHPS_GRP_8 <dbl>,
#> #   CAHPS_GRP_12 <dbl>
```
…
