…
本章专注于 ggplot2。要访问本章中使用的数据集、帮助页面和函数，请通过运行以下代码加载 tidyverse：

```
library(tidyverse)
```

# 美学映射

> “一幅图片最大的价值在于它迫使我们注意到我们从未预料到的东西。” —约翰·图基

请记住，ggplot2 包中捆绑的 `mpg` 数据框包含了 38 个汽车型号的 234 个观测值。

```
mpg
#> # A tibble: 234 × 11
#>   manufacturer model displ  year   cyl trans      drv     cty   hwy fl 
#>   <chr>        <chr> <dbl> <int> <int> <chr>      <chr> <int> <int> <chr>
#> 1 audi         a4      1.8  1999     4 auto(l5)   f        18    29 p 
#> 2 audi         a4      1.8  1999     4 manual(m5) f        21    29 p 
#> 3 audi         a4      2    2008     4 manual(m6) f        20    31 p 
#> 4 audi         a4      2    2008     4 auto(av)   f        21    30 p 
#> 5 audi         a4      2.8  1999     6 auto(l5)   f        16    26 p 
#> 6 audi         a4      2.8  1999     6 manual(m5) f        18    26 p 
#> # … with 228 more rows, and 1 more variable: class <chr>
```
…
