…
图中每个圆圈的大小显示了每个值组合的观察次数。协变量将显示为特定 x 值和特定 y 值之间的强相关性。

另一种探索这些变量之间关系的方法是使用 dplyr 计算计数：

```
diamonds |> 
  count(color, cut)
#> # A tibble: 35 × 3
#>   color cut           n
#>   <ord> <ord>     <int>
#> 1 D     Fair        163
#> 2 D     Good        662
#> 3 D     Very Good  1513
#> 4 D     Premium    1603
#> 5 D     Ideal      2834
#> 6 E     Fair        224
#> # … with 29 more rows
```
…
