…
[`str_detect()`](https://stringr.tidyverse.org/reference/str_detect.xhtml)返回一个逻辑向量，如果模式与字符向量的元素匹配，则为`TRUE`，否则为`FALSE`：

```
str_detect(c("a", "b", "c"), "[aeiou]")
#> [1]  TRUE FALSE FALSE
```

由于[`str_detect()`](https://stringr.tidyverse.org/reference/str_detect.xhtml)返回与初始向量相同长度的逻辑向量，因此它与[`filter()`](https://dplyr.tidyverse.org/reference/filter.xhtml)配合使用效果很好。例如，这段代码找出所有包含小写字母“x”的最流行的名字：

```
babynames |> 
  filter(str_detect(name, "x")) |> 
  count(name, wt = n, sort = TRUE)
#> # A tibble: 974 × 2
#>   name           n
#>   <chr>      <int>
#> 1 Alexander 665492
#> 2 Alexis    399551
#> 3 Alex      278705
#> 4 Alexandra 232223
#> 5 Max       148787
#> 6 Alexa     123032
#> # … with 968 more rows
```
…
自然而然地使用[`str_count()`](https://stringr.tidyverse.org/reference/str_count.xhtml)和[`mutate()`](https://dplyr.tidyverse.org/reference/mutate.xhtml)。以下示例使用[`str_count()`](https://stringr.tidyverse.org/reference/str_count.xhtml)和字符类来计算每个名称中元音和辅音的数量：

```
babynames |> 
  count(name) |> 
  mutate(
    vowels = str_count(name, "[aeiou]"),
    consonants = str_count(name, "[^aeiou]")
  )
#> # A tibble: 97,310 × 4
#>   name          n vowels consonants
#>   <chr>     <int>  <int>      <int>
#> 1 Aaban        10      2          3
#> 2 Aabha         5      2          3
#> 3 Aabid         2      2          3
#> 4 Aabir         1      2          3
#> 5 Aabriella     5      4          5
#> 6 Aada          1      2          2
#> # … with 97,304 more rows
```
…
+   使用[`str_to_lower()`](https://stringr.tidyverse.org/reference/case.xhtml)将名称转换为小写：`str_count(str_to_lower(name), "[aeiou]")`。

处理字符串时，常见的方法有多种——通常可以通过使模式更复杂或对字符串进行预处理来达到目标。如果尝试一种方法时遇到困难，通常切换角度从不同的视角解决问题会更有用。

因为我们对名称应用了两个函数，我认为先将其转换会更容易：

```
babynames |> 
  count(name) |> 
  mutate(
    name = str_to_lower(name),
    vowels = str_count(name, "[aeiou]"),
    consonants = str_count(name, "[^aeiou]")
  )
#> # A tibble: 97,310 × 4
#>   name          n vowels consonants
#>   <chr>     <int>  <int>      <int>
#> 1 aaban        10      3          2
#> 2 aabha         5      3          2
#> 3 aabid         2      3          2
#> 4 aabir         1      3          2
#> 5 aabriella     5      5          4
#> 6 aada          1      3          1
#> # … with 97,304 more rows
```
…
要使用[`separate_wider_regex()`](https://tidyr.tidyverse.org/reference/separate_wider_delim.xhtml)提取这些数据，我们只需构造一系列正则表达式，匹配每个片段。如果我们希望输出中出现该片段的内容，我们给它一个名称：

```
df |> 
  separate_wider_regex(
    str,
    patterns = c(
      "<", 
      name = "[A-Za-z]+", 
      ">-", 
      gender = ".", "_", 
      age = "[0-9]+"
    )
  )
#> # A tibble: 7 × 3
#>   name    gender age 
#>   <chr>   <chr>  <chr>
#> 1 Sheryl  F      34 
#> 2 Kisha   F      45 
#> 3 Brandon N      33 
#> 4 Sharon  F      38 
#> 5 Penny   F      58 
#> 6 Justin  M      41 
#> # … with 1 more row
```
…
您可以转换为一个 tibble 并命名列：

```
sentences |> 
  str_match("the (\\w+) (\\w+)") |> 
  as_tibble(.name_repair = "minimal") |> 
  set_names("match", "word1", "word2")
#> # A tibble: 720 × 3
#>   match             word1  word2 
#>   <chr>             <chr>  <chr> 
#> 1 the smooth planks smooth planks
#> 2 the sheet to      sheet  to 
#> 3 the depth of      depth  of 
#> 4 <NA>              <NA>   <NA> 
#> 5 <NA>              <NA>   <NA> 
#> 6 <NA>              <NA>   <NA> 
#> # … with 714 more rows
```
…
