…
如果你在一个真实的项目中使用 duckdb，我们强烈推荐学习 `duckdb_read_csv()` 和 `duckdb_register_arrow()`。它们为你提供了强大和高效的方式，直接将数据快速加载到 duckdb 中，而无需先加载到 R 中。我们还将展示一种有用的技术，用于将多个文件写入数据库，详见 “Writing to a Database”。

## DBI 基础

你可以通过使用几个其他的 DBI 函数来检查数据是否加载正确：`dbListTable()` 列出数据库中的所有表，³ 和 [`dbReadTable()`](https://dbi.r-dbi.org/reference/dbReadTable.xhtml) 检索表的内容。

```
dbListTables(con)
#> [1] "diamonds" "mpg"

con |> 
  dbReadTable("diamonds") |> 
  as_tibble()
#> # A tibble: 53,940 × 10
#>   carat cut       color clarity depth table price     x     y     z
#>   <dbl> <fct>     <fct> <fct>   <dbl> <dbl> <int> <dbl> <dbl> <dbl>
#> 1  0.23 Ideal     E     SI2      61.5    55   326  3.95  3.98  2.43
#> 2  0.21 Premium   E     SI1      59.8    61   326  3.89  3.84  2.31
#> 3  0.23 Good      E     VS1      56.9    65   327  4.05  4.07  2.31
#> 4  0.29 Premium   I     VS2      62.4    58   334  4.2   4.23  2.63
#> 5  0.31 Good      J     SI2      63.3    58   335  4.34  4.35  2.75
#> 6  0.24 Very Good J     VVS2     62.8    57   336  3.94  3.96  2.48
#> # … with 53,934 more rows
```

[`dbReadTable()`](https://dbi.r-dbi.org/reference/dbReadTable.xhtml) 返回一个 `data.frame`，所以我们使用 [`as_tibble()`](https://tibble.tidyverse.org/reference/as_tibble.xhtml) 将其转换为 tibble，以便它可以漂亮地打印出来。

如果你已经了解 SQL，你可以使用 [`dbGetQuery()`](https://dbi.r-dbi.org/reference/dbGetQuery.xhtml) 来获取在数据库上运行查询的结果：

```
sql <- "
 SELECT carat, cut, clarity, color, price 
 FROM diamonds 
 WHERE price > 15000
"
as_tibble(dbGetQuery(con, sql))
#> # A tibble: 1,655 × 5
#>   carat cut       clarity color price
#>   <dbl> <fct>     <fct>   <fct> <int>
#> 1  1.54 Premium   VS2     E     15002
#> 2  1.19 Ideal     VVS1    F     15005
#> 3  2.1  Premium   SI1     I     15007
#> 4  1.69 Ideal     SI1     D     15011
#> 5  1.5  Very Good VVS2    G     15013
#> 6  1.73 Very Good VS1     G     15014
#> # … with 1,649 more rows
```
…
要将所有数据带回 R，您可以调用[`collect()`](https://dplyr.tidyverse.org/reference/compute.xhtml)。在幕后，这会生成 SQL 代码，调用 [`dbGetQuery()`](https://dbi.r-dbi.org/reference/dbGetQuery.xhtml) 获取数据，然后将结果转换为 tibble：

```
big_diamonds <- big_diamonds_db |> 
  collect()
big_diamonds
#> # A tibble: 1,655 × 5
#>   carat cut       color clarity price
#>   <dbl> <fct>     <fct> <fct>   <int>
#> 1  1.54 Premium   E     VS2     15002
#> 2  1.19 Ideal     F     VVS1    15005
#> 3  2.1  Premium   I     SI1     15007
#> 4  1.69 Ideal     D     SI1     15011
#> 5  1.5  Very Good G     VVS2    15013
#> 6  1.73 Very Good G     VS1     15014
#> # … with 1,649 more rows
```
…
