…
我们花了多个步骤和反复试验才成功以期望的格式加载数据，这并不奇怪。数据科学是一个迭代过程，与从其他纯文本、矩形数据文件中读取数据相比，从电子表格中读取数据的迭代过程可能更加繁琐，因为人们倾向于将数据输入到电子表格中，并使用它们不仅仅作为数据存储，还用于分享和交流。

在加载和查看数据之前，没有办法确切地知道数据的样子。嗯，其实还有一种方式。你可以在 Excel 中打开文件并窥视一下。如果你要这样做，我们建议在打开和浏览交互式地进行的同时，制作 Excel 文件的副本，以便保持原始数据文件的不变，并从未更改的文件中读入 R。这样做可以确保你在检查时不会意外地覆盖任何电子表格中的内容。你也不必害怕像我们在这里所做的那样：加载数据，查看一下，对代码进行调整，再次加载，如此反复，直到你满意为止。

## 读取工作表

电子表格与平面文件的一个重要特征是多工作表的概念，称为*工作表*。 图 20-2 显示了一个包含多个工作表的 Excel 电子表格。数据来自 palmerpenguins 包。每个工作表包含从不同岛屿收集到的企鹅信息。

您可以通过 [`read_excel()`](https://readxl.tidyverse.org/reference/read_excel.xhtml) 中的 `sheet` 参数读取电子表格中的单个工作表。直到现在，我们一直依赖的是默认的第一个工作表。

```
read_excel("data/penguins.xlsx", sheet = "Torgersen Island")
#> # A tibble: 52 × 8
#>   species island    bill_length_mm     bill_depth_mm      flipper_length_mm
#>   <chr>   <chr>     <chr>              <chr>              <chr> 
#> 1 Adelie  Torgersen 39.1               18.7               181 
#> 2 Adelie  Torgersen 39.5               17.399999999999999 186 
#> 3 Adelie  Torgersen 40.299999999999997 18                 195 
#> 4 Adelie  Torgersen NA                 NA                 NA 
#> 5 Adelie  Torgersen 36.700000000000003 19.3               193 
#> 6 Adelie  Torgersen 39.299999999999997 20.6               190 
#> # … with 46 more rows, and 3 more variables: body_mass_g <chr>, sex <chr>,
#> #   year <dbl>
```
…
###### 图 20-2\. Excel 中名为 `penguins.xlsx` 的电子表格包含三个工作表。

由于字符字符串 `"NA"` 不被识别为真正的 `NA`，一些看起来包含数值数据的变量被读取为字符。

```
penguins_torgersen <- read_excel(
  "data/penguins.xlsx", sheet = "Torgersen Island", na = "NA"
)

penguins_torgersen
#> # A tibble: 52 × 8
#>   species island    bill_length_mm bill_depth_mm flipper_length_mm
#>   <chr>   <chr>              <dbl>         <dbl>             <dbl>
#> 1 Adelie  Torgersen           39.1          18.7               181
#> 2 Adelie  Torgersen           39.5          17.4               186
#> 3 Adelie  Torgersen           40.3          18                 195
#> 4 Adelie  Torgersen           NA            NA                  NA
#> 5 Adelie  Torgersen           36.7          19.3               193
#> 6 Adelie  Torgersen           39.3          20.6               190
#> # … with 46 more rows, and 3 more variables: body_mass_g <dbl>, sex <chr>,
#> #   year <dbl>
```
…
```
dim(penguins_torgersen)
#> [1] 52  8
dim(penguins_biscoe)
#> [1] 168   8
dim(penguins_dream)
#> [1] 124   8
```

我们可以使用 [`bind_rows()`](https://dplyr.tidyverse.org/reference/bind_rows.xhtml) 将它们合并在一起：

```
penguins <- bind_rows(penguins_torgersen, penguins_biscoe, penguins_dream)
penguins
#> # A tibble: 344 × 8
#>   species island    bill_length_mm bill_depth_mm flipper_length_mm
#>   <chr>   <chr>              <dbl>         <dbl>             <dbl>
#> 1 Adelie  Torgersen           39.1          18.7               181
#> 2 Adelie  Torgersen           39.5          17.4               186
#> 3 Adelie  Torgersen           40.3          18                 195
#> 4 Adelie  Torgersen           NA            NA                  NA
#> 5 Adelie  Torgersen           36.7          19.3               193
#> 6 Adelie  Torgersen           39.3          20.6               190
#> # … with 338 more rows, and 3 more variables: body_mass_g <dbl>, sex <chr>,
#> #   year <dbl>
```
…
###### 图 20-3\. Excel 中名为 `deaths.xlsx` 的电子表格。

此电子表格是 readxl 包提供的示例电子表格之一。你可以使用 [`readxl_example()`](https://readxl.tidyverse.org/reference/readxl_example.xhtml) 函数在安装包的目录中找到电子表格。该函数返回电子表格的路径，你可以像往常一样在 [`read_excel()`](https://readxl.tidyverse.org/reference/read_excel.xhtml) 中使用它。

```
deaths_path <- readxl_example("deaths.xlsx")
deaths <- read_excel(deaths_path)
#> New names:
#> • `` -> `...2`
#> • `` -> `...3`
#> • `` -> `...4`
#> • `` -> `...5`
#> • `` -> `...6`
deaths
#> # A tibble: 18 × 6
#>   `Lots of people`    ...2       ...3  ...4     ...5          ...6 
#>   <chr>               <chr>      <chr> <chr>    <chr>         <chr> 
#> 1 simply cannot resi… <NA>       <NA>  <NA>     <NA>          some notes 
#> 2 at                  the        top   <NA>     of            their spreadsh…
#> 3 or                  merging    <NA>  <NA>     <NA>          cells 
#> 4 Name                Profession Age   Has kids Date of birth Date of death 
#> 5 David Bowie         musician   69    TRUE     17175         42379 
#> 6 Carrie Fisher       actor      60    TRUE     20749         42731 
#> # … with 12 more rows
```

前三行和后四行不属于数据框。可以使用 `skip` 和 `n_max` 参数消除这些多余的行，但我们建议使用单元格范围。在 Excel 中，左上角的单元格是 `A1`。随着你向右移动列，单元格标签向字母表的下面移动，即 `B1`、`C1` 等。当你向下移动一列时，单元格标签中的数字增加，即 `A2`、`A3` 等。

我们想要读取的数据从单元格 `A5` 开始，到单元格 `F15` 结束。在电子表格表示法中，这是 `A5:F15`，我们将其提供给 `range` 参数：

```
read_excel(deaths_path, range = "A5:F15")
#> # A tibble: 10 × 6
#>   Name          Profession   Age `Has kids` `Date of birth` 
#>   <chr>         <chr>      <dbl> <lgl>      <dttm> 
#> 1 David Bowie   musician      69 TRUE       1947-01-08 00:00:00
#> 2 Carrie Fisher actor         60 TRUE       1956-10-21 00:00:00
#> 3 Chuck Berry   musician      90 TRUE       1926-10-18 00:00:00
#> 4 Bill Paxton   actor         61 TRUE       1955-05-17 00:00:00
#> 5 Prince        musician      57 TRUE       1958-06-07 00:00:00
#> 6 Alan Rickman  actor         69 FALSE      1946-02-21 00:00:00
#> # … with 4 more rows, and 1 more variable: `Date of death` <dttm>
```
…
请注意，我们在这里稍微不同地定义了列类型，使用了简短的代码。例如，“dcccc”代表“双精度、字符、字符、字符、字符”。

还可以从 Google Sheets 中读取单独的表格。让我们从[penguins Google Sheet](https://oreil.ly/qgKTY)中读取“Torgersen Island”表格：

```
penguins_sheet_id <- "1aFu8lnD_g0yjF5O-K6SFgSEWiHPpgvFCF0NY9D6LXnY"
read_sheet(penguins_sheet_id, sheet = "Torgersen Island")
#> ✔ Reading from penguins.
#> ✔ Range ''Torgersen Island''.
#> # A tibble: 52 × 8
#>   species island    bill_length_mm bill_depth_mm flipper_length_mm
#>   <chr>   <chr>     <list>         <list>        <list> 
#> 1 Adelie  Torgersen <dbl [1]>      <dbl [1]>     <dbl [1]> 
#> 2 Adelie  Torgersen <dbl [1]>      <dbl [1]>     <dbl [1]> 
#> 3 Adelie  Torgersen <dbl [1]>      <dbl [1]>     <dbl [1]> 
#> 4 Adelie  Torgersen <chr [1]>      <chr [1]>     <chr [1]> 
#> 5 Adelie  Torgersen <dbl [1]>      <dbl [1]>     <dbl [1]> 
#> 6 Adelie  Torgersen <dbl [1]>      <dbl [1]>     <dbl [1]> 
#> # … with 46 more rows, and 3 more variables: body_mass_g <list>, sex <chr>,
#> #   year <dbl>
```
…
```
sheet_names(penguins_sheet_id)
#> [1] "Torgersen Island" "Biscoe Island"    "Dream Island"
```

最后，就像使用[`read_excel()`](https://readxl.tidyverse.org/reference/read_excel.xhtml)一样，我们可以通过在[`read_sheet()`](https://googlesheets4.tidyverse.org/reference/range_read.xhtml)中定义一个`range`来读取 Google Sheet 的一部分。请注意，我们还使用[`gs4_example()`](https://googlesheets4.tidyverse.org/reference/gs4_examples.xhtml)函数来找到一个包含 googlesheets4 包的示例 Google Sheet：

```
deaths_url <- gs4_example("deaths")
deaths <- read_sheet(deaths_url, range = "A5:F15")
#> ✔ Reading from deaths.
#> ✔ Range A5:F15.
deaths
#> # A tibble: 10 × 6
#>   Name          Profession   Age `Has kids` `Date of birth` 
#>   <chr>         <chr>      <dbl> <lgl>      <dttm> 
#> 1 David Bowie   musician      69 TRUE       1947-01-08 00:00:00
#> 2 Carrie Fisher actor         60 TRUE       1956-10-21 00:00:00
#> 3 Chuck Berry   musician      90 TRUE       1926-10-18 00:00:00
#> 4 Bill Paxton   actor         61 TRUE       1955-05-17 00:00:00
#> 5 Prince        musician      57 TRUE       1958-06-07 00:00:00
#> 6 Alan Rickman  actor         69 FALSE      1946-02-21 00:00:00
#> # … with 4 more rows, and 1 more variable: `Date of death` <dttm>
```
…
