…
df <- read_csv(csv, col_types = cols(month = col_factor(month_levels)))
df$month
#> [1] Jan Feb Mar
#> Levels: Jan Feb Mar Apr May Jun Jul Aug Sep Oct Nov Dec
```

# 普遍社会调查

在本章的其余部分，我们将使用[`forcats::gss_cat`](https://forcats.tidyverse.org/reference/gss_cat.xhtml)。这是来自[General Social Survey](https://oreil.ly/3qBI5)的数据样本，是由芝加哥大学的独立研究组织 NORC 长期进行的美国调查。该调查有成千上万个问题，所以在`gss_cat`中，Hadley 选择了一些将说明在处理因子时可能遇到的常见挑战。

```
gss_cat
#> # A tibble: 21,483 × 9
#>    year marital         age race  rincome        partyid 
#>   <int> <fct>         <int> <fct> <fct>          <fct> 
#> 1  2000 Never married    26 White $8000 to 9999  Ind,near rep 
#> 2  2000 Divorced         48 White $8000 to 9999  Not str republican
#> 3  2000 Widowed          67 White Not applicable Independent 
#> 4  2000 Never married    39 White Not applicable Ind,near rep 
#> 5  2000 Divorced         25 White Not applicable Not str democrat 
#> 6  2000 Married          25 White $20000 - 24999 Strong democrat 
#> # … with 21,477 more rows, and 3 more variables: relig <fct>, denom <fct>,
#> #   tvhours <int>
```
…
## 练习

1.  `tvhours`中有一些可疑的高数值。平均数是否是一个良好的摘要？

1.  对于`gss_cat`中的每个因子，确定级别的顺序是任意的还是有原则的。

1.  为什么将“不适用”移至级别的前面后，它会移动到绘图的底部？

# 修改因子级别

更改级别顺序比改变级别值更强大。这允许您在发布标签时澄清，并在高级显示中折叠级别。最通用和强大的工具是[`fct_recode()`](https://forcats.tidyverse.org/reference/fct_recode.xhtml)。它允许您重新编码或更改每个级别的值。例如，从`gss_cat`数据框架中获取`partyid`变量：

```
gss_cat |> count(partyid)
#> # A tibble: 10 × 2
#>   partyid                n
#>   <fct>              <int>
#> 1 No answer            154
#> 2 Don't know             1
#> 3 Other party          393
#> 4 Strong republican   2314
#> 5 Not str republican  3032
#> 6 Ind,near rep        1791
#> # … with 4 more rows
```
…
```
gss_cat |>
  mutate(
    partyid = fct_recode(partyid,
      "Republican, strong"    = "Strong republican",
      "Republican, weak"      = "Not str republican",
      "Independent, near rep" = "Ind,near rep",
      "Independent, near dem" = "Ind,near dem",
      "Democrat, weak"        = "Not str democrat",
      "Democrat, strong"      = "Strong democrat"
    )
  ) |>
  count(partyid)
#> # A tibble: 10 × 2
#>   partyid                   n
#>   <fct>                 <int>
#> 1 No answer               154
#> 2 Don't know                1
#> 3 Other party             393
#> 4 Republican, strong     2314
#> 5 Republican, weak       3032
#> 6 Independent, near rep  1791
#> # … with 4 more rows
```
…
在这种情况下，它并不是很有帮助：虽然这次调查中大多数美国人是新教徒，但我们可能希望看到更多细节！相反，我们可以使用[`fct_lump_n()`](https://forcats.tidyverse.org/reference/fct_lump.xhtml)指定我们想要确切的 10 个组：

```
gss_cat |>
  mutate(relig = fct_lump_n(relig, n = 10)) |>
  count(relig, sort = TRUE)
#> # A tibble: 10 × 2
#>   relig          n
#>   <fct>      <int>
#> 1 Protestant 10846
#> 2 Catholic    5124
#> 3 None        3523
#> 4 Christian    689
#> 5 Other        458
#> 6 Jewish       388
#> # … with 4 more rows
```
…
