…
默认情况下，使数据更长会保留显式缺失值，但如果它们是结构性缺失值，仅因为数据不整洁而存在，您可以通过设置`values_drop_na = TRUE`来删除它们（使它们变为隐式）。有关更多详细信息，请参阅“整洁数据”中的示例。

## 完整

[`tidyr::complete()`](https://tidyr.tidyverse.org/reference/complete.xhtml)允许您通过提供一组定义应存在的行组合的变量来生成显式缺失值。例如，我们知道`stocks`数据中应存在所有`year`和`qtr`的组合：

```
stocks |>
  complete(year, qtr)
#> # A tibble: 8 × 3
#>    year   qtr price
#>   <dbl> <dbl> <dbl>
#> 1  2020     1  1.88
#> 2  2020     2  0.59
#> 3  2020     3  0.35
#> 4  2020     4 NA 
#> 5  2021     1 NA 
#> 6  2021     2  0.92
#> # … with 2 more rows
```

通常，您将使用现有变量的名称来调用[`complete()`](https://tidyr.tidyverse.org/reference/complete.xhtml)，填充缺失的组合。然而，有时个别变量本身就是不完整的，因此您可以提供自己的数据。例如，您可能知道`stocks`数据集应该从 2019 年到 2021 年运行，因此可以显式地为`year`提供这些值：

```
stocks |>
  complete(year = 2019:2021, qtr)
#> # A tibble: 12 × 3
#>    year   qtr price
#>   <dbl> <dbl> <dbl>
#> 1  2019     1 NA 
#> 2  2019     2 NA 
#> 3  2019     3 NA 
#> 4  2019     4 NA 
#> 5  2020     1  1.88
#> 6  2020     2  0.59
#> # … with 6 more rows
```
…
flights |> 
  distinct(tailnum) |> 
  anti_join(planes)
#> Joining with `by = join_by(tailnum)`
#> # A tibble: 722 × 1
#>   tailnum
#>   <chr> 
#> 1 N3ALAA 
#> 2 N3DUAA 
#> 3 N542MQ 
#> 4 N730MQ 
#> 5 N9EAMQ 
#> 6 N532UA 
#> # … with 716 more rows
```
…
