…
# 键

要理解连接操作，首先需要了解如何通过两个表中的一对键连接它们。在本节中，您将学习关于两种类型的键的知识，并在 nycflights13 数据集中看到具体示例。您还将学习如何验证您的键是否有效，以及在表中缺少键时该如何处理。

## 主键和外键

每个连接都涉及一对键：一个主键和一个外键。*主键* 是一个变量或一组变量，可以唯一标识每个观测。当需要多个变量时，这个键被称为*复合键*。例如，在 nycflights13 中：

+   `airlines` 记录了每家航空公司的两个数据：其运营代码和全称。您可以通过两字母运营代码来识别每家航空公司，使 `carrier` 成为主键。

    ```
    airlines
    #> # A tibble: 16 × 2
    #>   carrier name 
    #>   <chr>   <chr> 
    #> 1 9E      Endeavor Air Inc. 
    #> 2 AA      American Airlines Inc. 
    #> 3 AS      Alaska Airlines Inc. 
    #> 4 B6      JetBlue Airways 
    #> 5 DL      Delta Air Lines Inc. 
    #> 6 EV      ExpressJet Airlines Inc.
    #> # … with 10 more rows
    ```

+   `airports` 记录了每个机场的数据。您可以通过三字母机场代码来识别每个机场，使 `faa` 成为主键。

    ```
    airports
    #> # A tibble: 1,458 × 8
    #>   faa   name                            lat   lon   alt    tz dst 
    #>   <chr> <chr>                         <dbl> <dbl> <dbl> <dbl> <chr>
    #> 1 04G   Lansdowne Airport              41.1 -80.6  1044    -5 A 
    #> 2 06A   Moton Field Municipal Airport  32.5 -85.7   264    -6 A 
    #> 3 06C   Schaumburg Regional            42.0 -88.1   801    -6 A 
    #> 4 06N   Randall Airport                41.4 -74.4   523    -5 A 
    #> 5 09J   Jekyll Island Airport          31.1 -81.4    11    -5 A 
    #> 6 0A9   Elizabethton Municipal Airpo…  36.4 -82.2  1593    -5 A 
    #> # … with 1,452 more rows, and 1 more variable: tzone <chr>
    ```

+   `planes` 记录了每架飞机的数据。您可以通过其尾号来识别一架飞机，从而使 `tailnum` 成为主键。

    ```
    planes
    #> # A tibble: 3,322 × 9
    #>   tailnum  year type              manufacturer    model     engines
    #>   <chr>   <int> <chr>             <chr>           <chr>       <int>
    #> 1 N10156   2004 Fixed wing multi… EMBRAER         EMB-145XR       2
    #> 2 N102UW   1998 Fixed wing multi… AIRBUS INDUSTR… A320-214        2
    #> 3 N103US   1999 Fixed wing multi… AIRBUS INDUSTR… A320-214        2
    #> 4 N104UW   1999 Fixed wing multi… AIRBUS INDUSTR… A320-214        2
    #> 5 N10575   2002 Fixed wing multi… EMBRAER         EMB-145LR       2
    #> 6 N105UW   1999 Fixed wing multi… AIRBUS INDUSTR… A320-214        2
    #> # … with 3,316 more rows, and 3 more variables: seats <int>,
    #> #   speed <int>, engine <chr>
    ```

+   `weather` 记录了起飞机场的天气数据。您可以通过位置和时间的组合来识别每个观测，从而使 `origin` 和 `time_hour` 成为复合主键。

    ```
    weather
    #> # A tibble: 26,115 × 15
    #>   origin  year month   day  hour  temp  dewp humid wind_dir
    #>   <chr>  <int> <int> <int> <int> <dbl> <dbl> <dbl>    <dbl>
    #> 1 EWR     2013     1     1     1  39.0  26.1  59.4      270
    #> 2 EWR     2013     1     1     2  39.0  27.0  61.6      250
    #> 3 EWR     2013     1     1     3  39.0  28.0  64.4      240
    #> 4 EWR     2013     1     1     4  39.9  28.0  62.2      250
    #> 5 EWR     2013     1     1     5  39.0  28.0  64.4      260
    #> 6 EWR     2013     1     1     6  37.9  28.0  67.2      240
    #> # … with 26,109 more rows, and 6 more variables: wind_speed <dbl>,
    #> #   wind_gust <dbl>, precip <dbl>, pressure <dbl>, visib <dbl>, …
    ```
…
通过海拔和纬度来识别机场显然是个坏主意，总体而言，仅凭数据无法知道组合变量是否构成一个良好的主键。但对于航班来说，`time_hour`、`carrier`和`flight`的组合似乎是合理的，因为如果有多个相同航班号的航班同时在空中，对航空公司及其乘客来说会非常混乱。

话虽如此，引入一个简单的数值代理键，使用行号：

```
flights2 <- flights |> 
  mutate(id = row_number(), .before = 1)
flights2
#> # A tibble: 336,776 × 20
#>      id  year month   day dep_time sched_dep_time dep_delay arr_time
#>   <int> <int> <int> <int>    <int>          <int>     <dbl>    <int>
#> 1     1  2013     1     1      517            515         2      830
#> 2     2  2013     1     1      533            529         4      850
#> 3     3  2013     1     1      542            540         2      923
#> 4     4  2013     1     1      544            545        -1     1004
#> 5     5  2013     1     1      554            600        -6      812
#> 6     6  2013     1     1      554            558        -4      740
#> # … with 336,770 more rows, and 12 more variables: sched_arr_time <int>,
#> #   arr_delay <dbl>, carrier <chr>, flight <int>, tailnum <chr>, …
```
…
+   [`anti_join()`](https://dplyr.tidyverse.org/reference/filter-joins.xhtml)

它们都有相同的接口：它们接受一对数据框（`x`和`y`），并返回一个数据框。输出中的行和列的顺序主要由`x`决定。

在本节中，您将学习如何使用一个变异连接[`left_join()`](https://dplyr.tidyverse.org/reference/mutate-joins.xhtml)，以及两个过滤连接[`semi_join()`](https://dplyr.tidyverse.org/reference/filter-joins.xhtml)和[`anti_join()`](https://dplyr.tidyverse.org/reference/filter-joins.xhtml)。在下一节中，您将了解这些函数的确切工作方式，以及关于剩余的[`inner_join()`](https://dplyr.tidyverse.org/reference/mutate-joins.xhtml)、[`right_join()`](https://dplyr.tidyverse.org/reference/mutate-joins.xhtml)和[`full_join()`](https://dplyr.tidyverse.org/reference/mutate-joins.xhtml)。

## 变异连接

*变异连接*允许您从两个数据框中合并变量：它首先通过它们的键匹配观测值，然后从一个数据框复制变量到另一个数据框。与[`mutate()`](https://dplyr.tidyverse.org/reference/mutate.xhtml)类似，连接函数将变量添加到右侧，因此如果您的数据集有很多变量，您将看不到新变量。为了这些示例，我们将创建一个只有六个变量的更窄的数据集，以便更容易看到发生了什么：¹

```
flights2 <- flights |> 
  select(year, time_hour, origin, dest, tailnum, carrier)
flights2
#> # A tibble: 336,776 × 6
#>    year time_hour           origin dest  tailnum carrier
#>   <int> <dttm>              <chr>  <chr> <chr>   <chr> 
#> 1  2013 2013-01-01 05:00:00 EWR    IAH   N14228  UA 
#> 2  2013 2013-01-01 05:00:00 LGA    IAH   N24211  UA 
#> 3  2013 2013-01-01 05:00:00 JFK    MIA   N619AA  AA 
#> 4  2013 2013-01-01 05:00:00 JFK    BQN   N804JB  B6 
#> 5  2013 2013-01-01 06:00:00 LGA    ATL   N668DN  DL 
#> 6  2013 2013-01-01 05:00:00 EWR    ORD   N39463  UA 
#> # … with 336,770 more rows
```

有四种类型的变异连接，但几乎所有时间您都会使用一种：[`left_join()`](https://dplyr.tidyverse.org/reference/mutate-joins.xhtml)。它很特别，因为输出将始终与`x`具有相同的行。² [`left_join()`](https://dplyr.tidyverse.org/reference/mutate-joins.xhtml)的主要用途是添加额外的元数据。例如，我们可以使用[`left_join()`](https://dplyr.tidyverse.org/reference/mutate-joins.xhtml)将完整的航空公司名称添加到`flights2`数据中：

```
flights2 |>
  left_join(airlines)
#> Joining with `by = join_by(carrier)`
#> # A tibble: 336,776 × 7
#>    year time_hour           origin dest  tailnum carrier name 
#>   <int> <dttm>              <chr>  <chr> <chr>   <chr>   <chr> 
#> 1  2013 2013-01-01 05:00:00 EWR    IAH   N14228  UA      United Air Lines In…
#> 2  2013 2013-01-01 05:00:00 LGA    IAH   N24211  UA      United Air Lines In…
#> 3  2013 2013-01-01 05:00:00 JFK    MIA   N619AA  AA      American Airlines I…
#> 4  2013 2013-01-01 05:00:00 JFK    BQN   N804JB  B6      JetBlue Airways 
#> 5  2013 2013-01-01 06:00:00 LGA    ATL   N668DN  DL      Delta Air Lines Inc.
#> 6  2013 2013-01-01 05:00:00 EWR    ORD   N39463  UA      United Air Lines In…
#> # … with 336,770 more rows
```

或者我们可以找出每架飞机起飞时的温度和风速：

```
flights2 |> 
  left_join(weather |> select(origin, time_hour, temp, wind_speed))
#> Joining with `by = join_by(time_hour, origin)`
#> # A tibble: 336,776 × 8
#>    year time_hour           origin dest  tailnum carrier  temp wind_speed
#>   <int> <dttm>              <chr>  <chr> <chr>   <chr>   <dbl>      <dbl>
#> 1  2013 2013-01-01 05:00:00 EWR    IAH   N14228  UA       39.0       12.7
#> 2  2013 2013-01-01 05:00:00 LGA    IAH   N24211  UA       39.9       15.0
#> 3  2013 2013-01-01 05:00:00 JFK    MIA   N619AA  AA       39.0       15.0
#> 4  2013 2013-01-01 05:00:00 JFK    BQN   N804JB  B6       39.0       15.0
#> 5  2013 2013-01-01 06:00:00 LGA    ATL   N668DN  DL       39.9       16.1
#> 6  2013 2013-01-01 05:00:00 EWR    ORD   N39463  UA       39.0       12.7
#> # … with 336,770 more rows
```

或者飞机的尺寸是多少：

```
flights2 |> 
  left_join(planes |> select(tailnum, type, engines, seats))
#> Joining with `by = join_by(tailnum)`
#> # A tibble: 336,776 × 9
#>    year time_hour           origin dest  tailnum carrier type 
#>   <int> <dttm>              <chr>  <chr> <chr>   <chr>   <chr> 
#> 1  2013 2013-01-01 05:00:00 EWR    IAH   N14228  UA      Fixed wing multi en…
#> 2  2013 2013-01-01 05:00:00 LGA    IAH   N24211  UA      Fixed wing multi en…
#> 3  2013 2013-01-01 05:00:00 JFK    MIA   N619AA  AA      Fixed wing multi en…
#> 4  2013 2013-01-01 05:00:00 JFK    BQN   N804JB  B6      Fixed wing multi en…
#> 5  2013 2013-01-01 06:00:00 LGA    ATL   N668DN  DL      Fixed wing multi en…
#> 6  2013 2013-01-01 05:00:00 EWR    ORD   N39463  UA      Fixed wing multi en…
#> # … with 336,770 more rows, and 2 more variables: engines <int>, seats <int>
```

当[`left_join()`](https://dplyr.tidyverse.org/reference/mutate-joins.xhtml)无法在`x`中找到某一行的匹配时，它会用缺失值填充新变量。例如，关于机尾号为`N3ALAA`的飞机没有信息，因此`type`、`engines`和`seats`将会缺失：

```
flights2 |> 
  filter(tailnum == "N3ALAA") |> 
  left_join(planes |> select(tailnum, type, engines, seats))
#> Joining with `by = join_by(tailnum)`
#> # A tibble: 63 × 9
#>    year time_hour           origin dest  tailnum carrier type  engines seats
#>   <int> <dttm>              <chr>  <chr> <chr>   <chr>   <chr>   <int> <int>
#> 1  2013 2013-01-01 06:00:00 LGA    ORD   N3ALAA  AA      <NA>       NA    NA
#> 2  2013 2013-01-02 18:00:00 LGA    ORD   N3ALAA  AA      <NA>       NA    NA
#> 3  2013 2013-01-03 06:00:00 LGA    ORD   N3ALAA  AA      <NA>       NA    NA
#> 4  2013 2013-01-07 19:00:00 LGA    ORD   N3ALAA  AA      <NA>       NA    NA
#> 5  2013 2013-01-08 17:00:00 JFK    ORD   N3ALAA  AA      <NA>       NA    NA
#> 6  2013 2013-01-16 06:00:00 LGA    ORD   N3ALAA  AA      <NA>       NA    NA
#> # … with 57 more rows
```

我们将在本章的其余部分多次回到这个问题。

## 指定连接键

默认情况下，[`left_join()`](https://dplyr.tidyverse.org/reference/mutate-joins.xhtml)将使用两个数据框中出现的所有变量作为连接键，即所谓的*自然*连接。这是一种有用的启发式方法，但并不总是有效。例如，如果我们尝试使用完整的`planes`数据集来连接`flights2`会发生什么？

```
flights2 |> 
  left_join(planes)
#> Joining with `by = join_by(year, tailnum)`
#> # A tibble: 336,776 × 13
#>    year time_hour           origin dest  tailnum carrier type  manufacturer
#>   <int> <dttm>              <chr>  <chr> <chr>   <chr>   <chr> <chr> 
#> 1  2013 2013-01-01 05:00:00 EWR    IAH   N14228  UA      <NA>  <NA> 
#> 2  2013 2013-01-01 05:00:00 LGA    IAH   N24211  UA      <NA>  <NA> 
#> 3  2013 2013-01-01 05:00:00 JFK    MIA   N619AA  AA      <NA>  <NA> 
#> 4  2013 2013-01-01 05:00:00 JFK    BQN   N804JB  B6      <NA>  <NA> 
#> 5  2013 2013-01-01 06:00:00 LGA    ATL   N668DN  DL      <NA>  <NA> 
#> 6  2013 2013-01-01 05:00:00 EWR    ORD   N39463  UA      <NA>  <NA> 
#> # … with 336,770 more rows, and 5 more variables: model <chr>,
#> #   engines <int>, seats <int>, speed <int>, engine <chr>
```

我们得到很多缺失的匹配，因为我们的连接尝试使用 `tailnum` 和 `year` 作为复合键。`flights` 和 `planes` 都有一个 `year` 列，但它们的含义不同：`flights$year` 是飞行发生的年份，而 `planes$year` 是飞机建造的年份。我们只想在 `tailnum` 上进行连接，因此我们需要使用 [`join_by()`](https://dplyr.tidyverse.org/reference/join_by.xhtml) 提供显式规范：

```
flights2 |> 
  left_join(planes, join_by(tailnum))
#> # A tibble: 336,776 × 14
#>   year.x time_hour           origin dest  tailnum carrier year.y
#>    <int> <dttm>              <chr>  <chr> <chr>   <chr>    <int>
#> 1   2013 2013-01-01 05:00:00 EWR    IAH   N14228  UA        1999
#> 2   2013 2013-01-01 05:00:00 LGA    IAH   N24211  UA        1998
#> 3   2013 2013-01-01 05:00:00 JFK    MIA   N619AA  AA        1990
#> 4   2013 2013-01-01 05:00:00 JFK    BQN   N804JB  B6        2012
#> 5   2013 2013-01-01 06:00:00 LGA    ATL   N668DN  DL        1991
#> 6   2013 2013-01-01 05:00:00 EWR    ORD   N39463  UA        2012
#> # … with 336,770 more rows, and 7 more variables: type <chr>,
#> #   manufacturer <chr>, model <chr>, engines <int>, seats <int>, …
```

注意输出中的 `year` 变量使用后缀（`year.x` 和 `year.y`）进行消歧义，告诉您变量是来自 `x` 还是 `y` 参数。您可以使用 `suffix` 参数覆盖默认后缀。

`join_by(tailnum)` 是 `join_by(tailnum == tailnum)` 的简写。了解这种更完整的形式有两个原因很重要。首先，它描述了两个表之间的关系：键必须相等。这就是为什么这种连接通常被称为*等连接*。您将在“过滤连接”中了解非等连接。

第二，这是您如何在每个表中指定不同的连接键。例如，有两种方法可以将 `flight2` 表和 `airports` 表连接起来：要么通过 `dest`，要么通过 `origin`：

```
flights2 |> 
  left_join(airports, join_by(dest == faa))
#> # A tibble: 336,776 × 13
#>    year time_hour           origin dest  tailnum carrier name 
#>   <int> <dttm>              <chr>  <chr> <chr>   <chr>   <chr> 
#> 1  2013 2013-01-01 05:00:00 EWR    IAH   N14228  UA      George Bush Interco…
#> 2  2013 2013-01-01 05:00:00 LGA    IAH   N24211  UA      George Bush Interco…
#> 3  2013 2013-01-01 05:00:00 JFK    MIA   N619AA  AA      Miami Intl 
#> 4  2013 2013-01-01 05:00:00 JFK    BQN   N804JB  B6      <NA> 
#> 5  2013 2013-01-01 06:00:00 LGA    ATL   N668DN  DL      Hartsfield Jackson …
#> 6  2013 2013-01-01 05:00:00 EWR    ORD   N39463  UA      Chicago Ohare Intl 
#> # … with 336,770 more rows, and 6 more variables: lat <dbl>, lon <dbl>,
#> #   alt <dbl>, tz <dbl>, dst <chr>, tzone <chr>

flights2 |> 
  left_join(airports, join_by(origin == faa))
#> # A tibble: 336,776 × 13
#>    year time_hour           origin dest  tailnum carrier name 
#>   <int> <dttm>              <chr>  <chr> <chr>   <chr>   <chr> 
#> 1  2013 2013-01-01 05:00:00 EWR    IAH   N14228  UA      Newark Liberty Intl
#> 2  2013 2013-01-01 05:00:00 LGA    IAH   N24211  UA      La Guardia 
#> 3  2013 2013-01-01 05:00:00 JFK    MIA   N619AA  AA      John F Kennedy Intl
#> 4  2013 2013-01-01 05:00:00 JFK    BQN   N804JB  B6      John F Kennedy Intl
#> 5  2013 2013-01-01 06:00:00 LGA    ATL   N668DN  DL      La Guardia 
#> 6  2013 2013-01-01 05:00:00 EWR    ORD   N39463  UA      Newark Liberty Intl
#> # … with 336,770 more rows, and 6 more variables: lat <dbl>, lon <dbl>,
#> #   alt <dbl>, tz <dbl>, dst <chr>, tzone <chr>
```
…
或者只需目的地：

```
airports |> 
  semi_join(flights2, join_by(faa == dest))
#> # A tibble: 101 × 8
#>   faa   name                     lat    lon   alt    tz dst   tzone 
#>   <chr> <chr>                  <dbl>  <dbl> <dbl> <dbl> <chr> <chr> 
#> 1 ABQ   Albuquerque Internati…  35.0 -107\.   5355    -7 A     America/Denver 
#> 2 ACK   Nantucket Mem           41.3  -70.1    48    -5 A     America/New_Yo…
#> 3 ALB   Albany Intl             42.7  -73.8   285    -5 A     America/New_Yo…
#> 4 ANC   Ted Stevens Anchorage…  61.2 -150\.    152    -9 A     America/Anchor…
#> 5 ATL   Hartsfield Jackson At…  33.6  -84.4  1026    -5 A     America/New_Yo…
#> 6 AUS   Austin Bergstrom Intl   30.2  -97.7   542    -6 A     America/Chicago
#> # … with 95 more rows
```
…
或者我们可以找出哪些`tailnum`在`planes`中不存在：

```
flights2 |>
  anti_join(planes, join_by(tailnum)) |> 
  distinct(tailnum)
#> # A tibble: 722 × 1
#>   tailnum
#>   <chr> 
#> 1 N3ALAA 
#> 2 N3DUAA 
#> 3 N542MQ 
#> 4 N730MQ 
#> 5 N9EAMQ 
#> 6 N532UA 
#> # … with 716 more rows
```
…
###### 图 19-14\. 交叉连接将`x`中的每一行与`y`中的每一行匹配。

交叉连接在生成排列时非常有用。例如，以下代码生成了每对名称的所有可能组合。由于我们将 `df` 与自身连接，这有时被称为*自连接*。交叉连接使用不同的连接函数，因为在匹配每一行时不存在内部/左侧/右侧/完整的区别。

```
df <- tibble(name = c("John", "Simon", "Tracy", "Max"))
df |> cross_join(df)
#> # A tibble: 16 × 2
#>   name.x name.y
#>   <chr>  <chr> 
#> 1 John   John 
#> 2 John   Simon 
#> 3 John   Tracy 
#> 4 John   Max 
#> 5 Simon  John 
#> 6 Simon  Simon 
#> # … with 10 more rows
```
…
###### 图 19-15\. 不等连接，其中 `x` 与 `y` 在 `x` 的键小于 `y` 的键的行上连接。这在左上角形成一个三角形。

不等连接非常普遍，以至于很难想出有意义的具体用例。一个小而有用的技巧是使用它们来限制交叉连接，以便不生成所有排列，而是生成所有组合：

```
df <- tibble(id = 1:4, name = c("John", "Simon", "Tracy", "Max"))

df |> left_join(df, join_by(id < id))
#> # A tibble: 7 × 4
#>    id.x name.x  id.y name.y
#>   <int> <chr>  <int> <chr> 
#> 1     1 John       2 Simon 
#> 2     1 John       3 Tracy 
#> 3     1 John       4 Max 
#> 4     2 Simon      3 Tracy 
#> 5     2 Simon      4 Max 
#> 6     3 Tracy      4 Max 
#> # … with 1 more row
```
…
现在想象一下，您有一个员工生日表：

```
employees <- tibble(
  name = sample(babynames::babynames$name, 100),
  birthday = ymd("2022-01-01") + (sample(365, 100, replace = TRUE) - 1)
)
employees
#> # A tibble: 100 × 2
#>   name    birthday 
#>   <chr>   <date> 
#> 1 Case    2022-09-13
#> 2 Shonnie 2022-03-30
#> 3 Burnard 2022-01-10
#> 4 Omer    2022-11-25
#> 5 Hillel  2022-07-30
#> 6 Curlie  2022-12-11
#> # … with 94 more rows
```

对于每位员工，我们希望找到在他们生日之后（或者当天）的第一个派对日期。我们可以通过滚动连接来表达这一点：

```
employees |> 
  left_join(parties, join_by(closest(birthday >= party)))
#> # A tibble: 100 × 4
#>   name    birthday       q party 
#>   <chr>   <date>     <int> <date> 
#> 1 Case    2022-09-13     3 2022-07-11
#> 2 Shonnie 2022-03-30     1 2022-01-10
#> 3 Burnard 2022-01-10     1 2022-01-10
#> 4 Omer    2022-11-25     4 2022-10-03
#> 5 Hillel  2022-07-30     3 2022-07-11
#> 6 Curlie  2022-12-11     4 2022-10-03
#> # … with 94 more rows
```
…
```
parties <- tibble(
  q = 1:4,
  party = ymd(c("2022-01-10", "2022-04-04", "2022-07-11", "2022-10-03")),
  start = ymd(c("2022-01-01", "2022-04-04", "2022-07-11", "2022-10-03")),
  end = ymd(c("2022-04-03", "2022-07-10", "2022-10-02", "2022-12-31"))
)
```

现在我们可以将每位员工与他们的派对匹配。这是一个使用 `unmatched = "error"` 的好地方，因为我们想要快速找出是否有任何员工没有被分配到派对：

```
employees |> 
  inner_join(parties, join_by(between(birthday, start, end)), unmatched = "error")
#> # A tibble: 100 × 6
#>   name    birthday       q party      start      end 
#>   <chr>   <date>     <int> <date>     <date>     <date> 
#> 1 Case    2022-09-13     3 2022-07-11 2022-07-11 2022-10-02
#> 2 Shonnie 2022-03-30     1 2022-01-10 2022-01-01 2022-04-03
#> 3 Burnard 2022-01-10     1 2022-01-10 2022-01-01 2022-04-03
#> 4 Omer    2022-11-25     4 2022-10-03 2022-10-03 2022-12-31
#> 5 Hillel  2022-07-30     3 2022-07-11 2022-07-11 2022-10-02
#> 6 Curlie  2022-12-11     4 2022-10-03 2022-10-03 2022-12-31
#> # … with 94 more rows
```
…
