…
观察

一组在相似条件下进行的测量（通常您在一个观察中同时进行所有测量并在同一个对象上进行）。一个观察将包含几个值，每个与不同的变量相关联。我们有时将观察称为*数据点*。

表格数据

一组值，每个与一个变量和一个观测相关联。如果每个值放在自己的“单元格”中，每个变量放在自己的列中，每个观测放在自己的行中，则表格数据是*tidy*。

在这种情况下，变量指的是所有企鹅的属性，而观察指的是单个企鹅的所有属性。

在控制台中输入数据框的名称，R 会打印其内容的预览。请注意，预览顶部写着`tibble`。在整洁的宇宙中，我们使用称为*tibbles*的特殊数据框，你很快就会了解到。

```
penguins
#> # A tibble: 344 × 8
#>   species island    bill_length_mm bill_depth_mm flipper_length_mm
#>   <fct>   <fct>              <dbl>         <dbl>             <int>
#> 1 Adelie  Torgersen           39.1          18.7               181
#> 2 Adelie  Torgersen           39.5          17.4               186
#> 3 Adelie  Torgersen           40.3          18                 195
#> 4 Adelie  Torgersen           NA            NA                  NA
#> 5 Adelie  Torgersen           36.7          19.3               193
#> 6 Adelie  Torgersen           39.3          20.6               190
#> # … with 338 more rows, and 3 more variables: body_mass_g <int>, sex <fct>,
#> #   year <int>
```
…
