…
目前没有办法使用[`across()`](https://dplyr.tidyverse.org/reference/across.xhtml)来做到这一点，⁴但使用[`pivot_longer()`](https://tidyr.tidyverse.org/reference/pivot_longer.xhtml)却相对简单：

```
df_long <- df_paired |> 
  pivot_longer(
    everything(), 
    names_to = c("group", ".value"), 
    names_sep = "_"
  )
df_long
#> # A tibble: 40 × 3
#>   group    val   wts
#>   <chr>  <dbl> <dbl>
#> 1 a      0.715 0.518
#> 2 b     -0.709 0.691
#> 3 c      0.718 0.216
#> 4 d     -0.217 0.733
#> 5 a     -1.09  0.979
#> 6 b     -0.209 0.675
#> # … with 34 more rows
…
```
files <- list(
  readxl::read_excel("data/gapminder/1952.xlsx"),
  readxl::read_excel("data/gapminder/1957.xlsx"),
  readxl::read_excel("data/gapminder/1962.xlsx"),
  ...,
  readxl::read_excel("data/gapminder/2007.xlsx")
)
```

现在你把这些数据框都放在一个列表里了，那么怎么取出其中一个呢？你可以使用`files[[i]]`来提取第*i*个元素：

```
files[[3]]
#> # A tibble: 142 × 5
#>   country     continent lifeExp      pop gdpPercap
#>   <chr>       <chr>       <dbl>    <dbl>     <dbl>
#> 1 Afghanistan Asia         32.0 10267083      853.
#> 2 Albania     Europe       64.8  1728137     2313.
#> 3 Algeria     Africa       48.3 11000948     2551.
#> 4 Angola      Africa       34    4826015     4269.
#> 5 Argentina   Americas     65.1 21283783     7133.
#> 6 Australia   Oceania      70.9 10794968    12217.
#> # … with 136 more rows
```
…
因此，我们可以使用[`map()`](https://purrr.tidyverse.org/reference/map.xhtml)来获得一个包含 12 个数据框的列表：

```
files <- map(paths, readxl::read_excel)
length(files)
#> [1] 12

files[[1]]
#> # A tibble: 142 × 5
#>   country     continent lifeExp      pop gdpPercap
#>   <chr>       <chr>       <dbl>    <dbl>     <dbl>
#> 1 Afghanistan Asia         28.8  8425333      779.
#> 2 Albania     Europe       55.2  1282697     1601.
#> 3 Algeria     Africa       43.1  9279525     2449.
#> 4 Angola      Africa       30.0  4232095     3521.
#> 5 Argentina   Americas     62.5 17876956     5911.
#> 6 Australia   Oceania      69.1  8691212    10040.
#> # … with 136 more rows
```

（这是另一种数据结构，使用[`str()`](https://rdrr.io/r/utils/str.xhtml)显示时并不特别紧凑，因此您可能希望将其加载到 RStudio 中，并使用[`View()`](https://rdrr.io/r/utils/View.xhtml)进行检查）。

现在我们可以使用[`purrr::list_rbind()`](https://purrr.tidyverse.org/reference/list_c.xhtml)将这些数据框的列表合并成一个单独的数据框：

```
list_rbind(files)
#> # A tibble: 1,704 × 5
#>   country     continent lifeExp      pop gdpPercap
#>   <chr>       <chr>       <dbl>    <dbl>     <dbl>
#> 1 Afghanistan Asia         28.8  8425333      779.
#> 2 Albania     Europe       55.2  1282697     1601.
#> 3 Algeria     Africa       43.1  9279525     2449.
#> 4 Angola      Africa       30.0  4232095     3521.
#> 5 Argentina   Americas     62.5 17876956     5911.
#> 6 Australia   Oceania      69.1  8691212    10040.
#> # … with 1,698 more rows
```
或者我们可以一次在管道中完成两个步骤：

```
paths |> 
  map(readxl::read_excel) |> 
  list_rbind()
```

如果我们想要传递额外的参数给`read_excel()`怎么办？我们使用与[`across()`](https://dplyr.tidyverse.org/reference/across.xhtml)相同的技术。例如，使用`n_max = 1`查看数据的前几行通常是有用的：

```
paths |> 
  map(\(path) readxl::read_excel(path, n_max = 1)) |> 
  list_rbind()
#> # A tibble: 12 × 5
#>   country     continent lifeExp      pop gdpPercap
#>   <chr>       <chr>       <dbl>    <dbl>     <dbl>
#> 1 Afghanistan Asia         28.8  8425333      779.
#> 2 Afghanistan Asia         30.3  9240934      821.
#> 3 Afghanistan Asia         32.0 10267083      853.
#> 4 Afghanistan Asia         34.0 11537966      836.
#> 5 Afghanistan Asia         36.1 13079460      740.
#> 6 Afghanistan Asia         38.4 14880372      786.
#> # … with 6 more rows
```
…
```
files <- list(
  "1952.xlsx" = readxl::read_excel("data/gapminder/1952.xlsx"),
  "1957.xlsx" = readxl::read_excel("data/gapminder/1957.xlsx"),
  "1962.xlsx" = readxl::read_excel("data/gapminder/1962.xlsx"),
  ...,
  "2007.xlsx" = readxl::read_excel("data/gapminder/2007.xlsx")
)
```

您还可以使用`[[`按名称提取元素：

```
files[["1962.xlsx"]]
#> # A tibble: 142 × 5
#>   country     continent lifeExp      pop gdpPercap
#>   <chr>       <chr>       <dbl>    <dbl>     <dbl>
#> 1 Afghanistan Asia         32.0 10267083      853.
#> 2 Albania     Europe       64.8  1728137     2313.
#> 3 Algeria     Africa       48.3 11000948     2551.
#> 4 Angola      Africa       34    4826015     4269.
#> 5 Argentina   Americas     65.1 21283783     7133.
#> 6 Australia   Oceania      70.9 10794968    12217.
#> # … with 136 more rows
```

然后我们使用`names_to`参数来告诉[`list_rbind()`](https://purrr.tidyverse.org/reference/list_c.xhtml)将名称保存到一个名为`year`的新列中，然后使用[`readr::parse_number()`](https://readr.tidyverse.org/reference/parse_number.xhtml)从字符串中提取数字：

```
paths |> 
  set_names(basename) |> 
  map(readxl::read_excel) |> 
  list_rbind(names_to = "year") |> 
  mutate(year = parse_number(year))
#> # A tibble: 1,704 × 6
#>    year country     continent lifeExp      pop gdpPercap
#>   <dbl> <chr>       <chr>       <dbl>    <dbl>     <dbl>
#> 1  1952 Afghanistan Asia         28.8  8425333      779.
#> 2  1952 Albania     Europe       55.2  1282697     1601.
#> 3  1952 Algeria     Africa       43.1  9279525     2449.
#> 4  1952 Angola      Africa       30.0  4232095     3521.
#> 5  1952 Argentina   Americas     62.5 17876956     5911.
#> 6  1952 Australia   Oceania      69.1  8691212    10040.
#> # … with 1,698 more rows
```

在更复杂的情况下，目录名称中可能存储有其他变量，或者文件名包含多个数据位。在这种情况下，使用[`set_names()`](https://rlang.r-lib.org/reference/set_names.xhtml)（不带任何参数）记录完整路径，然后使用[`tidyr::separate_wider_delim()`](https://tidyr.tidyverse.org/reference/separate_wider_delim.xhtml)等函数将它们转换为有用的列：

```
paths |> 
  set_names() |> 
  map(readxl::read_excel) |> 
  list_rbind(names_to = "year") |> 
  separate_wider_delim(year, delim = "/", names = c(NA, "dir", "file")) |> 
  separate_wider_delim(file, delim = ".", names = c("file", "ext"))
#> # A tibble: 1,704 × 8
#>   dir       file  ext   country     continent lifeExp      pop gdpPercap
#>   <chr>     <chr> <chr> <chr>       <chr>       <dbl>    <dbl>     <dbl>
#> 1 gapminder 1952  xlsx  Afghanistan Asia         28.8  8425333      779.
#> 2 gapminder 1952  xlsx  Albania     Europe       55.2  1282697     1601.
#> 3 gapminder 1952  xlsx  Algeria     Africa       43.1  9279525     2449.
#> 4 gapminder 1952  xlsx  Angola      Africa       30.0  4232095     3521.
#> 5 gapminder 1952  xlsx  Argentina   Americas     62.5 17876956     5911.
#> 6 gapminder 1952  xlsx  Australia   Oceania      69.1  8691212    10040.
#> # … with 1,698 more rows
```
…
然后，你可以将此函数应用于所有文件，也许进行一些数据透视以便更容易看到差异的位置。例如，这使得验证我们一直在处理的 gapminder 电子表格是相当同质的变得容易：

```
files |> 
  map(df_types) |> 
  list_rbind(names_to = "file_name") |> 
  select(-n_miss) |> 
  pivot_wider(names_from = col_name, values_from = col_type)
#> # A tibble: 12 × 6
#>   file_name country   continent lifeExp pop    gdpPercap
#>   <chr>     <chr>     <chr>     <chr>   <chr>  <chr> 
#> 1 1952.xlsx character character double  double double 
#> 2 1957.xlsx character character double  double double 
#> 3 1962.xlsx character character double  double double 
#> 4 1967.xlsx character character double  double double 
#> 5 1972.xlsx character character double  double double 
#> 6 1977.xlsx character character double  double double 
#> # … with 6 more rows
```
…
```
con <- DBI::dbConnect(duckdb::duckdb())
duckdb::duckdb_read_csv(con, "gapminder", paths)
```

这种方法在这里很有效，但我们没有 CSV 文件；相反，我们有 Excel 电子表格。因此，我们将不得不手工进行操作。学会手动操作还将帮助您处理一堆 CSV 文件和您正在使用的数据库没有可以加载它们全部的功能的情况。

我们需要首先创建一个将填充数据的表格。这样做的最简单方法是创建一个模板，一个虚拟的数据框，包含我们想要的所有列，但只有部分数据。对于 gapminder 数据，我们可以通过读取一个文件并将年份添加到其中来制作该模板：

```
template <- readxl::read_excel(paths[[1]])
template$year <- 1952
template
#> # A tibble: 142 × 6
#>   country     continent lifeExp      pop gdpPercap  year
#>   <chr>       <chr>       <dbl>    <dbl>     <dbl> <dbl>
#> 1 Afghanistan Asia         28.8  8425333      779\.  1952
#> 2 Albania     Europe       55.2  1282697     1601\.  1952
#> 3 Algeria     Africa       43.1  9279525     2449\.  1952
#> 4 Angola      Africa       30.0  4232095     3521\.  1952
#> 5 Argentina   Americas     62.5 17876956     5911\.  1952
#> 6 Australia   Oceania      69.1  8691212    10040\.  1952
#> # … with 136 more rows
```
…
## 写入 CSV 文件

如果我们想为每个组编写多个 CSV 文件，同样的基本原则适用。让我们想象一下，我们想要取[`ggplot2::diamonds`](https://ggplot2.tidyverse.org/reference/diamonds.xhtml)数据，并为每个`clarity`保存一个 CSV 文件。首先，我们需要制作这些单独的数据集。有许多方法可以做到这一点，但有一种方法我们特别喜欢：[`group_nest()`](https://dplyr.tidyverse.org/reference/group_nest.xhtml)。

```
by_clarity <- diamonds |> 
  group_nest(clarity)

by_clarity
#> # A tibble: 8 × 2
#>   clarity               data
#>   <ord>   <list<tibble[,9]>>
#> 1 I1               [741 × 9]
#> 2 SI2            [9,194 × 9]
#> 3 SI1           [13,065 × 9]
#> 4 VS2           [12,258 × 9]
#> 5 VS1            [8,171 × 9]
#> 6 VVS2           [5,066 × 9]
#> # … with 2 more rows
```

这给了我们一个新的 tibble，有八行和两列。`clarity`是我们的分组变量，`data`是一个列表列，包含每个`clarity`唯一值的一个 tibble：

```
by_clarity$data[[1]]
#> # A tibble: 741 × 9
#>   carat cut       color depth table price     x     y     z
#>   <dbl> <ord>     <ord> <dbl> <dbl> <int> <dbl> <dbl> <dbl>
#> 1  0.32 Premium   E      60.9    58   345  4.38  4.42  2.68
#> 2  1.17 Very Good J      60.2    61  2774  6.83  6.9   4.13
#> 3  1.01 Premium   F      61.8    60  2781  6.39  6.36  3.94
#> 4  1.01 Fair      E      64.5    58  2788  6.29  6.21  4.03
#> 5  0.96 Ideal     F      60.7    55  2801  6.37  6.41  3.88
#> 6  1.04 Premium   G      62.2    58  2801  6.46  6.41  4 
#> # … with 735 more rows
```

在这里的同时，让我们创建一个列，它给出输出文件的名称，使用[`mutate()`](https://dplyr.tidyverse.org/reference/mutate.xhtml)和[`str_glue()`](https://stringr.tidyverse.org/reference/str_glue.xhtml)：

```
by_clarity <- by_clarity |> 
  mutate(path = str_glue("diamonds-{clarity}.csv"))

by_clarity
#> # A tibble: 8 × 3
#>   clarity               data path 
#>   <ord>   <list<tibble[,9]>> <glue> 
#> 1 I1               [741 × 9] diamonds-I1.csv 
#> 2 SI2            [9,194 × 9] diamonds-SI2.csv 
#> 3 SI1           [13,065 × 9] diamonds-SI1.csv 
#> 4 VS2           [12,258 × 9] diamonds-VS2.csv 
#> 5 VS1            [8,171 × 9] diamonds-VS1.csv 
#> 6 VVS2           [5,066 × 9] diamonds-VVS2.csv
#> # … with 2 more rows
```
…
