…
在实际应用中较少见[`separate_longer_delim()`](https://tidyr.tidyverse.org/reference/separate_longer_delim.xhtml)，但某些旧数据集确实使用了一种紧凑的格式，其中每个字符用于记录一个值：

```
df2 <- tibble(x = c("1211", "131", "21"))
df2 |> 
  separate_longer_position(x, width = 1)
#> # A tibble: 9 × 1
#>   x 
#>   <chr>
#> 1 1 
#> 2 2 
#> 3 1 
#> 4 1 
#> 5 1 
#> 6 3 
#> # … with 3 more rows
```
…
## 长度

[`str_length()`](https://stringr.tidyverse.org/reference/str_length.xhtml) 告诉您字符串中的字母数：

```
str_length(c("a", "R for data science", NA))
#> [1]  1 18 NA
```

您可以使用 [`count()`](https://dplyr.tidyverse.org/reference/count.xhtml) 查找美国婴儿姓名长度的分布，然后使用 [`filter()`](https://dplyr.tidyverse.org/reference/filter.xhtml) 查看最长的姓名，这些姓名恰好有 15 个字母:⁶

```
babynames |>
  count(length = str_length(name), wt = n)
#> # A tibble: 14 × 2
#>   length        n
#>    <int>    <int>
#> 1      2   338150
#> 2      3  8589596
#> 3      4 48506739
#> 4      5 87011607
#> 5      6 90749404
#> 6      7 72120767
#> # … with 8 more rows

babynames |> 
  filter(str_length(name) == 15) |> 
  count(name, wt = n, sort = TRUE)
#> # A tibble: 34 × 2
#>   name                n
#>   <chr>           <int>
#> 1 Franciscojavier   123
#> 2 Christopherjohn   118
#> 3 Johnchristopher   118
#> 4 Christopherjame   108
#> 5 Christophermich    52
#> 6 Ryanchristopher    45
#> # … with 28 more rows
```
…
```
str_sub("a", 1, 5)
#> [1] "a"
```

我们可以使用 [`str_sub()`](https://stringr.tidyverse.org/reference/str_sub.xhtml) 和 [`mutate()`](https://dplyr.tidyverse.org/reference/mutate.xhtml) 找出每个名称的第一个和最后一个字母：

```
babynames |> 
  mutate(
    first = str_sub(name, 1, 1),
    last = str_sub(name, -1, -1)
  )
#> # A tibble: 1,924,665 × 7
#>    year sex   name          n   prop first last 
#>   <dbl> <chr> <chr>     <int>  <dbl> <chr> <chr>
#> 1  1880 F     Mary       7065 0.0724 M     y 
#> 2  1880 F     Anna       2604 0.0267 A     a 
#> 3  1880 F     Emma       2003 0.0205 E     a 
#> 4  1880 F     Elizabeth  1939 0.0199 E     h 
#> 5  1880 F     Minnie     1746 0.0179 M     e 
#> 6  1880 F     Margaret   1578 0.0162 M     t 
#> # … with 1,924,659 more rows
```
…
