…
使用索引很重要，因为它允许我们将输入中的每个位置链接到输出中的相应位置：

```
for (i in seq_along(paths)) {
  files[[i]] <- readxl::read_excel(paths[[i]])
}
```

要将 tibbles 列表合并为单个 tibble，可以使用[`do.call()`](https://rdrr.io/r/base/do.call.xhtml) + [`rbind()`](https://rdrr.io/r/base/cbind.xhtml)：

```
do.call(rbind, files)
#> # A tibble: 1,704 × 5
#>   country     continent lifeExp      pop gdpPercap
#>   <chr>       <chr>       <dbl>    <dbl>     <dbl>
#> 1 Afghanistan Asia         28.8  8425333      779.
#> 2 Albania     Europe       55.2  1282697     1601.
#> 3 Algeria     Africa       43.1  9279525     2449.
#> 4 Angola      Africa       30.0  4232095     3521.
#> 5 Argentina   Americas     62.5 17876956     5911.
#> 6 Australia   Oceania      69.1  8691212    10040.
#> # … with 1,698 more rows
```
…
