…
在加载 tidyverse 时，务必注意冲突信息消息的内容。它告诉您，dplyr 覆盖了 base R 中的某些函数。如果您希望在加载 dplyr 后使用这些函数的基本版本，则需要使用它们的全名：[`stats::filter()`](https://rdrr.io/r/stats/filter.xhtml) 和 [`stats::lag()`](https://rdrr.io/r/stats/lag.xhtml)。到目前为止，我们大多数时间忽略了函数来自哪个包，因为大多数情况下这并不重要。然而，知道包的来源可以帮助您找到帮助以及相关函数，因此当我们需要准确指定函数来自哪个包时，我们将使用与 R 相同的语法：`包名::函数名()`。

## nycflights13

要探索基本的 dplyr 动词，我们将使用[`nycflights13::flights`](https://rdrr.io/pkg/nycflights13/man/flights.xhtml)。此数据集包含了 2013 年从纽约市起飞的所有 336,776 架次航班。数据来自美国运输统计局，并在[`?flights`](https://rdrr.io/pkg/nycflights13/man/flights.xhtml)中有详细记录。

```
flights
#> # A tibble: 336,776 × 19
#>    year month   day dep_time sched_dep_time dep_delay arr_time sched_arr_time
#>   <int> <int> <int>    <int>          <int>     <dbl>    <int>          <int>
#> 1  2013     1     1      517            515         2      830            819
#> 2  2013     1     1      533            529         4      850            830
#> 3  2013     1     1      542            540         2      923            850
#> 4  2013     1     1      544            545        -1     1004           1022
#> 5  2013     1     1      554            600        -6      812            837
#> 6  2013     1     1      554            558        -4      740            728
#> # … with 336,770 more rows, and 11 more variables: arr_delay <dbl>,
#> #   carrier <chr>, flight <int>, tailnum <chr>, origin <chr>, dest <chr>, …
```
…
dplyr 的动词按照它们操作的内容分为四组：*行*、*列*、*组* 和 *表*。在接下来的章节中，你将学习行、列和组的最重要的动词；然后我们将回到在第十九章中操作表的连接动词。让我们开始吧！

# 行

操作数据集行的最重要动词是[`filter()`](https://dplyr.tidyverse.org/reference/filter.xhtml)，它更改出现的行而不更改它们的顺序，以及[`arrange()`](https://dplyr.tidyverse.org/reference/arrange.xhtml)，它更改行的顺序而不更改出现的行。这两个函数只影响行，而列保持不变。我们还将讨论[`distinct()`](https://dplyr.tidyverse.org/reference/distinct.xhtml)，它查找具有唯一值的行，但与[`arrange()`](https://dplyr.tidyverse.org/reference/arrange.xhtml)和[`filter()`](https://dplyr.tidyverse.org/reference/filter.xhtml)不同，它还可以选择修改列。

## `filter()`

[`filter()`](https://dplyr.tidyverse.org/reference/filter.xhtml)允许您基于列的值保留行。¹ 第一个参数是数据框。第二个及后续参数是必须为真的条件以保留行。例如，我们可以找到所有延误超过 120 分钟（两小时）的航班：

```
flights |> 
  filter(dep_delay > 120)
#> # A tibble: 9,723 × 19
#>    year month   day dep_time sched_dep_time dep_delay arr_time sched_arr_time
#>   <int> <int> <int>    <int>          <int>     <dbl>    <int>          <int>
#> 1  2013     1     1      848           1835       853     1001           1950
#> 2  2013     1     1      957            733       144     1056            853
#> 3  2013     1     1     1114            900       134     1447           1222
#> 4  2013     1     1     1540           1338       122     2020           1825
#> 5  2013     1     1     1815           1325       290     2120           1542
#> 6  2013     1     1     1842           1422       260     1958           1535
#> # … with 9,717 more rows, and 11 more variables: arr_delay <dbl>,
#> #   carrier <chr>, flight <int>, tailnum <chr>, origin <chr>, dest <chr>, …
```

除了 `>`（大于），您还可以使用 `>=`（大于或等于），`<`（小于），`<=`（小于或等于），`==`（等于）和 `!=`（不等于）。您还可以使用 `&` 或 `,` 结合条件表示“并且”（检查两个条件）或使用 `|` 表示“或”（检查任一条件）：

```
# Flights that departed on January 1
flights |> 
  filter(month == 1 & day == 1)
#> # A tibble: 842 × 19
#>    year month   day dep_time sched_dep_time dep_delay arr_time sched_arr_time
#>   <int> <int> <int>    <int>          <int>     <dbl>    <int>          <int>
#> 1  2013     1     1      517            515         2      830            819
#> 2  2013     1     1      533            529         4      850            830
#> 3  2013     1     1      542            540         2      923            850
#> 4  2013     1     1      544            545        -1     1004           1022
#> 5  2013     1     1      554            600        -6      812            837
#> 6  2013     1     1      554            558        -4      740            728
#> # … with 836 more rows, and 11 more variables: arr_delay <dbl>,
#> #   carrier <chr>, flight <int>, tailnum <chr>, origin <chr>, dest <chr>, …

# Flights that departed in January or February
flights |> 
  filter(month == 1 | month == 2)
#> # A tibble: 51,955 × 19
#>    year month   day dep_time sched_dep_time dep_delay arr_time sched_arr_time
#>   <int> <int> <int>    <int>          <int>     <dbl>    <int>          <int>
#> 1  2013     1     1      517            515         2      830            819
#> 2  2013     1     1      533            529         4      850            830
#> 3  2013     1     1      542            540         2      923            850
#> 4  2013     1     1      544            545        -1     1004           1022
#> 5  2013     1     1      554            600        -6      812            837
#> 6  2013     1     1      554            558        -4      740            728
#> # … with 51,949 more rows, and 11 more variables: arr_delay <dbl>,
#> #   carrier <chr>, flight <int>, tailnum <chr>, origin <chr>, dest <chr>, …
```

当您结合 `|` 和 `==` 时，有一个有用的快捷方式：`%in%`。它保留变量等于右侧值之一的行：

```
# A shorter way to select flights that departed in January or February
flights |> 
  filter(month %in% c(1, 2))
#> # A tibble: 51,955 × 19
#>    year month   day dep_time sched_dep_time dep_delay arr_time sched_arr_time
#>   <int> <int> <int>    <int>          <int>     <dbl>    <int>          <int>
#> 1  2013     1     1      517            515         2      830            819
#> 2  2013     1     1      533            529         4      850            830
#> 3  2013     1     1      542            540         2      923            850
#> 4  2013     1     1      544            545        -1     1004           1022
#> 5  2013     1     1      554            600        -6      812            837
#> 6  2013     1     1      554            558        -4      740            728
#> # … with 51,949 more rows, and 11 more variables: arr_delay <dbl>,
#> #   carrier <chr>, flight <int>, tailnum <chr>, origin <chr>, dest <chr>, …
```
…
```
flights |> 
  filter(month == 1 | 2)
```

这“有效”，意味着它不会报错，但它不会做你想要的事情，因为 `|` 首先检查条件 `month == 1`，然后检查条件 `2`，这不是一个明智的条件。我们将在“布尔运算”中详细了解这里发生的情况和原因。

## `arrange()`

[`arrange()`](https://dplyr.tidyverse.org/reference/arrange.xhtml)根据列的值更改行的顺序。 它接受数据框和一组列名（或更复杂的表达式）来排序。 如果提供多个列名，则每个额外的列将用于打破前面列值的关系。 例如，以下代码按出发时间排序，该时间分布在四列中。 我们首先得到最早的年份，然后在一年内得到最早的月份，等等。

```
flights |> 
  arrange(year, month, day, dep_time)
#> # A tibble: 336,776 × 19
#>    year month   day dep_time sched_dep_time dep_delay arr_time sched_arr_time
#>   <int> <int> <int>    <int>          <int>     <dbl>    <int>          <int>
#> 1  2013     1     1      517            515         2      830            819
#> 2  2013     1     1      533            529         4      850            830
#> 3  2013     1     1      542            540         2      923            850
#> 4  2013     1     1      544            545        -1     1004           1022
#> 5  2013     1     1      554            600        -6      812            837
#> 6  2013     1     1      554            558        -4      740            728
#> # … with 336,770 more rows, and 11 more variables: arr_delay <dbl>,
#> #   carrier <chr>, flight <int>, tailnum <chr>, origin <chr>, dest <chr>, …
```

您可以在[`arrange()`](https://dplyr.tidyverse.org/reference/arrange.xhtml)内部的列上使用[`desc()`](https://dplyr.tidyverse.org/reference/desc.xhtml)来按降序（从大到小）重新排序数据框。 例如，此代码按最长延误的航班排序：

```
flights |> 
  arrange(desc(dep_delay))
#> # A tibble: 336,776 × 19
#>    year month   day dep_time sched_dep_time dep_delay arr_time sched_arr_time
#>   <int> <int> <int>    <int>          <int>     <dbl>    <int>          <int>
#> 1  2013     1     9      641            900      1301     1242           1530
#> 2  2013     6    15     1432           1935      1137     1607           2120
#> 3  2013     1    10     1121           1635      1126     1239           1810
#> 4  2013     9    20     1139           1845      1014     1457           2210
#> 5  2013     7    22      845           1600      1005     1044           1815
#> 6  2013     4    10     1100           1900       960     1342           2211
#> # … with 336,770 more rows, and 11 more variables: arr_delay <dbl>,
#> #   carrier <chr>, flight <int>, tailnum <chr>, origin <chr>, dest <chr>, …
```

请注意，行数没有改变。 我们只是排列数据； 我们没有过滤它。

## distinct()

[`distinct()`](https://dplyr.tidyverse.org/reference/distinct.xhtml)在数据集中找到所有唯一的行，因此在技术上，它主要操作行。 大多数情况下，但是，您将希望某些变量的唯一组合，因此还可以选择提供列名：

```
# Remove duplicate rows, if any
flights |> 
  distinct()
#> # A tibble: 336,776 × 19
#>    year month   day dep_time sched_dep_time dep_delay arr_time sched_arr_time
#>   <int> <int> <int>    <int>          <int>     <dbl>    <int>          <int>
#> 1  2013     1     1      517            515         2      830            819
#> 2  2013     1     1      533            529         4      850            830
#> 3  2013     1     1      542            540         2      923            850
#> 4  2013     1     1      544            545        -1     1004           1022
#> 5  2013     1     1      554            600        -6      812            837
#> 6  2013     1     1      554            558        -4      740            728
#> # … with 336,770 more rows, and 11 more variables: arr_delay <dbl>,
#> #   carrier <chr>, flight <int>, tailnum <chr>, origin <chr>, dest <chr>, …

# Find all unique origin and destination pairs
flights |> 
  distinct(origin, dest)
#> # A tibble: 224 × 2
#>   origin dest 
#>   <chr>  <chr>
#> 1 EWR    IAH 
#> 2 LGA    IAH 
#> 3 JFK    MIA 
#> 4 JFK    BQN 
#> 5 LGA    ATL 
#> 6 EWR    ORD 
#> # … with 218 more rows
```

或者，如果您想在过滤唯一行时保留其他列，可以使用`.keep_all = TRUE`选项：

```
flights |> 
  distinct(origin, dest, .keep_all = TRUE)
#> # A tibble: 224 × 19
#>    year month   day dep_time sched_dep_time dep_delay arr_time sched_arr_time
#>   <int> <int> <int>    <int>          <int>     <dbl>    <int>          <int>
#> 1  2013     1     1      517            515         2      830            819
#> 2  2013     1     1      533            529         4      850            830
#> 3  2013     1     1      542            540         2      923            850
#> 4  2013     1     1      544            545        -1     1004           1022
#> 5  2013     1     1      554            600        -6      812            837
#> 6  2013     1     1      554            558        -4      740            728
#> # … with 218 more rows, and 11 more variables: arr_delay <dbl>,
#> #   carrier <chr>, flight <int>, tailnum <chr>, origin <chr>, dest <chr>, …
```

所有这些独特航班都是在 1 月 1 日，这并非偶然：[`distinct()`](https://dplyr.tidyverse.org/reference/distinct.xhtml)将找到数据集中唯一行的第一次出现并且丢弃其余。

如果您想要找到发生的次数，最好将[`distinct()`](https://dplyr.tidyverse.org/reference/distinct.xhtml)换成[`count()`](https://dplyr.tidyverse.org/reference/count.xhtml)，并且通过`sort = TRUE`参数，您可以按发生次数降序排列它们。 您将在“计数”中了解更多信息。

```
flights |>
  count(origin, dest, sort = TRUE)
#> # A tibble: 224 × 3
#>   origin dest      n
#>   <chr>  <chr> <int>
#> 1 JFK    LAX   11262
#> 2 LGA    ATL   10263
#> 3 LGA    ORD    8857
#> 4 JFK    SFO    8204
#> 5 LGA    CLT    6168
#> 6 EWR    ORD    6100
#> # … with 218 more rows
```
…
# 列

有四个重要的动词会影响列而不改变行：[`mutate()`](https://dplyr.tidyverse.org/reference/mutate.xhtml)创建新列，这些列是从现有列派生出来的；[`select()`](https://dplyr.tidyverse.org/reference/select.xhtml)改变存在的列；[`rename()`](https://dplyr.tidyverse.org/reference/rename.xhtml)改变列的名称；以及[`relocate()`](https://dplyr.tidyverse.org/reference/relocate.xhtml)改变列的位置。

## mutate()

[`mutate()`](https://dplyr.tidyverse.org/reference/mutate.xhtml)的作用是添加新列，这些列是从现有列计算而来的。在后续的转换章节中，您将学习一系列函数，可以用来操作不同类型的变量。目前，我们将继续使用基本的代数，这样可以计算`gain`（延误航班在空中弥补的时间量）和以英里每小时计算的`speed`：

```
flights |> 
  mutate(
    gain = dep_delay - arr_delay,
    speed = distance / air_time * 60
  )
#> # A tibble: 336,776 × 21
#>    year month   day dep_time sched_dep_time dep_delay arr_time sched_arr_time
#>   <int> <int> <int>    <int>          <int>     <dbl>    <int>          <int>
#> 1  2013     1     1      517            515         2      830            819
#> 2  2013     1     1      533            529         4      850            830
#> 3  2013     1     1      542            540         2      923            850
#> 4  2013     1     1      544            545        -1     1004           1022
#> 5  2013     1     1      554            600        -6      812            837
#> 6  2013     1     1      554            558        -4      740            728
#> # … with 336,770 more rows, and 13 more variables: arr_delay <dbl>,
#> #   carrier <chr>, flight <int>, tailnum <chr>, origin <chr>, dest <chr>, …
```

默认情况下，[`mutate()`](https://dplyr.tidyverse.org/reference/mutate.xhtml)会在数据集的右侧添加新列，这使得难以理解正在发生的情况。我们可以使用`.before`参数将变量添加到左侧：

```
flights |> 
  mutate(
    gain = dep_delay - arr_delay,
    speed = distance / air_time * 60,
    .before = 1
  )
#> # A tibble: 336,776 × 21
#>    gain speed  year month   day dep_time sched_dep_time dep_delay arr_time
#>   <dbl> <dbl> <int> <int> <int>    <int>          <int>     <dbl>    <int>
#> 1    -9  370\.  2013     1     1      517            515         2      830
#> 2   -16  374\.  2013     1     1      533            529         4      850
#> 3   -31  408\.  2013     1     1      542            540         2      923
#> 4    17  517\.  2013     1     1      544            545        -1     1004
#> 5    19  394\.  2013     1     1      554            600        -6      812
#> 6   -16  288\.  2013     1     1      554            558        -4      740
#> # … with 336,770 more rows, and 12 more variables: sched_arr_time <int>,
#> #   arr_delay <dbl>, carrier <chr>, flight <int>, tailnum <chr>, …
```
…
匹配包含“ijk”的名称

`num_range("x", 1:3)`

匹配`x1`、`x2`和`x3`

查看[`?select`](https://dplyr.tidyverse.org/reference/select.xhtml)获取更多细节。一旦你掌握了正则表达式（第十五章的主题），你还可以使用[`matches()`](https://tidyselect.r-lib.org/reference/starts_with.xhtml)选择与模式匹配的变量。

你可以在[`select()`](https://dplyr.tidyverse.org/reference/select.xhtml)中通过使用`=`来重命名变量。新名称显示在`=`的左侧，旧变量显示在右侧：

```
flights |> 
  select(tail_num = tailnum)
#> # A tibble: 336,776 × 1
#>   tail_num
#>   <chr> 
#> 1 N14228 
#> 2 N24211 
#> 3 N619AA 
#> 4 N804JB 
#> 5 N668DN 
#> 6 N39463 
#> # … with 336,770 more rows
```

## rename()

如果你想保留所有现有的变量，只想重新命名其中的几个，可以使用[`rename()`](https://dplyr.tidyverse.org/reference/rename.xhtml)，而不是[`select()`](https://dplyr.tidyverse.org/reference/select.xhtml)：

```
flights |> 
  rename(tail_num = tailnum)
#> # A tibble: 336,776 × 19
#>    year month   day dep_time sched_dep_time dep_delay arr_time sched_arr_time
#>   <int> <int> <int>    <int>          <int>     <dbl>    <int>          <int>
#> 1  2013     1     1      517            515         2      830            819
#> 2  2013     1     1      533            529         4      850            830
#> 3  2013     1     1      542            540         2      923            850
#> 4  2013     1     1      544            545        -1     1004           1022
#> 5  2013     1     1      554            600        -6      812            837
#> 6  2013     1     1      554            558        -4      740            728
#> # … with 336,770 more rows, and 11 more variables: arr_delay <dbl>,
#> #   carrier <chr>, flight <int>, tail_num <chr>, origin <chr>, dest <chr>, …
```

如果你有一堆命名不一致的列，并且手动修复它们都很麻烦，可以查看[`janitor::clean_names()`](https://rdrr.io/pkg/janitor/man/clean_names.xhtml)，它提供了一些有用的自动清理功能。

## relocate()

使用[`relocate()`](https://dplyr.tidyverse.org/reference/relocate.xhtml)移动变量。你可能希望将相关变量集中在一起或将重要变量移到前面。默认情况下，[`relocate()`](https://dplyr.tidyverse.org/reference/relocate.xhtml)将变量移到最前面：

```
flights |> 
  relocate(time_hour, air_time)
#> # A tibble: 336,776 × 19
#>   time_hour           air_time  year month   day dep_time sched_dep_time
#>   <dttm>                 <dbl> <int> <int> <int>    <int>          <int>
#> 1 2013-01-01 05:00:00      227  2013     1     1      517            515
#> 2 2013-01-01 05:00:00      227  2013     1     1      533            529
#> 3 2013-01-01 05:00:00      160  2013     1     1      542            540
#> 4 2013-01-01 05:00:00      183  2013     1     1      544            545
#> 5 2013-01-01 06:00:00      116  2013     1     1      554            600
#> 6 2013-01-01 05:00:00      150  2013     1     1      554            558
#> # … with 336,770 more rows, and 12 more variables: dep_delay <dbl>,
#> #   arr_time <int>, sched_arr_time <int>, arr_delay <dbl>, carrier <chr>, …
```
…
# 管道

我们向您展示了管道的简单示例，但其真正的力量是当您开始组合多个动词时。

例如，想象一下，您想找到飞往休斯顿 IAH 机场的快速航班：您需要结合[`filter()`](https://dplyr.tidyverse.org/reference/filter.xhtml)、[`mutate()`](https://dplyr.tidyverse.org/reference/mutate.xhtml)、[`select()`](https://dplyr.tidyverse.org/reference/select.xhtml)和[`arrange()`](https://dplyr.tidyverse.org/reference/arrange.xhtml)：

```
flights |> 
  filter(dest == "IAH") |> 
  mutate(speed = distance / air_time * 60) |> 
  select(year:day, dep_time, carrier, flight, speed) |> 
  arrange(desc(speed))
#> # A tibble: 7,198 × 7
#>    year month   day dep_time carrier flight speed
#>   <int> <int> <int>    <int> <chr>    <int> <dbl>
#> 1  2013     7     9      707 UA         226  522.
#> 2  2013     8    27     1850 UA        1128  521.
#> 3  2013     8    28      902 UA        1711  519.
#> 4  2013     8    28     2122 UA        1022  519.
#> 5  2013     6    11     1628 UA        1178  515.
#> 6  2013     8    27     1017 UA         333  515.
#> # … with 7,192 more rows
```
…
对于简单的情况，`|>`和`%>%`行为完全相同。那么为什么我们推荐基本管道呢？首先，因为它是 base R 的一部分，所以您在不使用 tidyverse 时仍然可以使用它。其次，`|>`比`%>%`简单得多：在 2014 年发明`%>%`和在 2021 年 R 4.1.0 中包含`|>`之间的时间内，我们对管道有了更好的理解。这使得基本实现可以舍弃不常用和不重要的功能。

# 组

到目前为止，你已经学习了如何处理行和列的函数。当你添加对分组的处理能力时，dplyr 变得更加强大。在这一节中，我们将重点介绍最重要的函数：[`group_by()`](https://dplyr.tidyverse.org/reference/group_by.xhtml)，[`summarize()`](https://dplyr.tidyverse.org/reference/summarise.xhtml)以及切片函数系列。

## group_by()

使用[`group_by()`](https://dplyr.tidyverse.org/reference/group_by.xhtml)将数据集分成对你的分析有意义的组：

```
flights |> 
  group_by(month)
#> # A tibble: 336,776 × 19
#> # Groups:   month [12]
#>    year month   day dep_time sched_dep_time dep_delay arr_time sched_arr_time
#>   <int> <int> <int>    <int>          <int>     <dbl>    <int>          <int>
#> 1  2013     1     1      517            515         2      830            819
#> 2  2013     1     1      533            529         4      850            830
#> 3  2013     1     1      542            540         2      923            850
#> 4  2013     1     1      544            545        -1     1004           1022
#> 5  2013     1     1      554            600        -6      812            837
#> 6  2013     1     1      554            558        -4      740            728
#> # … with 336,770 more rows, and 11 more variables: arr_delay <dbl>,
#> #   carrier <chr>, flight <int>, tailnum <chr>, origin <chr>, dest <chr>, …
```

[`group_by()`](https://dplyr.tidyverse.org/reference/group_by.xhtml)不会改变数据，但如果你仔细观察输出，你会注意到输出表明它是按月份分组的（`Groups: month [12]`）。这意味着接下来的操作将按“月份”进行。[`group_by()`](https://dplyr.tidyverse.org/reference/group_by.xhtml)将这种分组特性（称为*class*）添加到数据框中，这会改变对数据应用后续动词时的行为。

## summarize()

最重要的分组操作是摘要，如果用于计算单一摘要统计量，则将数据框减少到每组一个行。在 dplyr 中，这个操作由[`summarize()`](https://dplyr.tidyverse.org/reference/summarise.xhtml)³执行，如下例所示，计算每月的平均出发延误：

```
flights |> 
  group_by(month) |> 
  summarize(
    avg_delay = mean(dep_delay)
  )
#> # A tibble: 12 × 2
#>   month avg_delay
#>   <int>     <dbl>
#> 1     1        NA
#> 2     2        NA
#> 3     3        NA
#> 4     4        NA
#> 5     5        NA
#> 6     6        NA
#> # … with 6 more rows
```
…
