…
# 从多个文件读取数据

有时候你的数据分布在多个文件中，而不是单个文件。例如，你可能有多个月份的销售数据，每个月份的数据保存在单独的文件中：`01-sales.csv` 表示一月，`02-sales.csv` 表示二月，`03-sales.csv` 表示三月。使用 [`read_csv()`](https://readr.tidyverse.org/reference/read_delim.xhtml)，你可以一次性读取这些数据，并将它们堆叠在一个单一的数据框中。

```
sales_files <- c("data/01-sales.csv", "data/02-sales.csv", "data/03-sales.csv")
read_csv(sales_files, id = "file")
#> # A tibble: 19 × 6
#>   file              month    year brand  item     n
#>   <chr>             <chr>   <dbl> <dbl> <dbl> <dbl>
#> 1 data/01-sales.csv January  2019     1  1234     3
#> 2 data/01-sales.csv January  2019     1  8721     9
#> 3 data/01-sales.csv January  2019     1  1822     2
#> 4 data/01-sales.csv January  2019     2  3333     1
#> 5 data/01-sales.csv January  2019     2  2156     9
#> 6 data/01-sales.csv January  2019     2  3987     6
#> # … with 13 more rows
```
…
