…
我们通过在数据对象中存储与四个数据集对应的四个数据框来创建 data_dfs NamedTuple。我们现在想垂直连接（堆叠）这些数据框。在 Julia 中，你可以使用 vcat 函数来完成这个操作：

```
julia> vcat(data_dfs.set1, data_dfs.set2, data_dfs.set3, data_dfs.set4)
44×2 DataFrame
 Row │ x        y       
     │ Float64  Float64
─────┼──────────────────
   1 │    10.0     8.04
   2 │     8.0     6.95
   3 │    13.0     7.58
  :  │    :        :
  42 │     8.0     5.56
  43 │     8.0     7.91
  44 │     8.0     6.89
         38 rows omitted
```

操作的结果是一个单一的数据框，源数据框堆叠在一块。唯一的问题是，我们看不到哪些行来自哪个源数据框。你可以通过传递 source 关键字参数给 vcat 来解决这个问题。如果你传递一个列名作为 source，这个列将存储给定行来自哪个数据框的编号：

```
julia> vcat(data_dfs.set1, data_dfs.set2, data_dfs.set3, data_dfs.set4;
            source="source_id")
44×3 DataFrame
 Row │ x        y        source_id 
     │ Float64  Float64  Int64     
─────┼─────────────────────────────
   1 │    10.0     8.04          1
   2 │     8.0     6.95          1
   3 │    13.0     7.58          1
  :  │    :        :         :
  42 │     8.0     5.56          4
  43 │     8.0     7.91          4
  44 │     8.0     6.89          4
                    38 rows omitted
```

操作完成后，source_id 列包含从 1 到 4 的数字，显示给定行来自哪个源数据框。如果你希望为源数据框使用自定义名称，请将一个包含源列名称和分配给传递的数据框的标识符的 Pair 作为 source 关键字参数传递。以下是一个示例：

```
julia> vcat(data_dfs.set1, data_dfs.set2, data_dfs.set3, data_dfs.set4;
            source="source_id"=>string.("set", 1:4))
44×3 DataFrame
 Row │ x        y        source_id 
     │ Float64  Float64  String    
─────┼─────────────────────────────
   1 │    10.0     8.04  set1
   2 │     8.0     6.95  set1
   3 │    13.0     7.58  set1
  :  │    :        :         :
  42 │     8.0     5.56  set4
  43 │     8.0     7.91  set4
  44 │     8.0     6.89  set4
                    38 rows omitted
```

如果你有很多数据框存储在一个向量中，在 vcat 调用中逐个列出它们可能不太方便。我们可以使用 reduce 函数，传递一个 vcat 作为第一个参数，后面跟着一个数据框向量，如果需要，还可以传递适当的关键字参数。在这种情况下，我们可以使用 collect 函数将 data_dfs NamedTuple 转换为一个数据框对象向量，这样我们就可以使用这个模式。以下是一个示例：

```
julia> reduce(vcat, collect(data_dfs);
              source="source_id"=>string.("set", 1:4))
44×3 DataFrame
 Row │ x        y        source_id 
     │ Float64  Float64  String    
─────┼─────────────────────────────
   1 │    10.0     8.04  set1
   2 │     8.0     6.95  set1
   3 │    13.0     7.58  set1
  :  │    :        :         :
  42 │     8.0     5.56  set4
  43 │     8.0     7.91  set4
  44 │     8.0     6.89  set4
                    38 rows omitted
```
…
