…
This time, the check succeeds. Note that the id of StefanKarpinski is 1358, but it is row number 1359 in our data frame. Let’s fix this off-by-one issue.

Using broadcasting to update the contents of data frames

An important feature we learn from listing 12.3 is that the developer’s identifier (columns id_1 and id_2 in edges_df and column id in classes_df) starts indexing with 0. Let’s increase all the indices by 1 so that they start from 1. This is needed because in section 12.2, we will use these edges to create a graph with the Graphs.jl package, and in this package, nodes in a graph use 1-based indexing, just like standard arrays in Julia. We accomplish the update by using broadcasting:

```
julia> edges_df .+= 1
289003×2 DataFrame
    Row │ id_1   id_2  
        │ Int64  Int64 
────────┼──────────────
      1 │     1  23978
      2 │     2  34527
      3 │     2   2371
   :    │   :      :
 289001 │ 37645   2348
 289002 │ 25880   2348
 289003 │ 25617   2348
    288997 rows omitted
…
我们将通过以下技术来解决这些问题：

+   绘制按开发者的 Web 和机器学习邻居数量组合聚合的数据。这样，对于这些值的每个组合，图表上都将有一个单独的点。

+   手动将图表的轴改为对数尺度。这样，我们将从视觉上解压缩图表的低度部分。

+   向显示的数据添加抖动（随机噪声）以进一步减少由图表上许多点引起的问题。

我们将从数据的聚合开始。我们希望有一个数据框，对于存储在 deg_ml 和 deg_web 列中的每个唯一值组合，它都能给我们提供关于 Web 开发者比例的信息：

```
julia> agg_df = combine(groupby(classes_df, [:deg_ml, :deg_web]),
                        :ml_target => (x -> 1 - mean(x)) => :web_mean)
2103×3 DataFrame
  Row │ deg_ml  deg_web  web_mean 
      │ Int64   Int64    Float64
──────┼───────────────────────────
    1 │      0        1  0.755143
    2 │      0        8  0.952104
    3 │      3        2  0.148148
  :   │   :        :        :
 2101 │     41       14  0.0
 2102 │    101       18  0.0
 2103 │      2      213  1.0
                 2097 rows omitted
```
…
如果我们省略括号，我们会得到以下结果：

```
julia> :ml_target => x -> 1 - mean(x) => :web_mean
:ml_target => var"#29#30"()
```

如您所见，由于 Julia 运算符优先级规则，目标列名被解释为匿名函数定义的一部分，这并非我们的意图。

在我们继续前进之前，看看 DataFramesMeta.jl 语法中相同的操作：

```
julia> @combine(groupby(classes_df, [:deg_ml, :deg_web]),
                :web_mean = 1 - mean(:ml_target))
2103×3 DataFrame
  Row │ deg_ml  deg_web  web_mean 
      │ Int64   Int64    Float64  
──────┼───────────────────────────
    1 │      0        1  0.755143
    2 │      0        8  0.952104
    3 │      3        2  0.148148
  :   │   :        :        :
 2101 │     41       14  0.0
 2102 │    101       18  0.0
 2103 │      2      213  1.0
                 2097 rows omitted
```
…
