…
这次，由于我们将 K 参数作为空字符串而不是数字发送，我们得到了状态中的 ERROR 和一个空字符串作为值。因此，我们的网络服务中的错误处理似乎工作正常。

练习 14.2 创建一个接受包含单个元素 n 的 JSON 有效负载的网络服务，该元素是一个整数。它应该返回一个使用 rand 函数生成的 n 个随机数的向量，格式为 JSON。如果传递的请求不正确，应生成 400 Bad Request 响应。在您的本地计算机上运行此 Web 服务器，并测试它是否按预期工作。

### 14.4.2 在数据框中收集来自网络服务的多个请求的响应

现在我们可以收集 K 从 30 变到 80 时我们的亚洲期权的估值。在下面的代码中，我们首先创建一个数据框，其中每一行存储我们想要检查的 K 的值。此外，在这个数据框中，我们存储我们想要使用的 max_time（在示例中，它被固定为等于 0.25）。

接下来，对于数据框的每一行，我们运行本节讨论的 HTTP.post 函数。为了实现这一点，我们使用 map 函数，将数据框的 K 和 max_time 列作为我们想要迭代的集合传递。我们将从网络服务获取的结果存储在 data 列中。由于获取结果的过程耗时较长，我们使用@show K 宏调用打印我们正在处理的 K 的值。这样，我们可以轻松地观察计算进度。此外，我们打印网络服务生成响应的时间，以确认它确实大约为 0.25 秒：

```
julia> using DataFrames

julia> df = DataFrame(K=30:2:80, max_time=0.25)           ❶
26×2 DataFrame
 Row │ K      max_time
     │ Int64  Float64
─────┼─────────────────
   1 │    30      0.25
   2 │    32      0.25
   3 │    34      0.25
  :  │   :       :
  24 │    76      0.25
  25 │    78      0.25
  26 │    80      0.25
        20 rows omitted
…
K = 78
  0.261515 seconds (194 allocations: 11.906 KiB)
K = 80
  0.269932 seconds (193 allocations: 11.625 KiB)
```

❶ 初始时，数据框用我们想要计算亚洲期权价值的执行价格 K 的值以及每次运行允许的最大计算时间填充

❷ 使用 map 函数，为每个执行价格 K 和计算时间的组合向我们的网络服务发送 POST 请求，并将结果存储在数据框的 data 列中

现在我们的 df 数据框有三个列：K，max_time 和 data。最后一列存储由网络服务返回的数据构建的 JSON3 对象：

```
julia> df
26×3 DataFrame
 Row │ K      max_time  data
     │ Int64  Float64   Object...
─────┼────────────────────────────────────────────────────
   1 │    30      0.25  {\n   "status": "OK",\n    "valu...
   2 │    32      0.25  {\n   "status": "OK",\n    "valu...
   3 │    34      0.25  {\n   "status": "OK",\n    "valu...
  :  │   :       :                      :
  24 │    76      0.25  {\n   "status": "OK",\n    "valu...
  25 │    78      0.25  {\n   "status": "OK",\n    "valu...
  26 │    80      0.25  {\n   "status": "OK",\n    "valu...
                                           20 rows omitted
```
…
现在我们知道我们可以使用 AsTable 作为目标列名称，从 df 数据框的数据列中包含的 JSON 对象的价值元素中展开存储的数据。我们还希望保留 K 列，以了解哪一行代表哪个执行价格的价值。以下是执行所需操作的代码：

```
julia> df2 = select(df, :K, :data => ByRow(x -> x.value) => AsTable)
26×6 DataFrame
 Row │ K      n       mv          lo95        hi95        zero
     │ Int64  Int64   Float64     Float64     Float64     Float64
─────┼────────────────────────────────────────────────────────────────
   1 │    30  420000  20.2203     20.1943     20.2462     0.000795238
   2 │    32  370000  18.3586     18.3309     18.3863     0.0030973
   3 │    34  410000  16.4279     16.4017     16.4541     0.00917805
  :  │   :      :         :           :           :            :
  24 │    76  400000   0.0566558   0.054339    0.0589726  0.988712
  25 │    78  400000   0.0378442   0.035959    0.0397294  0.9924
  26 │    80  390000   0.0256958   0.0241446   0.027247   0.994672
                                                       20 rows omitted
```
…
