…
julia> count(row_selector)
513357
```

sum 函数和 count 函数之间的区别在于，count 要求传递给它的数据是布尔值，并计算真值的数量，而 sum 可以处理任何对加法有意义的定义的数据。由于在 Julia 中，布尔值被视为数字，正如你在第二章中学到的，你可以将它们相加。在这种加法中，true 被认为是 1，false 被认为是 0。

现在我们已经准备好在下一个列表中创建我们所需的数据框了。我们将它称为 good。

列表 9.1 通过索引选择数据框的行和列

```
julia> good = puzzles[row_selector, ["Rating", "Popularity"]]
513357×2 DataFrame
    Row │ Rating  Popularity 
        │ Int64   Int64      
────────┼────────────────────
      1 │   1765          93
      2 │   1525          97
      3 │   1560          88
   :    │   :         :
 513356 │   2069          92
 513357 │   1783          90
          513352 rows omitted
```
…
julia> row1[1]
1765

julia> row1.Rating
1765

julia> row1."Rating"
1765
```

另一方面，如果你选择多行和多列，你会得到一个 DataFrame。你已经在列表 9.1 中看到了这种选择类型：

```
julia> good = puzzles[row_selector, ["Rating", "Popularity"]]
513357×2 DataFrame
    Row │ Rating  Popularity 
        │ Int64   Int64      
────────┼────────────────────
      1 │   1765          93
      2 │   1525          97
      3 │   1560          88
   :    │   :         :
 513356 │   2069          92
 513357 │   1783          90
          513352 rows omitted
```
…
❸ 检查我们是否已经遇到了给定的评级值

❹ 如果我们看到了给定的评级值，则将其索引追加到字典中的现有条目

❺ 如果我们还没有看到给定的评级值，则在字典中创建一个新的条目

让我们回顾一下这段代码的关键部分。在 for 循环中使用的 enumerate(good.Rating)表达式产生(i, rating)元组，其中 i 是一个从 1 开始的计数器，rating 是从 good.Rating 向量中取出的第 i 个值。使用 enumerate 在您需要不仅迭代 rating 的值，还需要迭代次数时很有用。

接下来，我们检查我们得到的评级是否之前已经出现过。如果我们已经在 rating_mapping 字典中有了它，我们就检索映射到这个评级值的索引向量，并使用 push!函数将行号 i 添加到这个向量的末尾。另一方面，如果我们还没有看到给定的评级，我们就在字典中创建一个新的条目，将评级映射到一个只包含单个整数 i 的向量。

让我们尝试获取评级等于 2108 的 rating_mapping 字典中存储的行的数据框：

```
julia> good[rating_mapping[2108], :]
457×2 DataFrame
 Row │ Rating  Popularity 
     │ Int64   Int64
─────┼────────────────────
   1 │   2108          95
   2 │   2108          90
   3 │   2108          90
  :  │   :         :
 456 │   2108          91
 457 │   2108          92
          452 rows omitted
```
…
+   流行度也是基于用户响应样本的一部分。

+   对于不同的评分，我们有不同数量的谜题。

+   我尚未优化 LOESS 模型中的平滑处理（这可以通过在 Loess.loess 函数中使用 span 关键字参数来完成；请参阅 [`github.com/JuliaStats/Loess.jl`](https://github.com/JuliaStats/Loess.jl)）。

更仔细的分析可能会考虑所有这些因素，但我决定省略这种分析，以保持示例简单，并专注于本章中涵盖的索引主题。

练习 9.3 检查在 loess 函数中更改 span 关键字参数值的影响。默认情况下，此参数的值为 0.75。将其设置为 0.25 并向图 9.4 所示的图中添加另一条预测线。使线条为黄色，宽度为 5。

作为本章的最后一个例子，正如之前所承诺的，让我们看看我们如何可以使用 DataFrames.jl 的更高级功能来聚合我们的分析数据，以通过评分获取流行度平均值：

```
julia> combine(groupby(good, :Rating), :Popularity => mean)
1157×2 DataFrame
  Row │ Rating  Popularity_mean 
      │ Int64   Float64
──────┼─────────────────────────
    1 │   1501          91.3822
    2 │   1502          91.8164
    3 │   1503          91.6671
  :   │   :            :
 1156 │   2656          89.6162
 1157 │   2657          89.398
               1152 rows omitted
```
…
