…
如果类型是行人，被捕的概率会高得多。

**练习 13.4**

通过（a）数据帧索引语法和（b）groupby 函数创建训练和测试数据帧。

**解决方案**

```
julia> train2 = owensboro2[owensboro2.train, :]
4832×8 DataFrame
  Row │ arrest  type        v1     v2     v3     v4     dayname    train 
      │ Bool    String15    Bool   Bool   Bool   Bool   Cat...       Bool  
──────┼──────────────────────────────────────────────────────────────────
    1 │   true  pedestrian  false  false  false  false  Thursday    true
    2 │  false  vehicular   false   true  false  false  Sunday      true
  :   │   :         :         :      :      :      :        :        :
 4831 │  false  vehicular    true   true  false   true  Wednesday   true
 4832 │  false  vehicular   false  false  false   true  Wednesday   true
                                                        4828 rows omitted

julia> test2 = owensboro2[.!owensboro2.train, :]
2047×8 DataFrame
  Row │ arrest  type        v1     v2     v3     v4     dayname    train 
      │ Bool    String15    Bool   Bool   Bool   Bool   Cat...       Bool
──────┼──────────────────────────────────────────────────────────────────
    1 │   true  vehicular   false  false  false  false  Tuesday    false
    2 │   true  vehicular   false  false  false  false  Sunday     false
  :   │   :         :         :      :      :      :        :        :
 2046 │  false  vehicular   false  false   true  false  Friday     false
 2047 │  false  vehicular   false  false  false  false  Wednesday  false
                                                        2043 rows omitted
…
