…
```
julia> agg_violation = @chain owensboro begin
           select(:violation =>
                  ByRow(x -> strip.(split(x, ";"))) =>
                  :v)                           ❶
           flatten(:v)                          ❷
           select(:v =>
                  ByRow(x -> contains(x, "SPEEDING") ? "SPEEDING" : x) =>
                  :v)                           ❸
           groupby(:v)
           combine(nrow => :count)              ❹
           sort(:count, rev=true)               ❺
       end
245×2 DataFrame
 Row │ v                                  count 
     │ Abstract...                          Int64 
─────┼──────────────────────────────────────────
   1 │ FAILURE TO WEAR SEAT BELTS          2689
   2 │ NO REGISTRATION PLATES              1667
   3 │ FAILURE TO PRODUCE INSURANCE CARD   1324
   4 │ SPEEDING                            1067
  :  │                  :                    :
 242 │ IMPROPER USE OF RED LIGHTS             1
 243 │ DISPLAY OF ILLEGAL/ALTERED REGIS...      1
 244 │ TRAFF IN CONT SUB, 2ND DEGREE, 1...      1
 245 │ UUTHORIZED USE OF MOTOR VEHICLE-...      1
                                237 rows omitted
```
…
+   四个布尔列，v1、v2、v3 和 v4，指示被警察拦截的四个最常见原因。在这种情况下，我使用简短的列名以节省输出中的水平空间。

下面的列表展示了创建所需数据框的转换语法。

列表 13.6 准备预测模型所需的数据

```
julia> owensboro2 = select(owensboro,
           :arrest_made => :arrest,                           ❶
           :date => ByRow(dayofweek) => :day,                 ❷
           :type,                                             ❸
           [:violation =>                                     ❹
            ByRow(x -> contains(x, agg_violation.v[i])) =>    ❹
            "v$i" for i in 1:4])                              ❹
6921×7 DataFrame
  Row │ arrest  day    type        v1     v2     v3     v4    
      │ Bool    Int64  String15?   Bool   Bool   Bool   Bool
──────┼───────────────────────────────────────────────────────
    1 │   true      4  pedestrian  false  false  false  false
    2 │  false      7  vehicular   false   true  false  false
    3 │   true      7  vehicular   false  false  false  false
    4 │   true      2  vehicular   false  false  false  false
  :   │   :       :        :         :      :      :      :
 6918 │  false      3  vehicular   false  false  false   true
 6919 │  false      3  vehicular    true   true  false   true
 6920 │  false      3  vehicular   false  false  false   true
 6921 │  false      3  vehicular   false  false  false  false
                                             6913 rows omitted
```
…
我们首先创建一个 weekdays 数据框，存储天数和天名之间的映射。我们通过使用 dayname 函数创建一个天名字段，该函数返回给定天数的文本名称。接下来，使用 categorical 函数将此列转换为分类列，并通过传递 ordered=true 关键字参数使其有序。接下来，我们检查该列是否有序并检查其级别。如你所见，级别默认按字母顺序排序。为了解决这个问题，我们使用 levels! 函数将天数的顺序设置为与天数顺序相同。该函数将分类数组作为第一个参数，将包含新级别排序的向量作为第二个参数。

你可能会问，使用分类数组来表示天名有什么好处。一个好处是，这样我们可以清楚地向用户表明该列包含一个封闭的允许值集合。然而，还存在另一个重要的好处。稍后，如果我们使用对值顺序敏感的函数（例如，排序），它们将尊重我们为分类向量设置的顺序。

### 13.3.3 数据框连接

在本节中，你将学习 DataFrames.jl 提供的函数，这些函数允许你将多个数据框连接在一起。

我们有一个将天数映射到分类天名的映射，但如何将它们放入我们的 owensboro2 数据框中呢？这可以通过将 owensboro2 数据框与 weekdays 数据框进行连接来实现。在这种情况下，我们需要执行一个左连接，我们希望在原地执行该操作——也就是说，我们希望将列添加到 owensboro2 数据框中。完成此操作的是 leftjoin! 函数，我们通过传递 on 关键字参数指定执行连接的列名（这是一个存储执行连接时应使用的键的列）。在操作的结果中，owensboro2 数据框包含我们在 13.6 列表中放入的所有列（即，arrest、day、type、v1、v2、v3 和 v4），并且还添加了从连接的 weekdays 数据框中添加的 dayname 列：

```
julia> leftjoin!(owensboro2, weekdays; on=:day)
6921×8 DataFrame
  Row │ arrest  day    type        v1     v2     v3     v4     dayname
      │ Bool    Int64  String15?   Bool   Bool   Bool   Bool   Cat...?
──────┼──────────────────────────────────────────────────────────────────
    1 │   true      4  pedestrian  false  false  false  false  Thursday
    2 │  false      7  vehicular   false   true  false  false  Sunday
    3 │   true      7  vehicular   false  false  false  false  Sunday
    4 │   true      2  vehicular   false  false  false  false  Tuesday
  :   │   :       :        :         :      :      :      :        :
 6918 │  false      3  vehicular   false  false  false   true  Wednesday
 6919 │  false      3  vehicular    true   true  false   true  Wednesday
 6920 │  false      3  vehicular   false  false  false   true  Wednesday
 6921 │  false      3  vehicular   false  false  false  false  Wednesday
                                                        6913 rows omitted
```
…
stack 函数将宽格式数据转换为长格式。[:a, :b]列选择器表示哪些列应转换为变量-值对。unstack 函数执行相反的操作。我们向它传递信息：哪些列应标识未展开数据框中的行（键，在我们的例子中），哪个列包含列名（变量，在我们的例子中），以及哪个列包含要放入行-列组合中的值（值，在我们的例子中）。

### 13.3.5 删除包含缺失值的数据框的行

数据准备建模的最后一步与缺失值有关。在列表 13.1 中，我们可以看到类型列有 42 个缺失元素。假设我们想在分析之前从 owensboro2 数据框中删除它们。这可以通过使用 dropmissing!函数就地完成：

```
julia> dropmissing!(owensboro2)
6879×8 DataFrame
  Row │ arrest  day    type        v1     v2     v3     v4     dayname   
      │ Bool    Int64  String15    Bool   Bool   Bool   Bool   Cat...        ❶
──────┼──────────────────────────────────────────────────────────────────
    1 │   true      4  pedestrian  false  false  false  false  Thursday
    2 │  false      7  vehicular   false   true  false  false  Sunday
    3 │   true      7  vehicular   false  false  false  false  Sunday
    4 │   true      2  vehicular   false  false  false  false  Tuesday
  :   │   :       :        :         :      :      :      :        :
 6876 │  false      3  vehicular   false  false  false   true  Wednesday
 6877 │  false      3  vehicular    true   true  false   true  Wednesday
 6878 │  false      3  vehicular   false  false  false   true  Wednesday
 6879 │  false      3  vehicular   false  false  false  false  Wednesday
                                                        6871 rows omitted
```

❶ 所有元素类型在其末尾都没有?，这表示没有列包含缺失数据。

该操作就地更改数据框。如果我们想创建一个新的数据框，其中包含删除的缺失值，我们可以使用 dropmissing 函数。注意，现在数据框有 6,879 行，比原始的 6,921 行减少了 42 行，正如预期的那样。

此外，我们可以轻松地通过视觉确认没有列包含缺失数据。如果你查看列表 13.6，你可以看到列的类型元素是 String15?，而现在它是 String15。类型后面附加的问号表示该列允许缺失值。由于它现在已经消失了，这意味着在 dropmissing!操作之后，我们的数据框没有缺失值。

练习 13.3 为了练习你在本节中学到的操作，准备以下两个分析。首先，计算每天的名字列的逮捕概率。其次，再次计算逮捕概率，但这次是按 dayname 和 type 列计算的，并以宽表形式呈现结果，其中 dayname 级别是行，type 值是列。

在我们继续前进之前，让我们从 owensboro2 中删除 day 列，因为我们将在进一步的分析中不需要它：

```
julia> select!(owensboro2, Not(:day))
6879×7 DataFrame
  Row │ arrest  type        v1     v2     v3     v4     dayname   
      │ Bool    String15    Bool   Bool   Bool   Bool   Cat...      
──────┼───────────────────────────────────────────────────────────
    1 │   true  pedestrian  false  false  false  false  Thursday
    2 │  false  vehicular   false   true  false  false  Sunday
  :   │   :         :         :      :      :      :        :
 6878 │  false  vehicular   false  false  false   true  Wednesday
 6879 │  false  vehicular   false  false  false  false  Wednesday
                                                 6875 rows omitted
```
…
❶ 设置随机数生成器的种子，以确保实验的可重复性

❷ 从成功概率为 0.7 的伯努利分布中抽取随机数

我们可以看到，在大约 70%的情况下，train 列的值为 true，表示该行应该进入训练数据集。当值为 false 时，该行进入测试数据集。在生成 train 列时，我们从伯努利分布([`mng.bz/Xaql`](http://mng.bz/Xaql))中以 0.7 的成功概率抽取 true 和 false 值。伯努利类型在 Distributions.jl 包中定义。这个包提供了你可能在代码中想要使用的广泛分布——包括单变量（如 Beta 或 Binomial）和多变量（如 Multinomial 或 Dirichlet）。有关详细信息，请参阅包文档([`juliastats.org/Distributions.jl/stable/`](https://juliastats.org/Distributions.jl/stable/))。

该包的设计高度可组合。例如，如果你想从一个分布中抽取一个随机样本，你可以将其作为第一个参数传递给标准的 rand 函数。在列表 13.10 中，我们编写了 rand(Bernoulli(0.7), nrow(owensboro2))来从伯努利分布中抽取与 owensboro2 数据框行数相同的次数。

在下一个列表中，我们创建了包含 owensboro2 数据框具有 true 和 false 值的行的 train 和测试数据框。

列表 13.11 创建训练和测试数据框

```
julia> train = subset(owensboro2, :train)
4832×8 DataFrame
  Row │ arrest  type        v1     v2     v3     v4     dayname    train 
      │ Bool    String15    Bool   Bool   Bool   Bool   Cat...       Bool  
──────┼──────────────────────────────────────────────────────────────────
    1 │   true  pedestrian  false  false  false  false  Thursday    true
    2 │  false  vehicular   false   true  false  false  Sunday      true
  :   │   :         :         :      :      :      :        :        :
 4831 │  false  vehicular    true   true  false   true  Wednesday   true
 4832 │  false  vehicular   false  false  false   true  Wednesday   true
                                                        4828 rows omitted

julia> test = subset(owensboro2, :train => ByRow(!))
2047×8 DataFrame
  Row │ arrest  type        v1     v2     v3     v4     dayname    train 
      │ Bool    String15    Bool   Bool   Bool   Bool   Cat...       Bool
──────┼──────────────────────────────────────────────────────────────────
    1 │   true  vehicular   false  false  false  false  Tuesday    false
    2 │   true  vehicular   false  false  false  false  Sunday     false
  :   │   :         :         :      :      :      :        :        :
 2046 │  false  vehicular   false  false   true  false  Friday     false
 2047 │  false  vehicular   false  false  false  false  Wednesday  false
                                                        2043 rows omitted
```

注意，train 数据框中的 train 列只包含真实值，而在测试数据框中，它只包含假值。为了执行行子集操作，这次我们使用 subset 函数，该函数根据传递的条件创建一个新的数据框。像往常一样，它的 subset! 等价函数在原地操作。subset 函数接受操作指定语法，就像 combine 或 select 一样。唯一的区别是它需要不指定目标列名的形式，因为我们不是创建任何列，而是在子集行。当然，操作的结果必须是布尔值，因为我们将其用作子集行的条件。

对于接受操作指定语法的其他函数，DataFramesMeta.jl 提供了 @subset、@subset!、@rsubset 和 @rsubset! 便利宏。回想一下，r 前缀意味着传递的操作应该按行执行，而 ! 后缀意味着我们想要原地更新数据框而不是创建一个新的数据框。让我们使用 @rsubset 宏再次创建测试数据框作为练习：

```
julia> @rsubset(owensboro2, !(:train))
2047×8 DataFrame
  Row │ arrest  type        v1     v2     v3     v4     dayname    train 
      │ Bool    String15    Bool   Bool   Bool   Bool   Cat...       Bool  
──────┼──────────────────────────────────────────────────────────────────
    1 │   true  vehicular   false  false  false  false  Tuesday    false
    2 │   true  vehicular   false  false  false  false  Sunday     false
  :   │   :         :         :      :      :      :        :        :
 2046 │  false  vehicular   false  false   true  false  Friday     false
 2047 │  false  vehicular   false  false  false  false  Wednesday  false
                                                        2043 rows omitted
```
…
