…
如今，图被定义为一个有序对 <math><mrow><mi>G</mi> <mo>=</mo> <mo>(</mo> <mi>V</mi> <mo>,</mo> <mi>E</mi> <mo>)</mo></mrow></math>，其中 <math><mi>V</mi></math> 是顶点（节点或点）的集合，<math><mrow><mi>E</mi> <mo>⊆</mo> <mo>{</mo> <mrow><mo>{</mo> <mi>x</mi> <mo>,</mo> <mi>y</mi> <mo>}</mo></mrow> <mo>|</mo> <mrow><mo>(</mo> <mi>x</mi> <mo>,</mo> <mi>y</mi> <mo>)</mo></mrow> <mo>∈</mo> <msup><mi mathvariant="normal">V</mi> <mn>2</mn></msup> <mo>∧</mo> <mi>x</mi> <mo>≠</mo> <mi>y</mi> <mo>}</mo></mrow></math> 是边（链接或线）的集合，它们可以是无序对（用于 *无向图*）或有序对（用于 *有向图*）。前者描述的是方向无关的链接，而后者描述的是方向相关的链接。

作为一个简单的例子，我们可以使用 `ggraph` 包中的 `highschool` 数据集，该数据集跟踪高中男孩之间的友谊关系。在这个数据集中，顶点是学生，边描述的是在特定年份中成为朋友的学生对：

```
install.packages("ggraph")
install.packages("igraph")
```

```
ggraph::highschool
```

```
# A tibble: 506 x 3
    from    to  year
   <dbl> <dbl> <dbl>
 1     1    14  1957
 2     1    15  1957
 3     1    21  1957
 4     1    54  1957
 5     1    55  1957
 6     2    21  1957
 7     2    22  1957
 8     3     9  1957
 9     3    15  1957
10     4     5  1957
# … with 496 more rows
```
…
