…
lda_model <-  ml_lda(essays, ~ words, k = 6, max_iter = 1, min_token_length = 4,
                     stop_words = stop_words, min_df = 5)
```

我们还包括一个 `stop_words` 向量，包含常用的英语单词和数据集中常见的单词，指示算法忽略它们。模型拟合后，我们可以使用 `tidy()` 函数从模型中提取相关的 beta 值，即每个主题每个单词的概率。

```
betas <- tidy(lda_model)
betas
```

```
# A tibble: 256,992 x 3
   topic term      beta
   <int> <chr>    <dbl>
 1     0 know      303.
 2     0 work      250.
 3     0 want      367.
 4     0 books     211.
 5     0 family    213.
 6     0 think     291.
 7     0 going     160.
 8     0 anything  292.
 9     0 enjoy     145.
10     0 much      272.
# … with 256,982 more rows
```
…
