…
`stream_generate_test()` 默认创建一个单一的数值变量 DataFrame。

```
readr::read_csv("source/stream_5.csv")
```

```
## # A tibble: 1,489 x 1
##        x
##    <dbl>
##  1   630
##  2   631
##  3   632
##  4   633
##  5   634
##  6   635
##  7   636
##  8   637
##  9   638
## 10   639
## # ... with 1,479 more rows
```
…
