…
ineq(f)
## [1] 0.4263158
```

因此，最后这个人的收入是其他所有人收入的两倍多，因此基尼系数因此大幅上升至 0.43。

现在，在下面的代码块中，我们将我们工作数据集的最新版本 gini4 传递给`dplyr::group_by()`和`summarize()`函数以及`ineq()`函数，以根据变量`season_end`中的每个剩余因素计算基尼系数。结果被转换成一个名为 gini_summary 的 tibble。通过调用基础 R 的`round()`函数，我们限制结果只包含小数点后两位数字：

```
gini4 %>%
  group_by(season_end) %>%
  summarize(gc = round(ineq(salary), digits = 2)) -> gini_summary
print(gini_summary)
## # A tibble: 28 × 2
##    season_end    gc
##    <fct>      <dbl>
##  1 1991        0.41
##  2 1992        0.41
##  3 1993        0.41
##  4 1994        0.39
##  5 1995        0.42
##  6 1996        0.45
##  7 1997        0.52
##  8 1998        0.51
##  9 1999        0.49
## 10 2000        0.5 
## # ... with 18 more rows
```
…
