…
现在我们知道数据处于良好状态，我们可以通过计算基尼系数来开始我们的分析。

## 13.4 基尼系数

再次强调，基尼系数是经常报道的不平等度量，通常是在某些人口中的收入不平等，其中系数等于 0 表示完全平等的状态，系数等于 1 表示完全不平等的状态。在第十二章中，我们计算基尼系数来衡量薪酬不平等；在这里，我们将计算基尼系数来衡量赢分不平等。

在下一块代码中，我们将 ws_gini2 传递给`dplyr group_by()`和`summarize()`函数，以计算变量`Year`中每个级别的联赛基尼系数。`ineq`包中的`ineq`函数否则正在做我们的重活，通过一个名为`gc`的新变量返回年度基尼系数，四舍五入到小数点后两位。我们的结果被转换为一个名为 ws_gini_summary 的 tibble。

```
ws_gini2 %>%
  group_by(Year) %>%
  summarize(gc = round(ineq(WS), digits = 2)) -> ws_gini_summary
print(ws_gini_summary)
## # A tibble: 27 × 2
##    Year     gc
##    <fct> <dbl>
##  1 1991   0.56
##  2 1992   0.56
##  3 1993   0.54
##  4 1994   0.54
##  5 1995   0.53
##  6 1996   0.54
##  7 1997   0.55
##  8 1998   0.53
##  9 1999   0.55
## 10 2000   0.53
## # ... with 17 more rows
```
…
