…
由于我们指示 R 执行逻辑运算，我们得到了条件等于`TRUE`和`FALSE`的年度计数。我们不需要也不需要任何逻辑条件等于`FALSE`的记录；下一块代码中的前两行提取了`churn_tbl`中的偶数行。

第一行代码创建了一个虚拟指示器，将每一行分解为偶数或奇数。`seq_len()`函数是一个基础 R 函数，它从 1 开始创建一个序列，在这个例子中，结束于 54，这等于`churn_tbl`行的数量；`%%`运算符是取模运算符，当`churn_tbl`行数除以 2 时，返回 1 或 0。第二行代码随后提取偶数行，或者`row_odd`等于 0 的行。

然后，我们调用`select()`函数来对`Season`和`n`变量进行子集化`churn_tbl`；`print()`函数打印出每个`churn_tbl`记录：

```
row_odd <- seq_len(nrow(churn_tbl)) %% 2 
churn_tbl[row_odd == 0, ] -> churn_tbl
churn_tbl %>%
  select(Season, n) -> churn_tbl
print(churn_tbl)
## # A tibble: 27 × 2
## # Groups:   Season [27]
##    Season      n
##    <chr>   <int>
##  1 1971-72     1
##  2 1972-73     2
##  3 1973-74     1
##  4 1974-75     4
##  5 1975-76     3
##  6 1976-77     3
##  7 1977-78     3
##  8 1978-79     3
##  9 1979-80     3
## 10 1980-81     2
## # ... with 17 more rows
```
…
