…
harden_final %>%
  group_by(date) %>%
  slice(-1) -> harden_final

dim(harden_final)
## [1] 793   7

harden_final %>%
  filter(lag(points) == 1) %>%
  group_by(streak) %>%
  summarize(makes = sum(points == 1), 
            misses = sum(points == 0)) -> harden_tbl1
print(harden_tbl1)
## # A tibble: 23 × 3
##    streak makes misses
##     <int> <int>  <int>
##  1      1    70     13
##  2      2   104     17
##  3      3    86     12
##  4      4    66     14
##  5      5    46      8
##  6      6    35      7
##  7      7    27      4
##  8      8    19      4
##  9      9    16      1
## 10     10    13      2
## # ... with 13 more rows

harden_tbl1 %>%
  mutate(pct = makes / (makes + misses) * 100) -> harden_tbl2
print(harden_tbl2)
## # A tibble: 23 × 4
##    streak makes misses   pct
##     <int> <int>  <int> <dbl>
##  1      1    70     13  84.3
##  2      2   104     17  86.0
##  3      3    86     12  87.8
##  4      4    66     14  82.5
##  5      5    46      8  85.2
##  6      6    35      7  83.3
##  7      7    27      4  87.1
##  8      8    19      4  82.6
##  9      9    16      1  94.1
## 10     10    13      2  86.7
## # ... with 13 more rows
```
…
ft_final %>%
  group_by(date, player) %>%
  slice(-1) -> ft_final

ft_final %>% 
  filter(lag(points) == 1) %>%
  group_by(streak) %>%
  summarize(makes = sum(points == 1), 
            misses = sum(points == 0)) -> ft_tbl1
print(ft_tbl1)
## # A tibble: 23 × 3
##    streak makes misses
##     <int> <int>  <int>
##  1      1  3209    980
##  2      2  5285   1386
##  3      3  3257    774
##  4      4  1796    399
##  5      5  1110    225
##  6      6   645    130
##  7      7   404     68
##  8      8   245     42
##  9      9   151     21
## 10     10    90     13
## # ... with 13 more rows

ft_tbl1 %>%
  mutate(pct = makes / (makes + misses) * 100) -> ft_tbl2
print(ft_tbl2)
## # A tibble: 23 × 4
##    streak makes misses   pct
##     <int> <int>  <int> <dbl>
##  1      1  3209    980  76.6
##  2      2  5285   1386  79.2
##  3      3  3257    774  80.8
##  4      4  1796    399  81.8
##  5      5  1110    225  83.1
##  6      6   645    130  83.2
##  7      7   404     68  85.6
##  8      8   245     42  85.4
##  9      9   151     21  87.8
## 10     10    90     13  87.4
## # ... with 13 more rows
```
…
