…
In the book repository, you will find a file called aia-book.Rproj. This is an RStudio project file. A project is a great way to preserve your work; for example, the project will maintain the configuration of windows and files that you had open in RStudio when you left. In addition, the project will automatically set your working directory to the project directory, so that you won’t need a hardcoded setwd() for each script. When you work with R in this repository, then, consider doing so via the .Rproj file. You can then open any file via the Files pane in the lower right pane of RStudio.

Now that you have the hang of locating files in R, let’s actually read some in. The book repository contains a  datasets folder, under which is a star subfolder. This  contains, among other things, two files: districts.csv and star.xlsx.

To read in .csv files, we can use the read_csv() function from readr. This package is part of the tidyverse collection, so we don’t need to install or load anything new. We will pass the location of the file into the function. (Do you see now why understanding working directories and file paths was helpful?)

read_csv('datasets/star/districts.csv')
#>-- Column specification ---------------------------
#> cols(
#>  schidkn = col_double(),
#>  school_name = col_character(),
#>  county = col_character()
#> )
#>
#> # A tibble: 89 x 3
#>   schidkn school_name     county
#>     <dbl> <chr>           <chr>
#> 1       1 Rosalia         New Liberty
#> 2       2 Montgomeryville Topton
#> 3       3 Davy            Wahpeton
#> 4       4 Steelton        Palestine
#> 5       5 Bonifay         Reddell
#> 6       6 Tolchester      Sattley
#> 7       7 Cahokia         Sattley
#> 8       8 Plattsmouth     Sugar Mountain
#> 9       9 Bainbridge      Manteca
#>10      10 Bull Run        Manteca
#> # ... with 79 more rows

RStudio’s Import Dataset Wizard

If you are struggling to import a dataset, try RStudio’s menu-driven data importer by heading to File → Import Dataset. You will be presented with a series of options to walk you through the process, including the ability to navigate to the source file via your computer’s file explorer.

This results in a fair amount of output. First, our columns are specified, and we’re told which functions were used to parse the data into R. Next, the first few rows of the data are listed, as a tibble. This is a modernized take on the data frame. It’s still a data frame, and behaves mostly like a data frame, with some modifications to make it easier to work with, especially within the tidyverse.

Although we were able to read our data into R, we won’t be able to do much with it unless we assign it to an object:

districts <- read_csv('datasets/star/districts.csv')

Among its many benefits, one nice thing about the tibble is we can print it without having to worry about overwhelming the console output; the first 10 rows only are printed:

districts
#> # A tibble: 89 x 3
#>   schidkn school_name     county
#>     <dbl> <chr>           <chr>
#> 1       1 Rosalia         New Liberty
#> 2       2 Montgomeryville Topton
#> 3       3 Davy            Wahpeton
#> 4       4 Steelton        Palestine
#> 5       5 Bonifay         Reddell
#> 6       6 Tolchester      Sattley
#> 7       7 Cahokia         Sattley
#> 8       8 Plattsmouth     Sugar Mountain
#> 9       9 Bainbridge      Manteca
#> 10      10 Bull Run        Manteca
#> # ... with 79 more rows
…
