…
This is great, but what we really want to know is how well this model performs when we apply it to a new dataset; this is where the test split comes in. To make predictions on mpg_test, we’ll use the predict() function. I will also use bind_cols() to add the column of predicted Y-values to the data frame. This column by default will be called .pred.

mpg_results <- predict(lm_fit, new_data = mpg_test) %>%
  bind_cols(mpg_test)

mpg_results
#> # A tibble: 98 x 6
#>    .pred   mpg weight horsepower origin cylinders
#>    <dbl> <dbl>  <dbl>      <dbl> <chr>      <dbl>
#>  1  20.0    16   3433        150 USA            8
#>  2  16.7    15   3850        190 USA            8
#>  3  25.2    18   2774         97 USA            6
#>  4  30.3    27   2130         88 Asia           4
#>  5  28.0    24   2430         90 Europe         4
#>  6  21.0    19   3302         88 USA            6
#>  7  14.2    14   4154        153 USA            8
#>  8  14.7    14   4096        150 USA            8
#>  9  29.6    23   2220         86 USA            4
#> 10  29.2    24   2278         95 Asia           4
#> # ... with 88 more rows
…
