…
Aggregates values for each group

left_join()

Joins matching records from Table B to Table A; result is NA if no match found in Table B

For the sake of brevity, I won’t cover all of the functions of dplyr or even all the ways to use the functions that we do cover. To learn more about the package, check out R for Data Science by Hadley Wickham and Garrett Grolemund (O’Reilly). You can also access a helpful cheat sheet summarizing how the many functions of dplyr work together by navigating in RStudio to Help → Cheatsheets → Data Transformation with dplyr.

Column-Wise Operations

Selecting and dropping columns in Excel often requires hiding or deleting them. This can be difficult to audit or reproduce, because hidden columns are easily overlooked, and deleted columns aren’t easily recovered. The select() function can be used to choose given columns from a data frame in R. For select(), as with each of these functions, the first argument will be which data frame to work with. Additional arguments are then provided to manipulate the data in that data frame. For example, we can select tmathssk, treadssk, and schidkin from star like this:

select(star, tmathssk, treadssk, schidkn)
#> # A tibble: 5,748 x 3
#>    tmathssk treadssk schidkn
#>       <dbl>    <dbl>   <dbl>
#>  1      473      447      63
#>  2      536      450      20
#>  3      463      439      19
#>  4      559      448      69
#>  5      489      447      79
#>  6      454      431       5
#>  7      423      395      16
#>  8      500      451      56
#>  9      439      478      11
#> 10      528      455      66
#> # ... with 5,738 more rows
…
Figure 8-1. The Custom Sort menu in Excel

We can replicate this in dplyr by using the arrange() function, including each column in the order in which we want the data frame sorted:

arrange(star, classk, treadssk)
#> # A tibble: 5,748 x 5
#>    tmathssk treadssk classk  totexpk ttl_score
#>       <dbl>    <dbl> <chr>     <dbl>     <dbl>
#>  1      320      315 regular       3       635
#>  2      365      346 regular       0       711
#>  3      384      358 regular      20       742
#>  4      384      358 regular       3       742
#>  5      320      360 regular       6       680
#>  6      423      376 regular      13       799
#>  7      418      378 regular      13       796
#>  8      392      378 regular      13       770
#>  9      392      378 regular       3       770
#> 10      399      380 regular       6       779
#> # ... with 5,738 more rows
…
Excel tables include helpful drop-down menus to filter any column by given conditions. To filter a data frame in R, we’ll use the aptly named filter() function. Let’s filter star to keep only the records where classk is equal to small.class. Remember that because we are checking for equality rather than assigning an object, we’ll have to use == and not = here:

filter(star, classk == 'small.class')
#> # A tibble: 1,733 x 5
#>    tmathssk treadssk classk      totexpk ttl_score
#>       <dbl>    <dbl> <chr>         <dbl>     <dbl>
#>  1      473      447 small.class       7       920
#>  2      536      450 small.class      21       986
#>  3      489      447 small.class       5       936
#>  4      439      478 small.class      11       917
#>  5      528      455 small.class      10       983
#>  6      559      474 small.class       0      1033
#>  7      494      424 small.class       6       918
#>  8      478      422 small.class       8       900
#>  9      602      456 small.class      14      1058
#> 10      439      418 small.class       8       857
#> # ... with 1,723 more rows

We can see from the tibble output that our filter() operation only affected the number of rows, not the columns. Now we’ll find the records where treadssk is at least 500:

filter(star, treadssk >= 500)
#> # A tibble: 233 x 5
#>    tmathssk treadssk classk            totexpk ttl_score
#>       <dbl>    <dbl> <chr>               <dbl>     <dbl>
#>  1      559      522 regular                 8      1081
#>  2      536      507 regular.with.aide       3      1043
#>  3      547      565 regular.with.aide       9      1112
#>  4      513      503 small.class             7      1016
#>  5      559      605 regular.with.aide       5      1164
#>  6      559      554 regular                14      1113
#>  7      559      503 regular                10      1062
#>  8      602      518 regular                12      1120
#>  9      536      580 small.class            12      1116
#> 10      626      510 small.class            14      1136
#> # ... with 223 more rows

It’s possible to filter by multiple conditions using the & operator for “and” along with the | operator for “or.” Let’s combine our two criteria from before with &:

# Get records where classk is small.class and
# treadssk is at least 500
filter(star, classk == 'small.class' & treadssk >= 500)
#> # A tibble: 84 x 5
#>    tmathssk treadssk classk      totexpk ttl_score
#>       <dbl>    <dbl> <chr>         <dbl>     <dbl>
#>  1      513      503 small.class       7      1016
#>  2      536      580 small.class      12      1116
#>  3      626      510 small.class      14      1136
#>  4      602      518 small.class       3      1120
#>  5      626      565 small.class      14      1191
#>  6      602      503 small.class      14      1105
#>  7      626      538 small.class      13      1164
#>  8      500      580 small.class       8      1080
#>  9      489      565 small.class      19      1054
#> 10      576      545 small.class      19      1121
#> # ... with 74 more rows
…
It appears that what’s needed is like a VLOOKUP(): we want to “read in” the school_name (and possibly the county) variables from districts into star, given the shared schidkn variable. To do this in R, we’ll use the methodology of joins, which comes from relational databases, a topic that was touched on in Chapter 5. Closest to a VLOOKUP() is the left outer join, which can be done in dplyr with the left_join() function. We’ll provide the “base” table first (star) and then the “lookup” table (districts). The function will look for and return a match in districts for every record in star, or return NA if no match is found. I will keep only some columns from star for less overwhelming console output:

# Left outer join star on districts
left_join(select(star, schidkn, tmathssk, treadssk), districts)
#> Joining, by = "schidkn"
#> # A tibble: 5,748 x 5
#>    schidkn tmathssk treadssk school_name     county
#>      <dbl>    <dbl>    <dbl> <chr>           <chr>
#>  1      63      473      447 Ridgeville      New Liberty
#>  2      20      536      450 South Heights   Selmont
#>  3      19      463      439 Bunnlevel       Sattley
#>  4      69      559      448 Hokah           Gallipolis
#>  5      79      489      447 Lake Mathews    Sugar Mountain
#>  6       5      454      431 NA              NA
#>  7      16      423      395 Calimesa        Selmont
#>  8      56      500      451 Lincoln Heights Topton
#>  9      11      439      478 Moose Lake      Imbery
#> 10      66      528      455 Siglerville     Summit Hill
#> # ... with 5,738 more rows
…
