…
The triumph of tibbles

So far, we’ve imported our data twice, using two different commands. This was done so that you can see some of how R works under-the-hood and some typical behavior of the Tidyverse versus base package. We already mentioned that you can click on the object in the Environment Viewer to look at it, but it’s also typical to just print it to the console. You may be tempted to execute:

> print(diamonds)

But the print() function is not necessary except in specific cases, like within a for loop. As with a Jupyter notebook, you can just execute the object name, e.g.:

> diamonds

This will print the object to the console. We won’t reproduce it here, but if you do execute the above command, you’ll notice that this is not a nice output! Indeed, one wonders why the default output allows so much to be printed to the console in interactive mode. Now try with the data frame we read in using read_csv():

> diamonds_2
# A tibble: 53,940 x 10
   carat cut       color clarity depth table price     x     y     z
   <dbl> <chr>     <chr> <chr>   <dbl> <dbl> <dbl> <dbl> <dbl> <dbl>
 1 0.23  Ideal     E     SI2      61.5    55   326  3.95  3.98  2.43
 2 0.21  Premium   E     SI1      59.8    61   326  3.89  3.84  2.31
 3 0.23  Good      E     VS1      56.9    65   327  4.05  4.07  2.31
 4 0.290 Premium   I     VS2      62.4    58   334  4.2   4.23  2.63
 5 0.31  Good      J     SI2      63.3    58   335  4.34  4.35  2.75
 6 0.24  Very Good J     VVS2     62.8    57   336  3.94  3.96  2.48
 7 0.24  Very Good I     VVS1     62.3    57   336  3.95  3.98  2.47
 8 0.26  Very Good H     SI1      61.9    55   337  4.07  4.11  2.53
 9 0.22  Fair      E     VS2      65.1    61   337  3.87  3.78  2.49
10 0.23  Very Good H     VS1      59.4    61   338  4     4.05  2.39
# … with 53,930 more rows

Wow! That’s a much nicer output than the default base R version. We have a neat little table with the names of the columns on one row, and 3-letter codes for the data types below that in <>. We only see the first 10 rows and then a note telling us how much we’re not seeing. If there were too many columns for our screen, we’d see them listed at the bottom. Give that a try, set your console output to be very narrow and execute the command again:

# A tibble: 53,940 x 10
   carat cut     color clarity
   <dbl> <chr>   <chr> <chr>
 1 0.23  Ideal   E     SI2
 2 0.21  Premium E     SI1
 3 0.23  Good    E     VS1
 4 0.290 Premium I     VS2
 5 0.31  Good    J     SI2
 6 0.24  Very G… J     VVS2
 7 0.24  Very G… I     VVS1
 8 0.26  Very G… H     SI1
 9 0.22  Fair    E     VS2
10 0.23  Very G… H     VS1
# … with 53,930 more rows,
#   and 6 more variables:
#   depth <dbl>, table <dbl>,
#   price <dbl>, x <dbl>,
#   y <dbl>, z <dbl>
…
