…
现在你已经掌握了在 R 中定位文件的窍门，让我们实际读取一些数据。书籍仓库包含一个[*datasets*文件夹](https://oreil.ly/wtneb)，其中有一个*star*子文件夹。其中包含了两个文件：*districts.csv*和*star.xlsx*。

要读取*.csv*文件，我们可以使用`readr`中的`read_csv()`函数。该包是`tidyverse`集合的一部分，因此我们无需安装或加载任何新内容。我们将文件的位置传递给该函数。（现在你明白为什么理解工作目录和文件路径是有帮助的了吗？）

```py
read_csv('datasets/star/districts.csv')
#>-- Column specification ---------------------------
#> cols(
#>  schidkn = col_double(),
#>  school_name = col_character(),
#>  county = col_character()
#> )
#>
#> # A tibble: 89 x 3
#>   schidkn school_name     county
#>     <dbl> <chr>           <chr>
#> 1       1 Rosalia         New Liberty
#> 2       2 Montgomeryville Topton
#> 3       3 Davy            Wahpeton
#> 4       4 Steelton        Palestine
#> 5       5 Bonifay         Reddell
#> 6       6 Tolchester      Sattley
#> 7       7 Cahokia         Sattley
#> 8       8 Plattsmouth     Sugar Mountain
#> 9       9 Bainbridge      Manteca
#>10      10 Bull Run        Manteca
#> # ... with 79 more rows
```

这会产生相当多的输出。首先，指定了我们的列，并告知了用于将数据解析到 R 中的函数。接下来，列出了数据的前几行，作为一个*tibble*。这是对数据框的现代化处理。它仍然是一个数据框，并且大部分行为与数据框类似，但做了一些修改以使其更易于在`tidyverse`中使用。

尽管我们能够将数据读入 R 中，但除非我们将其分配给一个对象，否则我们将无法对其进行操作：

```py
districts <- read_csv('datasets/star/districts.csv')
```

tibble 的许多好处之一是，我们可以打印它，而不必担心控制台输出过多；仅打印前 10 行：

```py
districts
#> # A tibble: 89 x 3
#>   schidkn school_name     county
#>     <dbl> <chr>           <chr>
#> 1       1 Rosalia         New Liberty
#> 2       2 Montgomeryville Topton
#> 3       3 Davy            Wahpeton
#> 4       4 Steelton        Palestine
#> 5       5 Bonifay         Reddell
#> 6       6 Tolchester      Sattley
#> 7       7 Cahokia         Sattley
#> 8       8 Plattsmouth     Sugar Mountain
#> 9       9 Bainbridge      Manteca
#> 10      10 Bull Run        Manteca
#> # ... with 79 more rows
```
…
