…
为了简洁起见，我不会涵盖`dplyr`的所有函数，甚至不会涵盖我们所涵盖的函数的所有使用方式。要了解更多关于该包的信息，请查看Hadley Wickham和Garrett Grolemund（O’Reilly）的《*R for Data Science*》。您还可以通过在RStudio中导航到帮助→ 速查表→ 使用`dplyr`进行数据转换来访问一张有用的速查表，总结`dplyr`的许多函数是如何一起工作的。

## 列操作

在 Excel 中选择和删除列通常需要隐藏或删除它们。这可能会导致审计或重现困难，因为隐藏的列容易被忽略，而删除的列不容易恢复。`select()` 函数可用于从 R 的数据框中选择指定列。对于 `select()`，以及每个这样的函数，第一个参数将是要处理的数据框。然后，提供其他参数来操作该数据框中的数据。例如，我们可以像这样从 `star` 中选择 *tmathssk*、*treadssk* 和 *schidkin*：

```py
select(star, tmathssk, treadssk, schidkn)
#> # A tibble: 5,748 x 3
#>    tmathssk treadssk schidkn
#>       <dbl>    <dbl>   <dbl>
#>  1      473      447      63
#>  2      536      450      20
#>  3      463      439      19
#>  4      559      448      69
#>  5      489      447      79
#>  6      454      431       5
#>  7      423      395      16
#>  8      500      451      56
#>  9      439      478      11
#> 10      528      455      66
#> # ... with 5,738 more rows
```
…
###### 图 8-1\. Excel 中的自定义排序菜单

我们可以通过使用 `arrange()` 函数在 `dplyr` 中复制这一过程，按照希望数据框排序的顺序包括每一列：

```py
arrange(star, classk, treadssk)
#> # A tibble: 5,748 x 5
#>    tmathssk treadssk classk  totexpk ttl_score
#>       <dbl>    <dbl> <chr>     <dbl>     <dbl>
#>  1      320      315 regular       3       635
#>  2      365      346 regular       0       711
#>  3      384      358 regular      20       742
#>  4      384      358 regular       3       742
#>  5      320      360 regular       6       680
#>  6      423      376 regular      13       799
#>  7      418      378 regular      13       796
#>  8      392      378 regular      13       770
#>  9      392      378 regular       3       770
#> 10      399      380 regular       6       779
#> # ... with 5,738 more rows
```
…
Excel 表包括有助于根据给定条件过滤任何列的下拉菜单。要在 R 中过滤数据框，我们将使用名为 `filter()` 的函数。让我们过滤 `star`，仅保留 `classk` 等于 `small.class` 的记录。请记住，因为我们检查的是相等性而不是分配对象，所以在这里我们必须使用 `==` 而不是 `=`：

```py
filter(star, classk == 'small.class')
#> # A tibble: 1,733 x 5
#>    tmathssk treadssk classk      totexpk ttl_score
#>       <dbl>    <dbl> <chr>         <dbl>     <dbl>
#>  1      473      447 small.class       7       920
#>  2      536      450 small.class      21       986
#>  3      489      447 small.class       5       936
#>  4      439      478 small.class      11       917
#>  5      528      455 small.class      10       983
#>  6      559      474 small.class       0      1033
#>  7      494      424 small.class       6       918
#>  8      478      422 small.class       8       900
#>  9      602      456 small.class      14      1058
#> 10      439      418 small.class       8       857
#> # ... with 1,723 more rows
```

从 tibble 输出中我们可以看到，我们的 `filter()` 操作 *仅* 影响了行数，*而不是* 列数。现在让我们找出 `treadssk` 至少为 `500` 的记录：

```py
filter(star, treadssk >= 500)
#> # A tibble: 233 x 5
#>    tmathssk treadssk classk            totexpk ttl_score
#>       <dbl>    <dbl> <chr>               <dbl>     <dbl>
#>  1      559      522 regular                 8      1081
#>  2      536      507 regular.with.aide       3      1043
#>  3      547      565 regular.with.aide       9      1112
#>  4      513      503 small.class             7      1016
#>  5      559      605 regular.with.aide       5      1164
#>  6      559      554 regular                14      1113
#>  7      559      503 regular                10      1062
#>  8      602      518 regular                12      1120
#>  9      536      580 small.class            12      1116
#> 10      626      510 small.class            14      1136
#> # ... with 223 more rows
```

可以使用 `&` 运算符进行多条件过滤，“与” 和 `|` 运算符进行“或”运算。让我们将之前的两个条件用 `&` 结合起来：

```py
# Get records where classk is small.class and
# treadssk is at least 500
filter(star, classk == 'small.class' & treadssk >= 500)
#> # A tibble: 84 x 5
#>    tmathssk treadssk classk      totexpk ttl_score
#>       <dbl>    <dbl> <chr>         <dbl>     <dbl>
#>  1      513      503 small.class       7      1016
#>  2      536      580 small.class      12      1116
#>  3      626      510 small.class      14      1136
#>  4      602      518 small.class       3      1120
#>  5      626      565 small.class      14      1191
#>  6      602      503 small.class      14      1105
#>  7      626      538 small.class      13      1164
#>  8      500      580 small.class       8      1080
#>  9      489      565 small.class      19      1054
#> 10      576      545 small.class      19      1121
#> # ... with 74 more rows
```
…
看起来需要的类似于`VLOOKUP()`的功能：我们希望从*districts*中“读入”*school_name*（可能还包括*county*）变量到*star*，给定共享的*schidkn*变量。要在R中实现这一点，我们将使用*joins*的方法，它来自关系数据库，这是在[第5章](ch05.html#data-analytics-stack)中讨论过的主题。与`VLOOKUP()`最接近的是左外连接，在`dplyr`中可以使用`left_join()`函数实现。我们将首先提供“基本”表(*star*)，然后是“查找”表(*districts*)。该函数将在*star*的每条记录中查找并返回*districts*中的匹配项，如果没有找到匹配项则返回`NA`。为了减少控制台输出的过多信息，我将仅保留来自*star*的一些列：

```py
# Left outer join star on districts
left_join(select(star, schidkn, tmathssk, treadssk), districts)
#> Joining, by = "schidkn"
#> # A tibble: 5,748 x 5
#>    schidkn tmathssk treadssk school_name     county
#>      <dbl>    <dbl>    <dbl> <chr>           <chr>
#>  1      63      473      447 Ridgeville      New Liberty
#>  2      20      536      450 South Heights   Selmont
#>  3      19      463      439 Bunnlevel       Sattley
#>  4      69      559      448 Hokah           Gallipolis
#>  5      79      489      447 Lake Mathews    Sugar Mountain
#>  6       5      454      431 NA              NA
#>  7      16      423      395 Calimesa        Selmont
#>  8      56      500      451 Lincoln Heights Topton
#>  9      11      439      478 Moose Lake      Imbery
#> 10      66      528      455 Siglerville     Summit Hill
#> # ... with 5,738 more rows
```
…
