…
这很好，但是我们*真正*想知道的是当我们将该模型应用于新数据集时，该模型的表现如何；这就是测试拆分的作用。要在`mpg_test`上进行预测，我们将使用`predict()`函数。我还将使用`bind_cols()`将预测的Y值列添加到数据框中。此列默认将被称为`.pred`。

```py
mpg_results <- predict(lm_fit, new_data = mpg_test) %>%
  bind_cols(mpg_test)

mpg_results
#> # A tibble: 98 x 6
#>    .pred   mpg weight horsepower origin cylinders
#>    <dbl> <dbl>  <dbl>      <dbl> <chr>      <dbl>
#>  1  20.0    16   3433        150 USA            8
#>  2  16.7    15   3850        190 USA            8
#>  3  25.2    18   2774         97 USA            6
#>  4  30.3    27   2130         88 Asia           4
#>  5  28.0    24   2430         90 Europe         4
#>  6  21.0    19   3302         88 USA            6
#>  7  14.2    14   4154        153 USA            8
#>  8  14.7    14   4096        150 USA            8
#>  9  29.6    23   2220         86 USA            4
#> 10  29.2    24   2278         95 Asia           4
#> # ... with 88 more rows
```
…
